\relax 
\@writefile{lol}{\contentsline {lstlisting}{HW4\textunderscore q1.m}{1}}
\@writefile{lol}{\contentsline {lstlisting}{plot\textunderscore conical.m}{6}}
\@writefile{lof}{\contentsline {figure}{\numberline {1}{\ignorespaces Variation of Cone half apex angle, $\delta _c$ with Shock angle, $ \theta _s$. NACA 1135 data also included. Calculated for a $\Delta \Psi $ of 0.2}}{10}}
\newlabel{fig:theta1}{{1}{10}}
\@writefile{lof}{\contentsline {figure}{\numberline {2}{\ignorespaces Variation of Cone apex half angle, $\delta _c$ with Shock angle, $\theta _s$. NACA 1135 data also included. Calculated for a $\Delta \Psi $ of 0.4}}{11}}
\newlabel{fig:theta21}{{2}{11}}
\@writefile{lof}{\contentsline {figure}{\numberline {3}{\ignorespaces Variation of coefficient of pressure at cone, $(C_p)_c$ with Cone apex half angle, $\delta _s$. NACA 1135 data also included. Calculated for a $\Delta \Psi $ of 0.2}}{12}}
\newlabel{fig:cpc1}{{3}{12}}
\@writefile{lof}{\contentsline {figure}{\numberline {4}{\ignorespaces Variation of coefficient of pressure at cone, $(C_p)_c$ with Cone apex half angle, $\delta _s$. NACA 1135 data also included. Calculated for a $\Delta \Psi $ of 0.4}}{13}}
\newlabel{fig:cpc1}{{4}{13}}
\@writefile{lof}{\contentsline {figure}{\numberline {5}{\ignorespaces Variation of Mach number at cone surface, $M_c$ with Cone half apex angle, $\delta _c$. NACA 1135 data also included. Calculated for a $\Delta \Psi $ of 0.2}}{14}}
\newlabel{fig:Mc1}{{5}{14}}
\@writefile{lof}{\contentsline {figure}{\numberline {6}{\ignorespaces Variation of Mach number at cone surface, $M_c$ with Cone half apex angle, $\delta _c$. NACA 1135 data also included. Calculated for a $\Delta \Psi $ of 0.4}}{15}}
\newlabel{fig:Mc1}{{6}{15}}
