\relax 
\providecommand\zref@newlabel[2]{}
\@writefile{lot}{\contentsline {table}{\numberline {1}{\ignorespaces Inputs and results for Case 1, \textbf  {\# of Corrector Iterations: 2}}}{1}}
\newlabel{my-label}{{1}{1}}
\@writefile{lot}{\contentsline {table}{\numberline {2}{\ignorespaces Inputs and results for Case 2, \textbf  {\# of Corrector Iterations: 1}}}{1}}
\newlabel{my-label}{{2}{1}}
\@writefile{lot}{\contentsline {table}{\numberline {3}{\ignorespaces Inputs and results for Case 3, \textbf  {\# of Corrector Iterations: 1}}}{1}}
\newlabel{my-label}{{3}{1}}
\@writefile{lol}{\contentsline {lstlisting}{HW6\textunderscore Q1.m}{2}}
\@writefile{lof}{\contentsline {figure}{\numberline {1}{\ignorespaces Spatial distributions of $u/a_4$ for the given range of $x$ (-1.0025 m to -0.26444m)}}{6}}
\newlabel{fig:u_a4}{{1}{6}}
\@writefile{lof}{\contentsline {figure}{\numberline {2}{\ignorespaces Spatial distributions of $a/a_4$ for the given range of $x$ (-1.0025 m to -0.26444m)}}{7}}
\newlabel{fig:a_a4}{{2}{7}}
\@writefile{lof}{\contentsline {figure}{\numberline {3}{\ignorespaces Spatial distributions of $T/T_4$ for the given range of $x$ (-1.0025 m to -0.26444m)}}{8}}
\newlabel{fig:T_T4}{{3}{8}}
\@writefile{lof}{\contentsline {figure}{\numberline {4}{\ignorespaces Spatial distributions of $P/P_4$ for the given range of $x$ (-1.0025 m to -0.26444m)}}{9}}
\newlabel{fig:P_P4}{{4}{9}}
\@writefile{lof}{\contentsline {figure}{\numberline {5}{\ignorespaces Spatial distributions of $\rho /\rho _4$ for the given range of $x$ (-1.0025 m to -0.26444m)}}{10}}
\newlabel{fig:rho_rho4}{{5}{10}}
