%!PS-Adobe-3.0 EPSF-3.0
%%Creator: (MATLAB, The Mathworks, Inc. Version 8.4.0.150421 \(R2014b\). Operating System: Windows 8)
%%Title: (C:/Users/kartrmswy/Dropbox/F15/AE 510/HW6/P_P4.eps)
%%CreationDate: 2015-11-17T01:56:08
%%Pages: (atend)
%%BoundingBox: 0 0 420 315
%%LanguageLevel: 2
%%EndComments
%%BeginProlog
%%BeginResource: procset (Apache XML Graphics Std ProcSet) 1.2 0
%%Version: 1.2 0
%%Copyright: (Copyright 2001-2003,2010 The Apache Software Foundation. License terms: http://www.apache.org/licenses/LICENSE-2.0)
/bd{bind def}bind def
/ld{load def}bd
/GR/grestore ld
/M/moveto ld
/LJ/setlinejoin ld
/C/curveto ld
/f/fill ld
/LW/setlinewidth ld
/GC/setgray ld
/t/show ld
/N/newpath ld
/CT/concat ld
/cp/closepath ld
/S/stroke ld
/L/lineto ld
/CC/setcmykcolor ld
/A/ashow ld
/GS/gsave ld
/RC/setrgbcolor ld
/RM/rmoveto ld
/ML/setmiterlimit ld
/re {4 2 roll M
1 index 0 rlineto
0 exch rlineto
neg 0 rlineto
cp } bd
/_ctm matrix def
/_tm matrix def
/BT { _ctm currentmatrix pop matrix _tm copy pop 0 0 moveto } bd
/ET { _ctm setmatrix } bd
/iTm { _ctm setmatrix _tm concat } bd
/Tm { _tm astore pop iTm 0 0 moveto } bd
/ux 0.0 def
/uy 0.0 def
/F {
  /Tp exch def
  /Tf exch def
  Tf findfont Tp scalefont setfont
  /cf Tf def  /cs Tp def
} bd
/ULS {currentpoint /uy exch def /ux exch def} bd
/ULE {
  /Tcx currentpoint pop def
  gsave
  newpath
  cf findfont cs scalefont dup
  /FontMatrix get 0 get /Ts exch def /FontInfo get dup
  /UnderlinePosition get Ts mul /To exch def
  /UnderlineThickness get Ts mul /Tt exch def
  ux uy To add moveto  Tcx uy To add lineto
  Tt setlinewidth stroke
  grestore
} bd
/OLE {
  /Tcx currentpoint pop def
  gsave
  newpath
  cf findfont cs scalefont dup
  /FontMatrix get 0 get /Ts exch def /FontInfo get dup
  /UnderlinePosition get Ts mul /To exch def
  /UnderlineThickness get Ts mul /Tt exch def
  ux uy To add cs add moveto Tcx uy To add cs add lineto
  Tt setlinewidth stroke
  grestore
} bd
/SOE {
  /Tcx currentpoint pop def
  gsave
  newpath
  cf findfont cs scalefont dup
  /FontMatrix get 0 get /Ts exch def /FontInfo get dup
  /UnderlinePosition get Ts mul /To exch def
  /UnderlineThickness get Ts mul /Tt exch def
  ux uy To add cs 10 mul 26 idiv add moveto Tcx uy To add cs 10 mul 26 idiv add lineto
  Tt setlinewidth stroke
  grestore
} bd
/QT {
/Y22 exch store
/X22 exch store
/Y21 exch store
/X21 exch store
currentpoint
/Y21 load 2 mul add 3 div exch
/X21 load 2 mul add 3 div exch
/X21 load 2 mul /X22 load add 3 div
/Y21 load 2 mul /Y22 load add 3 div
/X22 load /Y22 load curveto
} bd
/SSPD {
dup length /d exch dict def
{
/v exch def
/k exch def
currentpagedevice k known {
/cpdv currentpagedevice k get def
v cpdv ne {
/upd false def
/nullv v type /nulltype eq def
/nullcpdv cpdv type /nulltype eq def
nullv nullcpdv or
{
/upd true def
} {
/sametype v type cpdv type eq def
sametype {
v type /arraytype eq {
/vlen v length def
/cpdvlen cpdv length def
vlen cpdvlen eq {
0 1 vlen 1 sub {
/i exch def
/obj v i get def
/cpdobj cpdv i get def
obj cpdobj ne {
/upd true def
exit
} if
} for
} {
/upd true def
} ifelse
} {
v type /dicttype eq {
v {
/dv exch def
/dk exch def
/cpddv cpdv dk get def
dv cpddv ne {
/upd true def
exit
} if
} forall
} {
/upd true def
} ifelse
} ifelse
} if
} ifelse
upd true eq {
d k v put
} if
} if
} if
} forall
d length 0 gt {
d setpagedevice
} if
} bd
%%EndResource
%%BeginResource: procset (Apache XML Graphics EPS ProcSet) 1.0 0
%%Version: 1.0 0
%%Copyright: (Copyright 2002-2003 The Apache Software Foundation. License terms: http://www.apache.org/licenses/LICENSE-2.0)
/BeginEPSF { %def
/b4_Inc_state save def         % Save state for cleanup
/dict_count countdictstack def % Count objects on dict stack
/op_count count 1 sub def      % Count objects on operand stack
userdict begin                 % Push userdict on dict stack
/showpage { } def              % Redefine showpage, { } = null proc
0 setgray 0 setlinecap         % Prepare graphics state
1 setlinewidth 0 setlinejoin
10 setmiterlimit [ ] 0 setdash newpath
/languagelevel where           % If level not equal to 1 then
{pop languagelevel             % set strokeadjust and
1 ne                           % overprint to their defaults.
{false setstrokeadjust false setoverprint
} if
} if
} bd
/EndEPSF { %def
count op_count sub {pop} repeat            % Clean up stacks
countdictstack dict_count sub {end} repeat
b4_Inc_state restore
} bd
%%EndResource
%FOPBeginFontDict
%%IncludeResource: font Courier-Bold
%%IncludeResource: font Helvetica
%%IncludeResource: font Courier-BoldOblique
%%IncludeResource: font Courier-Oblique
%%IncludeResource: font Times-Roman
%%IncludeResource: font Helvetica-BoldOblique
%%IncludeResource: font Helvetica-Bold
%%IncludeResource: font Helvetica-Oblique
%%IncludeResource: font Times-BoldItalic
%%IncludeResource: font Courier
%%IncludeResource: font Times-Italic
%%IncludeResource: font Times-Bold
%%IncludeResource: font Symbol
%%IncludeResource: font ZapfDingbats
%FOPEndFontDict
%%BeginResource: encoding WinAnsiEncoding
/WinAnsiEncoding [
/.notdef /.notdef /.notdef /.notdef /.notdef
/.notdef /.notdef /.notdef /.notdef /.notdef
/.notdef /.notdef /.notdef /.notdef /.notdef
/.notdef /.notdef /.notdef /.notdef /.notdef
/.notdef /.notdef /.notdef /.notdef /.notdef
/.notdef /.notdef /.notdef /.notdef /.notdef
/.notdef /.notdef /space /exclam /quotedbl
/numbersign /dollar /percent /ampersand /quotesingle
/parenleft /parenright /asterisk /plus /comma
/hyphen /period /slash /zero /one
/two /three /four /five /six
/seven /eight /nine /colon /semicolon
/less /equal /greater /question /at
/A /B /C /D /E
/F /G /H /I /J
/K /L /M /N /O
/P /Q /R /S /T
/U /V /W /X /Y
/Z /bracketleft /backslash /bracketright /asciicircum
/underscore /quoteleft /a /b /c
/d /e /f /g /h
/i /j /k /l /m
/n /o /p /q /r
/s /t /u /v /w
/x /y /z /braceleft /bar
/braceright /asciitilde /bullet /Euro /bullet
/quotesinglbase /florin /quotedblbase /ellipsis /dagger
/daggerdbl /circumflex /perthousand /Scaron /guilsinglleft
/OE /bullet /Zcaron /bullet /bullet
/quoteleft /quoteright /quotedblleft /quotedblright /bullet
/endash /emdash /asciitilde /trademark /scaron
/guilsinglright /oe /bullet /zcaron /Ydieresis
/space /exclamdown /cent /sterling /currency
/yen /brokenbar /section /dieresis /copyright
/ordfeminine /guillemotleft /logicalnot /sfthyphen /registered
/macron /degree /plusminus /twosuperior /threesuperior
/acute /mu /paragraph /middot /cedilla
/onesuperior /ordmasculine /guillemotright /onequarter /onehalf
/threequarters /questiondown /Agrave /Aacute /Acircumflex
/Atilde /Adieresis /Aring /AE /Ccedilla
/Egrave /Eacute /Ecircumflex /Edieresis /Igrave
/Iacute /Icircumflex /Idieresis /Eth /Ntilde
/Ograve /Oacute /Ocircumflex /Otilde /Odieresis
/multiply /Oslash /Ugrave /Uacute /Ucircumflex
/Udieresis /Yacute /Thorn /germandbls /agrave
/aacute /acircumflex /atilde /adieresis /aring
/ae /ccedilla /egrave /eacute /ecircumflex
/edieresis /igrave /iacute /icircumflex /idieresis
/eth /ntilde /ograve /oacute /ocircumflex
/otilde /odieresis /divide /oslash /ugrave
/uacute /ucircumflex /udieresis /yacute /thorn
/ydieresis
] def
%%EndResource
%FOPBeginFontReencode
/Courier-Bold findfont
dup length dict begin
  {1 index /FID ne {def} {pop pop} ifelse} forall
  /Encoding WinAnsiEncoding def
  currentdict
end
/Courier-Bold exch definefont pop
/Helvetica findfont
dup length dict begin
  {1 index /FID ne {def} {pop pop} ifelse} forall
  /Encoding WinAnsiEncoding def
  currentdict
end
/Helvetica exch definefont pop
/Courier-BoldOblique findfont
dup length dict begin
  {1 index /FID ne {def} {pop pop} ifelse} forall
  /Encoding WinAnsiEncoding def
  currentdict
end
/Courier-BoldOblique exch definefont pop
/Courier-Oblique findfont
dup length dict begin
  {1 index /FID ne {def} {pop pop} ifelse} forall
  /Encoding WinAnsiEncoding def
  currentdict
end
/Courier-Oblique exch definefont pop
/Times-Roman findfont
dup length dict begin
  {1 index /FID ne {def} {pop pop} ifelse} forall
  /Encoding WinAnsiEncoding def
  currentdict
end
/Times-Roman exch definefont pop
/Helvetica-BoldOblique findfont
dup length dict begin
  {1 index /FID ne {def} {pop pop} ifelse} forall
  /Encoding WinAnsiEncoding def
  currentdict
end
/Helvetica-BoldOblique exch definefont pop
/Helvetica-Bold findfont
dup length dict begin
  {1 index /FID ne {def} {pop pop} ifelse} forall
  /Encoding WinAnsiEncoding def
  currentdict
end
/Helvetica-Bold exch definefont pop
/Helvetica-Oblique findfont
dup length dict begin
  {1 index /FID ne {def} {pop pop} ifelse} forall
  /Encoding WinAnsiEncoding def
  currentdict
end
/Helvetica-Oblique exch definefont pop
/Times-BoldItalic findfont
dup length dict begin
  {1 index /FID ne {def} {pop pop} ifelse} forall
  /Encoding WinAnsiEncoding def
  currentdict
end
/Times-BoldItalic exch definefont pop
/Courier findfont
dup length dict begin
  {1 index /FID ne {def} {pop pop} ifelse} forall
  /Encoding WinAnsiEncoding def
  currentdict
end
/Courier exch definefont pop
/Times-Italic findfont
dup length dict begin
  {1 index /FID ne {def} {pop pop} ifelse} forall
  /Encoding WinAnsiEncoding def
  currentdict
end
/Times-Italic exch definefont pop
/Times-Bold findfont
dup length dict begin
  {1 index /FID ne {def} {pop pop} ifelse} forall
  /Encoding WinAnsiEncoding def
  currentdict
end
/Times-Bold exch definefont pop
%FOPEndFontReencode
%%EndProlog
%%Page: 1 1
%%PageBoundingBox: 0 0 420 315
%%BeginPageSetup
[1 0 0 -1 0 315] CT
%%EndPageSetup
GS
[0.75 0 0 0.75 0 0] CT
1 GC
N
0 0 560 420 re
f
GR
GS
[0.75 0 0 0.75 0 0] CT
1 GC
N
0 0 560 420 re
f
GR
GS
[0.75 0 0 0.75 0 0] CT
1 GC
N
77 361 M
507 361 L
507 31 L
77 31 L
cp
f
GR
GS
[0.75 0 0 0.75 0 0] CT
0.873 GC
2 setlinecap
10.0 ML
N
77 361 M
77 31 L
S
GR
GS
[0.75 0 0 0.75 0 0] CT
0.873 GC
2 setlinecap
10.0 ML
N
124.778 361 M
124.778 31 L
S
GR
GS
[0.75 0 0 0.75 0 0] CT
0.873 GC
2 setlinecap
10.0 ML
N
172.556 361 M
172.556 31 L
S
GR
GS
[0.75 0 0 0.75 0 0] CT
0.873 GC
2 setlinecap
10.0 ML
N
220.333 361 M
220.333 31 L
S
GR
GS
[0.75 0 0 0.75 0 0] CT
0.873 GC
2 setlinecap
10.0 ML
N
268.111 361 M
268.111 31 L
S
GR
GS
[0.75 0 0 0.75 0 0] CT
0.873 GC
2 setlinecap
10.0 ML
N
315.889 361 M
315.889 31 L
S
GR
GS
[0.75 0 0 0.75 0 0] CT
0.873 GC
2 setlinecap
10.0 ML
N
363.667 361 M
363.667 31 L
S
GR
GS
[0.75 0 0 0.75 0 0] CT
0.873 GC
2 setlinecap
10.0 ML
N
411.444 361 M
411.444 31 L
S
GR
GS
[0.75 0 0 0.75 0 0] CT
0.873 GC
2 setlinecap
10.0 ML
N
459.222 361 M
459.222 31 L
S
GR
GS
[0.75 0 0 0.75 0 0] CT
0.873 GC
2 setlinecap
10.0 ML
N
507 361 M
507 31 L
S
GR
GS
[0.75 0 0 0.75 0 0] CT
0.873 GC
2 setlinecap
10.0 ML
N
507 361 M
77 361 L
S
GR
GS
[0.75 0 0 0.75 0 0] CT
0.873 GC
2 setlinecap
10.0 ML
N
507 306 M
77 306 L
S
GR
GS
[0.75 0 0 0.75 0 0] CT
0.873 GC
2 setlinecap
10.0 ML
N
507 251 M
77 251 L
S
GR
GS
[0.75 0 0 0.75 0 0] CT
0.873 GC
2 setlinecap
10.0 ML
N
507 196 M
77 196 L
S
GR
GS
[0.75 0 0 0.75 0 0] CT
0.873 GC
2 setlinecap
10.0 ML
N
507 141 M
77 141 L
S
GR
GS
[0.75 0 0 0.75 0 0] CT
0.873 GC
2 setlinecap
10.0 ML
N
507 86 M
77 86 L
S
GR
GS
[0.75 0 0 0.75 0 0] CT
0.873 GC
2 setlinecap
10.0 ML
N
507 31 M
77 31 L
S
GR
GS
[0.75 0 0 0.75 219 287.26366] CT
0.149 GC
/Times-Roman-Italic 33 F
GS
[1 0 0 1 0 0] CT
-7.323 30.108 moveto 
1 -1 scale
(x) t 
GR
GR
GS
[0.75 0 0 0.75 0 0] CT
0.149 GC
2 setlinecap
10.0 ML
N
77 361 M
507 361 L
S
GR
GS
[0.75 0 0 0.75 0 0] CT
0.149 GC
2 setlinecap
10.0 ML
N
77 31 M
507 31 L
S
GR
GS
[0.75 0 0 0.75 0 0] CT
0.149 GC
2 setlinecap
10.0 ML
N
77 361 M
77 356.66 L
S
GR
GS
[0.75 0 0 0.75 0 0] CT
0.149 GC
2 setlinecap
10.0 ML
N
77 31 M
77 35.34 L
S
GR
GS
[0.75 0 0 0.75 0 0] CT
0.149 GC
2 setlinecap
10.0 ML
N
124.778 361 M
124.778 356.66 L
S
GR
GS
[0.75 0 0 0.75 0 0] CT
0.149 GC
2 setlinecap
10.0 ML
N
124.778 31 M
124.778 35.34 L
S
GR
GS
[0.75 0 0 0.75 0 0] CT
0.149 GC
2 setlinecap
10.0 ML
N
172.556 361 M
172.556 356.66 L
S
GR
GS
[0.75 0 0 0.75 0 0] CT
0.149 GC
2 setlinecap
10.0 ML
N
172.556 31 M
172.556 35.34 L
S
GR
GS
[0.75 0 0 0.75 0 0] CT
0.149 GC
2 setlinecap
10.0 ML
N
220.333 361 M
220.333 356.66 L
S
GR
GS
[0.75 0 0 0.75 0 0] CT
0.149 GC
2 setlinecap
10.0 ML
N
220.333 31 M
220.333 35.34 L
S
GR
GS
[0.75 0 0 0.75 0 0] CT
0.149 GC
2 setlinecap
10.0 ML
N
268.111 361 M
268.111 356.66 L
S
GR
GS
[0.75 0 0 0.75 0 0] CT
0.149 GC
2 setlinecap
10.0 ML
N
268.111 31 M
268.111 35.34 L
S
GR
GS
[0.75 0 0 0.75 0 0] CT
0.149 GC
2 setlinecap
10.0 ML
N
315.889 361 M
315.889 356.66 L
S
GR
GS
[0.75 0 0 0.75 0 0] CT
0.149 GC
2 setlinecap
10.0 ML
N
315.889 31 M
315.889 35.34 L
S
GR
GS
[0.75 0 0 0.75 0 0] CT
0.149 GC
2 setlinecap
10.0 ML
N
363.667 361 M
363.667 356.66 L
S
GR
GS
[0.75 0 0 0.75 0 0] CT
0.149 GC
2 setlinecap
10.0 ML
N
363.667 31 M
363.667 35.34 L
S
GR
GS
[0.75 0 0 0.75 0 0] CT
0.149 GC
2 setlinecap
10.0 ML
N
411.444 361 M
411.444 356.66 L
S
GR
GS
[0.75 0 0 0.75 0 0] CT
0.149 GC
2 setlinecap
10.0 ML
N
411.444 31 M
411.444 35.34 L
S
GR
GS
[0.75 0 0 0.75 0 0] CT
0.149 GC
2 setlinecap
10.0 ML
N
459.222 361 M
459.222 356.66 L
S
GR
GS
[0.75 0 0 0.75 0 0] CT
0.149 GC
2 setlinecap
10.0 ML
N
459.222 31 M
459.222 35.34 L
S
GR
GS
[0.75 0 0 0.75 0 0] CT
0.149 GC
2 setlinecap
10.0 ML
N
507 361 M
507 356.66 L
S
GR
GS
[0.75 0 0 0.75 0 0] CT
0.149 GC
2 setlinecap
10.0 ML
N
507 31 M
507 35.34 L
S
GR
GS
[0.75 0 0 0.75 57.74999 274.74998] CT
0.149 GC
/Helvetica 13 F
GS
[1 0 0 1 0 0] CT
-11.2 13.07 moveto 
1 -1 scale
(-1.1) t 
GR
GR
GS
[0.75 0 0 0.75 93.58333 274.74998] CT
0.149 GC
/Helvetica 13 F
GS
[1 0 0 1 0 0] CT
-5.78 13.07 moveto 
1 -1 scale
(-1) t 
GR
GR
GS
[0.75 0 0 0.75 129.41668 274.74998] CT
0.149 GC
/Helvetica 13 F
GS
[1 0 0 1 0 0] CT
-11.2 13.07 moveto 
1 -1 scale
(-0.9) t 
GR
GR
GS
[0.75 0 0 0.75 165.25 274.74998] CT
0.149 GC
/Helvetica 13 F
GS
[1 0 0 1 0 0] CT
-11.2 13.07 moveto 
1 -1 scale
(-0.8) t 
GR
GR
GS
[0.75 0 0 0.75 201.08334 274.74998] CT
0.149 GC
/Helvetica 13 F
GS
[1 0 0 1 0 0] CT
-11.2 13.07 moveto 
1 -1 scale
(-0.7) t 
GR
GR
GS
[0.75 0 0 0.75 236.91666 274.74998] CT
0.149 GC
/Helvetica 13 F
GS
[1 0 0 1 0 0] CT
-11.2 13.07 moveto 
1 -1 scale
(-0.6) t 
GR
GR
GS
[0.75 0 0 0.75 272.74999 274.74998] CT
0.149 GC
/Helvetica 13 F
GS
[1 0 0 1 0 0] CT
-11.2 13.07 moveto 
1 -1 scale
(-0.5) t 
GR
GR
GS
[0.75 0 0 0.75 308.58332 274.74998] CT
0.149 GC
/Helvetica 13 F
GS
[1 0 0 1 0 0] CT
-11.2 13.07 moveto 
1 -1 scale
(-0.4) t 
GR
GR
GS
[0.75 0 0 0.75 344.41667 274.74998] CT
0.149 GC
/Helvetica 13 F
GS
[1 0 0 1 0 0] CT
-11.2 13.07 moveto 
1 -1 scale
(-0.3) t 
GR
GR
GS
[0.75 0 0 0.75 380.25 274.74998] CT
0.149 GC
/Helvetica 13 F
GS
[1 0 0 1 0 0] CT
-11.2 13.07 moveto 
1 -1 scale
(-0.2) t 
GR
GR
GS
[0 -0.75 0.75 0 21 171] CT
0.149 GC
/Times-Roman-Italic 33 F
GS
[1 0 0 1 0 0] CT
0 0 moveto 
1 -1 scale
(P/P) t 
GR
GR
GS
[0 -0.75 0.75 0 33 133.5] CT
0.149 GC
/Times-Roman-Italic 27 F
GS
[1 0 0 1 0 0] CT
0 0 moveto 
1 -1 scale
(4) t 
GR
GR
GS
[0.75 0 0 0.75 0 0] CT
0.149 GC
2 setlinecap
10.0 ML
N
77 361 M
77 31 L
S
GR
GS
[0.75 0 0 0.75 0 0] CT
0.149 GC
2 setlinecap
10.0 ML
N
507 361 M
507 31 L
S
GR
GS
[0.75 0 0 0.75 0 0] CT
0.149 GC
2 setlinecap
10.0 ML
N
77 361 M
81.34 361 L
S
GR
GS
[0.75 0 0 0.75 0 0] CT
0.149 GC
2 setlinecap
10.0 ML
N
507 361 M
502.66 361 L
S
GR
GS
[0.75 0 0 0.75 0 0] CT
0.149 GC
2 setlinecap
10.0 ML
N
77 306 M
81.34 306 L
S
GR
GS
[0.75 0 0 0.75 0 0] CT
0.149 GC
2 setlinecap
10.0 ML
N
507 306 M
502.66 306 L
S
GR
GS
[0.75 0 0 0.75 0 0] CT
0.149 GC
2 setlinecap
10.0 ML
N
77 251 M
81.34 251 L
S
GR
GS
[0.75 0 0 0.75 0 0] CT
0.149 GC
2 setlinecap
10.0 ML
N
507 251 M
502.66 251 L
S
GR
GS
[0.75 0 0 0.75 0 0] CT
0.149 GC
2 setlinecap
10.0 ML
N
77 196 M
81.34 196 L
S
GR
GS
[0.75 0 0 0.75 0 0] CT
0.149 GC
2 setlinecap
10.0 ML
N
507 196 M
502.66 196 L
S
GR
GS
[0.75 0 0 0.75 0 0] CT
0.149 GC
2 setlinecap
10.0 ML
N
77 141 M
81.34 141 L
S
GR
GS
[0.75 0 0 0.75 0 0] CT
0.149 GC
2 setlinecap
10.0 ML
N
507 141 M
502.66 141 L
S
GR
GS
[0.75 0 0 0.75 0 0] CT
0.149 GC
2 setlinecap
10.0 ML
N
77 86 M
81.34 86 L
S
GR
GS
[0.75 0 0 0.75 0 0] CT
0.149 GC
2 setlinecap
10.0 ML
N
507 86 M
502.66 86 L
S
GR
GS
[0.75 0 0 0.75 0 0] CT
0.149 GC
2 setlinecap
10.0 ML
N
77 31 M
81.34 31 L
S
GR
GS
[0.75 0 0 0.75 0 0] CT
0.149 GC
2 setlinecap
10.0 ML
N
507 31 M
502.66 31 L
S
GR
GS
[0.75 0 0 0.75 53.75 270.75] CT
0.149 GC
/Helvetica 13 F
GS
[1 0 0 1 0 0] CT
-18.072 5.394 moveto 
1 -1 scale
(0.4) t 
GR
GR
GS
[0.75 0 0 0.75 53.75 229.5] CT
0.149 GC
/Helvetica 13 F
GS
[1 0 0 1 0 0] CT
-18.072 5.394 moveto 
1 -1 scale
(0.5) t 
GR
GR
GS
[0.75 0 0 0.75 53.75 188.24999] CT
0.149 GC
/Helvetica 13 F
GS
[1 0 0 1 0 0] CT
-18.072 5.394 moveto 
1 -1 scale
(0.6) t 
GR
GR
GS
[0.75 0 0 0.75 53.75 147] CT
0.149 GC
/Helvetica 13 F
GS
[1 0 0 1 0 0] CT
-18.072 5.394 moveto 
1 -1 scale
(0.7) t 
GR
GR
GS
[0.75 0 0 0.75 53.75 105.75] CT
0.149 GC
/Helvetica 13 F
GS
[1 0 0 1 0 0] CT
-18.072 5.394 moveto 
1 -1 scale
(0.8) t 
GR
GR
GS
[0.75 0 0 0.75 53.75 64.50001] CT
0.149 GC
/Helvetica 13 F
GS
[1 0 0 1 0 0] CT
-18.072 5.394 moveto 
1 -1 scale
(0.9) t 
GR
GR
GS
[0.75 0 0 0.75 53.75 23.25] CT
0.149 GC
/Helvetica 13 F
GS
[1 0 0 1 0 0] CT
-7.23 5.394 moveto 
1 -1 scale
(1) t 
GR
GR
GS
[0.75 0 0 0.75 0 0] CT
0 0.447 0.741 RC
2 setlinecap
10.0 ML
N
123.715 31.016 M
127.275 35.769 L
130.836 40.487 L
134.396 45.171 L
137.957 49.819 L
141.518 54.433 L
145.078 59.012 L
148.639 63.557 L
152.199 68.068 L
155.76 72.545 L
159.321 76.989 L
162.881 81.4 L
166.442 85.777 L
170.002 90.122 L
173.563 94.433 L
177.123 98.713 L
180.684 102.96 L
184.245 107.174 L
187.805 111.357 L
191.366 115.509 L
194.926 119.628 L
198.487 123.717 L
202.047 127.774 L
205.608 131.801 L
209.169 135.797 L
212.729 139.762 L
216.29 143.697 L
219.85 147.602 L
223.411 151.477 L
226.971 155.322 L
230.532 159.137 L
234.093 162.924 L
237.653 166.681 L
241.214 170.409 L
244.774 174.108 L
248.335 177.779 L
251.896 181.422 L
255.456 185.036 L
259.017 188.622 L
262.577 192.18 L
266.138 195.71 L
269.698 199.213 L
273.259 202.689 L
276.82 206.137 L
280.38 209.559 L
283.941 212.954 L
287.501 216.322 L
291.062 219.663 L
294.622 222.979 L
298.183 226.268 L
301.744 229.531 L
305.304 232.769 L
308.865 235.981 L
312.425 239.167 L
315.986 242.328 L
319.547 245.465 L
323.107 248.576 L
326.668 251.662 L
330.228 254.724 L
333.789 257.762 L
337.349 260.775 L
340.91 263.764 L
344.471 266.729 L
348.031 269.67 L
351.592 272.588 L
355.152 275.482 L
358.713 278.353 L
362.273 281.201 L
365.834 284.026 L
369.395 286.828 L
372.955 289.607 L
376.516 292.364 L
380.076 295.098 L
383.637 297.81 L
387.198 300.5 L
390.758 303.168 L
394.319 305.814 L
397.879 308.439 L
401.44 311.042 L
405 313.624 L
408.561 316.185 L
412.122 318.724 L
415.682 321.243 L
419.243 323.741 L
422.803 326.218 L
426.364 328.675 L
429.924 331.111 L
433.485 333.528 L
437.046 335.924 L
440.606 338.3 L
444.167 340.657 L
447.727 342.994 L
451.288 345.311 L
454.849 347.609 L
458.409 349.888 L
461.97 352.148 L
465.53 354.388 L
469.091 356.61 L
472.651 358.814 L
476.212 360.998 L
S
GR
%%Trailer
%%Pages: 1
%%EOF
