%!PS-Adobe-3.0 EPSF-3.0
%%Creator: (MATLAB, The Mathworks, Inc. Version 8.4.0.150421 \(R2014b\). Operating System: Windows 8)
%%Title: C:/Users/kartrmswy/F15/AE510/R_10_EPS.eps
%%CreationDate: 2015-10-05T01:09:15
%%Pages: (atend)
%%BoundingBox: 0 0 420 315
%%LanguageLevel: 2
%%EndComments
%%BeginProlog
%%BeginResource: procset (Apache XML Graphics Std ProcSet) 1.2 0
%%Version: 1.2 0
%%Copyright: (Copyright 2001-2003,2010 The Apache Software Foundation. License terms: http://www.apache.org/licenses/LICENSE-2.0)
/bd{bind def}bind def
/ld{load def}bd
/GR/grestore ld
/M/moveto ld
/LJ/setlinejoin ld
/C/curveto ld
/f/fill ld
/LW/setlinewidth ld
/GC/setgray ld
/t/show ld
/N/newpath ld
/CT/concat ld
/cp/closepath ld
/S/stroke ld
/L/lineto ld
/CC/setcmykcolor ld
/A/ashow ld
/GS/gsave ld
/RC/setrgbcolor ld
/RM/rmoveto ld
/ML/setmiterlimit ld
/re {4 2 roll M
1 index 0 rlineto
0 exch rlineto
neg 0 rlineto
cp } bd
/_ctm matrix def
/_tm matrix def
/BT { _ctm currentmatrix pop matrix _tm copy pop 0 0 moveto } bd
/ET { _ctm setmatrix } bd
/iTm { _ctm setmatrix _tm concat } bd
/Tm { _tm astore pop iTm 0 0 moveto } bd
/ux 0.0 def
/uy 0.0 def
/F {
  /Tp exch def
  /Tf exch def
  Tf findfont Tp scalefont setfont
  /cf Tf def  /cs Tp def
} bd
/ULS {currentpoint /uy exch def /ux exch def} bd
/ULE {
  /Tcx currentpoint pop def
  gsave
  newpath
  cf findfont cs scalefont dup
  /FontMatrix get 0 get /Ts exch def /FontInfo get dup
  /UnderlinePosition get Ts mul /To exch def
  /UnderlineThickness get Ts mul /Tt exch def
  ux uy To add moveto  Tcx uy To add lineto
  Tt setlinewidth stroke
  grestore
} bd
/OLE {
  /Tcx currentpoint pop def
  gsave
  newpath
  cf findfont cs scalefont dup
  /FontMatrix get 0 get /Ts exch def /FontInfo get dup
  /UnderlinePosition get Ts mul /To exch def
  /UnderlineThickness get Ts mul /Tt exch def
  ux uy To add cs add moveto Tcx uy To add cs add lineto
  Tt setlinewidth stroke
  grestore
} bd
/SOE {
  /Tcx currentpoint pop def
  gsave
  newpath
  cf findfont cs scalefont dup
  /FontMatrix get 0 get /Ts exch def /FontInfo get dup
  /UnderlinePosition get Ts mul /To exch def
  /UnderlineThickness get Ts mul /Tt exch def
  ux uy To add cs 10 mul 26 idiv add moveto Tcx uy To add cs 10 mul 26 idiv add lineto
  Tt setlinewidth stroke
  grestore
} bd
/QT {
/Y22 exch store
/X22 exch store
/Y21 exch store
/X21 exch store
currentpoint
/Y21 load 2 mul add 3 div exch
/X21 load 2 mul add 3 div exch
/X21 load 2 mul /X22 load add 3 div
/Y21 load 2 mul /Y22 load add 3 div
/X22 load /Y22 load curveto
} bd
/SSPD {
dup length /d exch dict def
{
/v exch def
/k exch def
currentpagedevice k known {
/cpdv currentpagedevice k get def
v cpdv ne {
/upd false def
/nullv v type /nulltype eq def
/nullcpdv cpdv type /nulltype eq def
nullv nullcpdv or
{
/upd true def
} {
/sametype v type cpdv type eq def
sametype {
v type /arraytype eq {
/vlen v length def
/cpdvlen cpdv length def
vlen cpdvlen eq {
0 1 vlen 1 sub {
/i exch def
/obj v i get def
/cpdobj cpdv i get def
obj cpdobj ne {
/upd true def
exit
} if
} for
} {
/upd true def
} ifelse
} {
v type /dicttype eq {
v {
/dv exch def
/dk exch def
/cpddv cpdv dk get def
dv cpddv ne {
/upd true def
exit
} if
} forall
} {
/upd true def
} ifelse
} ifelse
} if
} ifelse
upd true eq {
d k v put
} if
} if
} if
} forall
d length 0 gt {
d setpagedevice
} if
} bd
%%EndResource
%%BeginResource: procset (Apache XML Graphics EPS ProcSet) 1.0 0
%%Version: 1.0 0
%%Copyright: (Copyright 2002-2003 The Apache Software Foundation. License terms: http://www.apache.org/licenses/LICENSE-2.0)
/BeginEPSF { %def
/b4_Inc_state save def         % Save state for cleanup
/dict_count countdictstack def % Count objects on dict stack
/op_count count 1 sub def      % Count objects on operand stack
userdict begin                 % Push userdict on dict stack
/showpage { } def              % Redefine showpage, { } = null proc
0 setgray 0 setlinecap         % Prepare graphics state
1 setlinewidth 0 setlinejoin
10 setmiterlimit [ ] 0 setdash newpath
/languagelevel where           % If level not equal to 1 then
{pop languagelevel             % set strokeadjust and
1 ne                           % overprint to their defaults.
{false setstrokeadjust false setoverprint
} if
} if
} bd
/EndEPSF { %def
count op_count sub {pop} repeat            % Clean up stacks
countdictstack dict_count sub {end} repeat
b4_Inc_state restore
} bd
%%EndResource
%FOPBeginFontDict
%%IncludeResource: font Courier-Bold
%%IncludeResource: font Helvetica
%%IncludeResource: font Courier-BoldOblique
%%IncludeResource: font Courier-Oblique
%%IncludeResource: font Times-Roman
%%IncludeResource: font Helvetica-BoldOblique
%%IncludeResource: font Helvetica-Bold
%%IncludeResource: font Helvetica-Oblique
%%IncludeResource: font Times-BoldItalic
%%IncludeResource: font Courier
%%IncludeResource: font Times-Italic
%%IncludeResource: font Times-Bold
%%IncludeResource: font Symbol
%%IncludeResource: font ZapfDingbats
%FOPEndFontDict
%%BeginResource: encoding WinAnsiEncoding
/WinAnsiEncoding [
/.notdef /.notdef /.notdef /.notdef /.notdef
/.notdef /.notdef /.notdef /.notdef /.notdef
/.notdef /.notdef /.notdef /.notdef /.notdef
/.notdef /.notdef /.notdef /.notdef /.notdef
/.notdef /.notdef /.notdef /.notdef /.notdef
/.notdef /.notdef /.notdef /.notdef /.notdef
/.notdef /.notdef /space /exclam /quotedbl
/numbersign /dollar /percent /ampersand /quotesingle
/parenleft /parenright /asterisk /plus /comma
/hyphen /period /slash /zero /one
/two /three /four /five /six
/seven /eight /nine /colon /semicolon
/less /equal /greater /question /at
/A /B /C /D /E
/F /G /H /I /J
/K /L /M /N /O
/P /Q /R /S /T
/U /V /W /X /Y
/Z /bracketleft /backslash /bracketright /asciicircum
/underscore /quoteleft /a /b /c
/d /e /f /g /h
/i /j /k /l /m
/n /o /p /q /r
/s /t /u /v /w
/x /y /z /braceleft /bar
/braceright /asciitilde /bullet /Euro /bullet
/quotesinglbase /florin /quotedblbase /ellipsis /dagger
/daggerdbl /circumflex /perthousand /Scaron /guilsinglleft
/OE /bullet /Zcaron /bullet /bullet
/quoteleft /quoteright /quotedblleft /quotedblright /bullet
/endash /emdash /asciitilde /trademark /scaron
/guilsinglright /oe /bullet /zcaron /Ydieresis
/space /exclamdown /cent /sterling /currency
/yen /brokenbar /section /dieresis /copyright
/ordfeminine /guillemotleft /logicalnot /sfthyphen /registered
/macron /degree /plusminus /twosuperior /threesuperior
/acute /mu /paragraph /middot /cedilla
/onesuperior /ordmasculine /guillemotright /onequarter /onehalf
/threequarters /questiondown /Agrave /Aacute /Acircumflex
/Atilde /Adieresis /Aring /AE /Ccedilla
/Egrave /Eacute /Ecircumflex /Edieresis /Igrave
/Iacute /Icircumflex /Idieresis /Eth /Ntilde
/Ograve /Oacute /Ocircumflex /Otilde /Odieresis
/multiply /Oslash /Ugrave /Uacute /Ucircumflex
/Udieresis /Yacute /Thorn /germandbls /agrave
/aacute /acircumflex /atilde /adieresis /aring
/ae /ccedilla /egrave /eacute /ecircumflex
/edieresis /igrave /iacute /icircumflex /idieresis
/eth /ntilde /ograve /oacute /ocircumflex
/otilde /odieresis /divide /oslash /ugrave
/uacute /ucircumflex /udieresis /yacute /thorn
/ydieresis
] def
%%EndResource
%FOPBeginFontReencode
/Courier-Bold findfont
dup length dict begin
  {1 index /FID ne {def} {pop pop} ifelse} forall
  /Encoding WinAnsiEncoding def
  currentdict
end
/Courier-Bold exch definefont pop
/Helvetica findfont
dup length dict begin
  {1 index /FID ne {def} {pop pop} ifelse} forall
  /Encoding WinAnsiEncoding def
  currentdict
end
/Helvetica exch definefont pop
/Courier-BoldOblique findfont
dup length dict begin
  {1 index /FID ne {def} {pop pop} ifelse} forall
  /Encoding WinAnsiEncoding def
  currentdict
end
/Courier-BoldOblique exch definefont pop
/Courier-Oblique findfont
dup length dict begin
  {1 index /FID ne {def} {pop pop} ifelse} forall
  /Encoding WinAnsiEncoding def
  currentdict
end
/Courier-Oblique exch definefont pop
/Times-Roman findfont
dup length dict begin
  {1 index /FID ne {def} {pop pop} ifelse} forall
  /Encoding WinAnsiEncoding def
  currentdict
end
/Times-Roman exch definefont pop
/Helvetica-BoldOblique findfont
dup length dict begin
  {1 index /FID ne {def} {pop pop} ifelse} forall
  /Encoding WinAnsiEncoding def
  currentdict
end
/Helvetica-BoldOblique exch definefont pop
/Helvetica-Bold findfont
dup length dict begin
  {1 index /FID ne {def} {pop pop} ifelse} forall
  /Encoding WinAnsiEncoding def
  currentdict
end
/Helvetica-Bold exch definefont pop
/Helvetica-Oblique findfont
dup length dict begin
  {1 index /FID ne {def} {pop pop} ifelse} forall
  /Encoding WinAnsiEncoding def
  currentdict
end
/Helvetica-Oblique exch definefont pop
/Times-BoldItalic findfont
dup length dict begin
  {1 index /FID ne {def} {pop pop} ifelse} forall
  /Encoding WinAnsiEncoding def
  currentdict
end
/Times-BoldItalic exch definefont pop
/Courier findfont
dup length dict begin
  {1 index /FID ne {def} {pop pop} ifelse} forall
  /Encoding WinAnsiEncoding def
  currentdict
end
/Courier exch definefont pop
/Times-Italic findfont
dup length dict begin
  {1 index /FID ne {def} {pop pop} ifelse} forall
  /Encoding WinAnsiEncoding def
  currentdict
end
/Times-Italic exch definefont pop
/Times-Bold findfont
dup length dict begin
  {1 index /FID ne {def} {pop pop} ifelse} forall
  /Encoding WinAnsiEncoding def
  currentdict
end
/Times-Bold exch definefont pop
%FOPEndFontReencode
%%EndProlog
%%Page: 1 1
%%PageBoundingBox: 0 0 420 315
%%BeginPageSetup
[1 0 0 -1 0 315] CT
%%EndPageSetup
GS
[0.75 0 0 0.75 0 0] CT
1 GC
N
0 0 560 420 re
f
GR
GS
[0.75 0 0 0.75 0 0] CT
1 GC
N
0 0 560 420 re
f
GR
GS
[0.75 0 0 0.75 0 0] CT
1 GC
N
82 353 M
507 353 L
507 38 L
82 38 L
cp
f
GR
GS
[0.75 0 0 0.75 220.875 287.24854] CT
0.149 GC
/Times-Roman-Italic 33 F
GS
[1 0 0 1 0 0] CT
-7.323 30.108 moveto 
1 -1 scale
(y) t 
GR
GR
GS
[0.75 0 0 0.75 0 0] CT
0.149 GC
2 setlinecap
10.0 ML
N
82 353 M
507 353 L
S
GR
GS
[0.75 0 0 0.75 0 0] CT
0.149 GC
2 setlinecap
10.0 ML
N
82 353 M
82 348.76 L
S
GR
GS
[0.75 0 0 0.75 0 0] CT
0.149 GC
2 setlinecap
10.0 ML
N
167 353 M
167 348.76 L
S
GR
GS
[0.75 0 0 0.75 0 0] CT
0.149 GC
2 setlinecap
10.0 ML
N
252 353 M
252 348.76 L
S
GR
GS
[0.75 0 0 0.75 0 0] CT
0.149 GC
2 setlinecap
10.0 ML
N
337 353 M
337 348.76 L
S
GR
GS
[0.75 0 0 0.75 0 0] CT
0.149 GC
2 setlinecap
10.0 ML
N
422 353 M
422 348.76 L
S
GR
GS
[0.75 0 0 0.75 0 0] CT
0.149 GC
2 setlinecap
10.0 ML
N
507 353 M
507 348.76 L
S
GR
GS
[0.75 0 0 0.75 61.5 269.74979] CT
0.149 GC
/Times-Roman 20 F
GS
[1 0 0 1 0 0] CT
-5 18.247 moveto 
1 -1 scale
(0) t 
GR
GR
GS
[0.75 0 0 0.75 125.25 269.74979] CT
0.149 GC
/Times-Roman 20 F
GS
[1 0 0 1 0 0] CT
-12.5 18.247 moveto 
1 -1 scale
(0.2) t 
GR
GR
GS
[0.75 0 0 0.75 189 269.74979] CT
0.149 GC
/Times-Roman 20 F
GS
[1 0 0 1 0 0] CT
-12.5 18.247 moveto 
1 -1 scale
(0.4) t 
GR
GR
GS
[0.75 0 0 0.75 252.75 269.74979] CT
0.149 GC
/Times-Roman 20 F
GS
[1 0 0 1 0 0] CT
-12.5 18.247 moveto 
1 -1 scale
(0.6) t 
GR
GR
GS
[0.75 0 0 0.75 316.5 269.74979] CT
0.149 GC
/Times-Roman 20 F
GS
[1 0 0 1 0 0] CT
-12.5 18.247 moveto 
1 -1 scale
(0.8) t 
GR
GR
GS
[0.75 0 0 0.75 380.25 269.74979] CT
0.149 GC
/Times-Roman 20 F
GS
[1 0 0 1 0 0] CT
-5 18.247 moveto 
1 -1 scale
(1) t 
GR
GR
GS
[0 -0.75 0.75 0 27.25 146.625] CT
0.149 GC
/Times-Roman-Italic 33 F
GS
[1 0 0 1 0 0] CT
-32.057 -6.839 moveto 
1 -1 scale
(M\(y\)) t 
GR
GR
GS
[0.75 0 0 0.75 0 0] CT
0.149 GC
2 setlinecap
10.0 ML
N
82 353 M
82 38 L
S
GR
GS
[0.75 0 0 0.75 0 0] CT
0.149 GC
2 setlinecap
10.0 ML
N
82 353 M
86.24 353 L
S
GR
GS
[0.75 0 0 0.75 0 0] CT
0.149 GC
2 setlinecap
10.0 ML
N
82 300.5 M
86.24 300.5 L
S
GR
GS
[0.75 0 0 0.75 0 0] CT
0.149 GC
2 setlinecap
10.0 ML
N
82 248 M
86.24 248 L
S
GR
GS
[0.75 0 0 0.75 0 0] CT
0.149 GC
2 setlinecap
10.0 ML
N
82 195.5 M
86.24 195.5 L
S
GR
GS
[0.75 0 0 0.75 0 0] CT
0.149 GC
2 setlinecap
10.0 ML
N
82 143 M
86.24 143 L
S
GR
GS
[0.75 0 0 0.75 0 0] CT
0.149 GC
2 setlinecap
10.0 ML
N
82 90.5 M
86.24 90.5 L
S
GR
GS
[0.75 0 0 0.75 0 0] CT
0.149 GC
2 setlinecap
10.0 ML
N
82 38 M
86.24 38 L
S
GR
GS
[0.75 0 0 0.75 56.5 264.74989] CT
0.149 GC
/Times-Roman 20 F
GS
[1 0 0 1 0 0] CT
-35 7.248 moveto 
1 -1 scale
(0.97) t 
GR
GR
GS
[0.75 0 0 0.75 56.5 225.37493] CT
0.149 GC
/Times-Roman 20 F
GS
[1 0 0 1 0 0] CT
-35 7.248 moveto 
1 -1 scale
(0.98) t 
GR
GR
GS
[0.75 0 0 0.75 56.5 185.99997] CT
0.149 GC
/Times-Roman 20 F
GS
[1 0 0 1 0 0] CT
-35 7.248 moveto 
1 -1 scale
(0.99) t 
GR
GR
GS
[0.75 0 0 0.75 56.5 146.625] CT
0.149 GC
/Times-Roman 20 F
GS
[1 0 0 1 0 0] CT
-10 7.248 moveto 
1 -1 scale
(1) t 
GR
GR
GS
[0.75 0 0 0.75 56.5 107.25003] CT
0.149 GC
/Times-Roman 20 F
GS
[1 0 0 1 0 0] CT
-35 7.248 moveto 
1 -1 scale
(1.01) t 
GR
GR
GS
[0.75 0 0 0.75 56.5 67.87507] CT
0.149 GC
/Times-Roman 20 F
GS
[1 0 0 1 0 0] CT
-35 7.248 moveto 
1 -1 scale
(1.02) t 
GR
GR
GS
[0.75 0 0 0.75 56.5 28.50011] CT
0.149 GC
/Times-Roman 20 F
GS
[1 0 0 1 0 0] CT
-35 7.248 moveto 
1 -1 scale
(1.03) t 
GR
GR
GS
[0.75 0 0 0.75 0 0] CT
0 0.447 0.741 RC
2 setlinecap
10.0 ML
N
82 338.682 M
94.75 338.424 L
107.5 337.651 L
120.25 336.362 L
133 334.558 L
145.75 332.239 L
158.5 329.404 L
171.25 326.053 L
184 322.187 L
196.75 317.806 L
209.5 312.909 L
222.25 307.497 L
235 301.569 L
247.75 295.126 L
260.5 288.167 L
273.25 280.693 L
286 272.704 L
298.75 264.198 L
311.5 255.178 L
324.25 245.642 L
337 235.591 L
349.75 225.024 L
362.5 213.942 L
375.25 202.344 L
388 190.231 L
400.75 177.602 L
413.5 164.458 L
426.25 150.799 L
439 136.624 L
451.75 121.933 L
464.5 106.727 L
477.25 91.006 L
490 74.769 L
502.75 58.017 L
S
GR
GS
[0.75 0 0 0.75 0 0] CT
0.851 0.325 0.098 RC
2 setlinecap
10.0 ML
N
82 337.886 M
94.75 337.649 L
107.5 336.936 L
120.25 335.748 L
133 334.081 L
145.75 331.936 L
158.5 329.308 L
171.25 326.195 L
184 322.594 L
196.75 318.498 L
209.5 313.905 L
222.25 308.808 L
235 303.202 L
247.75 297.08 L
260.5 290.434 L
273.25 283.257 L
286 275.54 L
298.75 267.275 L
311.5 258.453 L
324.25 249.063 L
337 239.094 L
349.75 228.536 L
362.5 217.376 L
375.25 205.603 L
388 193.203 L
400.75 180.163 L
413.5 166.469 L
426.25 152.106 L
439 137.059 L
451.75 121.312 L
464.5 104.85 L
477.25 87.654 L
490 69.708 L
502.75 50.993 L
S
GR
GS
[0.75 0 0 0.75 0 0] CT
0.929 0.694 0.125 RC
2 setlinecap
10.0 ML
N
82 338.488 M
94.75 338.248 L
107.5 337.528 L
120.25 336.326 L
133 334.642 L
145.75 332.474 L
158.5 329.819 L
171.25 326.676 L
184 323.041 L
196.75 318.911 L
209.5 314.281 L
222.25 309.146 L
235 303.502 L
247.75 297.342 L
260.5 290.66 L
273.25 283.448 L
286 275.699 L
298.75 267.405 L
311.5 258.555 L
324.25 249.141 L
337 239.15 L
349.75 228.572 L
362.5 217.394 L
375.25 205.602 L
388 193.182 L
400.75 180.118 L
413.5 166.394 L
426.25 151.992 L
439 136.892 L
451.75 121.077 L
464.5 104.522 L
477.25 87.206 L
490 69.105 L
502.75 50.193 L
S
GR
GS
[0.75 0 0 0.75 195 14.25] CT
/Times-Roman-Bold 21 F
GS
[1 0 0 1 0 0] CT
0 0 moveto 
1 -1 scale
(R) t 
GR
GR
GS
[0.75 0 0 0.75 207 21.75] CT
/Times-Roman-Bold 16 F
GS
[1 0 0 1 0 0] CT
0 0 moveto 
1 -1 scale
(c) t 
GR
GR
GS
[0.75 0 0 0.75 213 14.25] CT
/Times-Roman-Bold 21 F
GS
[1 0 0 1 0 0] CT
0 0 moveto 
1 -1 scale
( = 10) t 
GR
GR
GS
[0.75 0 0 0.75 0 0] CT
1 GC
N
96 123 M
96 50 L
218 50 L
218 123 L
cp
f
GR
GS
[0.75 0 0 0.75 111 53.25] CT
/Times-Roman 17 F
GS
[1 0 0 1 0 0] CT
0 0 moveto 
1 -1 scale
(1) t 
GR
GR
GS
[0.75 0 0 0.75 117.75 47.25] CT
/Times-Roman 13 F
GS
[1 0 0 1 0 0] CT
0 0 moveto 
1 -1 scale
(st) t 
GR
GR
GS
[0.75 0 0 0.75 124.5 53.25] CT
/Times-Roman 17 F
GS
[1 0 0 1 0 0] CT
0 0 moveto 
1 -1 scale
( order) t 
GR
GR
GS
[0.75 0 0 0.75 0 0] CT
0 0.447 0.741 RC
2 setlinecap
10.0 ML
N
104 63.729 M
144 63.729 L
S
GR
GS
[0.75 0 0 0.75 111 70.5] CT
/Times-Roman 17 F
GS
[1 0 0 1 0 0] CT
0 0 moveto 
1 -1 scale
(2) t 
GR
GR
GS
[0.75 0 0 0.75 117.75 64.5] CT
/Times-Roman 13 F
GS
[1 0 0 1 0 0] CT
0 0 moveto 
1 -1 scale
(nd) t 
GR
GR
GS
[0.75 0 0 0.75 127.5 70.5] CT
/Times-Roman 17 F
GS
[1 0 0 1 0 0] CT
0 0 moveto 
1 -1 scale
( Order) t 
GR
GR
GS
[0.75 0 0 0.75 0 0] CT
0.851 0.325 0.098 RC
2 setlinecap
10.0 ML
N
104 86.5 M
144 86.5 L
S
GR
GS
[0.75 0 0 0.75 111 87.75] CT
/Times-Roman 17 F
GS
[1 0 0 1 0 0] CT
0 0 moveto 
1 -1 scale
(3) t 
GR
GR
GS
[0.75 0 0 0.75 117.75 81.75] CT
/Times-Roman 13 F
GS
[1 0 0 1 0 0] CT
0 0 moveto 
1 -1 scale
(rd) t 
GR
GR
GS
[0.75 0 0 0.75 126 87.75] CT
/Times-Roman 17 F
GS
[1 0 0 1 0 0] CT
0 0 moveto 
1 -1 scale
( Order) t 
GR
GR
GS
[0.75 0 0 0.75 0 0] CT
0.929 0.694 0.125 RC
2 setlinecap
10.0 ML
N
104 109.271 M
144 109.271 L
S
GR
GS
[0.75 0 0 0.75 0 0] CT
0.149 GC
2 setlinecap
10.0 ML
N
96 123 M
96 50 L
218 50 L
218 123 L
96 123 L
S
GR
%%Trailer
%%Pages: 1
%%EOF
