%!PS-Adobe-3.0 EPSF-3.0
%%Creator: (MATLAB, The Mathworks, Inc. Version 8.4.0.150421 \(R2014b\). Operating System: Windows 8)
%%Title: C:/Users/kartrmswy/F15/AE510/R_1_EPS.eps
%%CreationDate: 2015-10-05T01:07:02
%%Pages: (atend)
%%BoundingBox: 0 0 420 315
%%LanguageLevel: 2
%%EndComments
%%BeginProlog
%%BeginResource: procset (Apache XML Graphics Std ProcSet) 1.2 0
%%Version: 1.2 0
%%Copyright: (Copyright 2001-2003,2010 The Apache Software Foundation. License terms: http://www.apache.org/licenses/LICENSE-2.0)
/bd{bind def}bind def
/ld{load def}bd
/GR/grestore ld
/M/moveto ld
/LJ/setlinejoin ld
/C/curveto ld
/f/fill ld
/LW/setlinewidth ld
/GC/setgray ld
/t/show ld
/N/newpath ld
/CT/concat ld
/cp/closepath ld
/S/stroke ld
/L/lineto ld
/CC/setcmykcolor ld
/A/ashow ld
/GS/gsave ld
/RC/setrgbcolor ld
/RM/rmoveto ld
/ML/setmiterlimit ld
/re {4 2 roll M
1 index 0 rlineto
0 exch rlineto
neg 0 rlineto
cp } bd
/_ctm matrix def
/_tm matrix def
/BT { _ctm currentmatrix pop matrix _tm copy pop 0 0 moveto } bd
/ET { _ctm setmatrix } bd
/iTm { _ctm setmatrix _tm concat } bd
/Tm { _tm astore pop iTm 0 0 moveto } bd
/ux 0.0 def
/uy 0.0 def
/F {
  /Tp exch def
  /Tf exch def
  Tf findfont Tp scalefont setfont
  /cf Tf def  /cs Tp def
} bd
/ULS {currentpoint /uy exch def /ux exch def} bd
/ULE {
  /Tcx currentpoint pop def
  gsave
  newpath
  cf findfont cs scalefont dup
  /FontMatrix get 0 get /Ts exch def /FontInfo get dup
  /UnderlinePosition get Ts mul /To exch def
  /UnderlineThickness get Ts mul /Tt exch def
  ux uy To add moveto  Tcx uy To add lineto
  Tt setlinewidth stroke
  grestore
} bd
/OLE {
  /Tcx currentpoint pop def
  gsave
  newpath
  cf findfont cs scalefont dup
  /FontMatrix get 0 get /Ts exch def /FontInfo get dup
  /UnderlinePosition get Ts mul /To exch def
  /UnderlineThickness get Ts mul /Tt exch def
  ux uy To add cs add moveto Tcx uy To add cs add lineto
  Tt setlinewidth stroke
  grestore
} bd
/SOE {
  /Tcx currentpoint pop def
  gsave
  newpath
  cf findfont cs scalefont dup
  /FontMatrix get 0 get /Ts exch def /FontInfo get dup
  /UnderlinePosition get Ts mul /To exch def
  /UnderlineThickness get Ts mul /Tt exch def
  ux uy To add cs 10 mul 26 idiv add moveto Tcx uy To add cs 10 mul 26 idiv add lineto
  Tt setlinewidth stroke
  grestore
} bd
/QT {
/Y22 exch store
/X22 exch store
/Y21 exch store
/X21 exch store
currentpoint
/Y21 load 2 mul add 3 div exch
/X21 load 2 mul add 3 div exch
/X21 load 2 mul /X22 load add 3 div
/Y21 load 2 mul /Y22 load add 3 div
/X22 load /Y22 load curveto
} bd
/SSPD {
dup length /d exch dict def
{
/v exch def
/k exch def
currentpagedevice k known {
/cpdv currentpagedevice k get def
v cpdv ne {
/upd false def
/nullv v type /nulltype eq def
/nullcpdv cpdv type /nulltype eq def
nullv nullcpdv or
{
/upd true def
} {
/sametype v type cpdv type eq def
sametype {
v type /arraytype eq {
/vlen v length def
/cpdvlen cpdv length def
vlen cpdvlen eq {
0 1 vlen 1 sub {
/i exch def
/obj v i get def
/cpdobj cpdv i get def
obj cpdobj ne {
/upd true def
exit
} if
} for
} {
/upd true def
} ifelse
} {
v type /dicttype eq {
v {
/dv exch def
/dk exch def
/cpddv cpdv dk get def
dv cpddv ne {
/upd true def
exit
} if
} forall
} {
/upd true def
} ifelse
} ifelse
} if
} ifelse
upd true eq {
d k v put
} if
} if
} if
} forall
d length 0 gt {
d setpagedevice
} if
} bd
%%EndResource
%%BeginResource: procset (Apache XML Graphics EPS ProcSet) 1.0 0
%%Version: 1.0 0
%%Copyright: (Copyright 2002-2003 The Apache Software Foundation. License terms: http://www.apache.org/licenses/LICENSE-2.0)
/BeginEPSF { %def
/b4_Inc_state save def         % Save state for cleanup
/dict_count countdictstack def % Count objects on dict stack
/op_count count 1 sub def      % Count objects on operand stack
userdict begin                 % Push userdict on dict stack
/showpage { } def              % Redefine showpage, { } = null proc
0 setgray 0 setlinecap         % Prepare graphics state
1 setlinewidth 0 setlinejoin
10 setmiterlimit [ ] 0 setdash newpath
/languagelevel where           % If level not equal to 1 then
{pop languagelevel             % set strokeadjust and
1 ne                           % overprint to their defaults.
{false setstrokeadjust false setoverprint
} if
} if
} bd
/EndEPSF { %def
count op_count sub {pop} repeat            % Clean up stacks
countdictstack dict_count sub {end} repeat
b4_Inc_state restore
} bd
%%EndResource
%FOPBeginFontDict
%%IncludeResource: font Courier-Bold
%%IncludeResource: font Helvetica
%%IncludeResource: font Courier-BoldOblique
%%IncludeResource: font Courier-Oblique
%%IncludeResource: font Times-Roman
%%IncludeResource: font Helvetica-BoldOblique
%%IncludeResource: font Helvetica-Bold
%%IncludeResource: font Helvetica-Oblique
%%IncludeResource: font Times-BoldItalic
%%IncludeResource: font Courier
%%IncludeResource: font Times-Italic
%%IncludeResource: font Times-Bold
%%IncludeResource: font Symbol
%%IncludeResource: font ZapfDingbats
%FOPEndFontDict
%%BeginResource: encoding WinAnsiEncoding
/WinAnsiEncoding [
/.notdef /.notdef /.notdef /.notdef /.notdef
/.notdef /.notdef /.notdef /.notdef /.notdef
/.notdef /.notdef /.notdef /.notdef /.notdef
/.notdef /.notdef /.notdef /.notdef /.notdef
/.notdef /.notdef /.notdef /.notdef /.notdef
/.notdef /.notdef /.notdef /.notdef /.notdef
/.notdef /.notdef /space /exclam /quotedbl
/numbersign /dollar /percent /ampersand /quotesingle
/parenleft /parenright /asterisk /plus /comma
/hyphen /period /slash /zero /one
/two /three /four /five /six
/seven /eight /nine /colon /semicolon
/less /equal /greater /question /at
/A /B /C /D /E
/F /G /H /I /J
/K /L /M /N /O
/P /Q /R /S /T
/U /V /W /X /Y
/Z /bracketleft /backslash /bracketright /asciicircum
/underscore /quoteleft /a /b /c
/d /e /f /g /h
/i /j /k /l /m
/n /o /p /q /r
/s /t /u /v /w
/x /y /z /braceleft /bar
/braceright /asciitilde /bullet /Euro /bullet
/quotesinglbase /florin /quotedblbase /ellipsis /dagger
/daggerdbl /circumflex /perthousand /Scaron /guilsinglleft
/OE /bullet /Zcaron /bullet /bullet
/quoteleft /quoteright /quotedblleft /quotedblright /bullet
/endash /emdash /asciitilde /trademark /scaron
/guilsinglright /oe /bullet /zcaron /Ydieresis
/space /exclamdown /cent /sterling /currency
/yen /brokenbar /section /dieresis /copyright
/ordfeminine /guillemotleft /logicalnot /sfthyphen /registered
/macron /degree /plusminus /twosuperior /threesuperior
/acute /mu /paragraph /middot /cedilla
/onesuperior /ordmasculine /guillemotright /onequarter /onehalf
/threequarters /questiondown /Agrave /Aacute /Acircumflex
/Atilde /Adieresis /Aring /AE /Ccedilla
/Egrave /Eacute /Ecircumflex /Edieresis /Igrave
/Iacute /Icircumflex /Idieresis /Eth /Ntilde
/Ograve /Oacute /Ocircumflex /Otilde /Odieresis
/multiply /Oslash /Ugrave /Uacute /Ucircumflex
/Udieresis /Yacute /Thorn /germandbls /agrave
/aacute /acircumflex /atilde /adieresis /aring
/ae /ccedilla /egrave /eacute /ecircumflex
/edieresis /igrave /iacute /icircumflex /idieresis
/eth /ntilde /ograve /oacute /ocircumflex
/otilde /odieresis /divide /oslash /ugrave
/uacute /ucircumflex /udieresis /yacute /thorn
/ydieresis
] def
%%EndResource
%FOPBeginFontReencode
/Courier-Bold findfont
dup length dict begin
  {1 index /FID ne {def} {pop pop} ifelse} forall
  /Encoding WinAnsiEncoding def
  currentdict
end
/Courier-Bold exch definefont pop
/Helvetica findfont
dup length dict begin
  {1 index /FID ne {def} {pop pop} ifelse} forall
  /Encoding WinAnsiEncoding def
  currentdict
end
/Helvetica exch definefont pop
/Courier-BoldOblique findfont
dup length dict begin
  {1 index /FID ne {def} {pop pop} ifelse} forall
  /Encoding WinAnsiEncoding def
  currentdict
end
/Courier-BoldOblique exch definefont pop
/Courier-Oblique findfont
dup length dict begin
  {1 index /FID ne {def} {pop pop} ifelse} forall
  /Encoding WinAnsiEncoding def
  currentdict
end
/Courier-Oblique exch definefont pop
/Times-Roman findfont
dup length dict begin
  {1 index /FID ne {def} {pop pop} ifelse} forall
  /Encoding WinAnsiEncoding def
  currentdict
end
/Times-Roman exch definefont pop
/Helvetica-BoldOblique findfont
dup length dict begin
  {1 index /FID ne {def} {pop pop} ifelse} forall
  /Encoding WinAnsiEncoding def
  currentdict
end
/Helvetica-BoldOblique exch definefont pop
/Helvetica-Bold findfont
dup length dict begin
  {1 index /FID ne {def} {pop pop} ifelse} forall
  /Encoding WinAnsiEncoding def
  currentdict
end
/Helvetica-Bold exch definefont pop
/Helvetica-Oblique findfont
dup length dict begin
  {1 index /FID ne {def} {pop pop} ifelse} forall
  /Encoding WinAnsiEncoding def
  currentdict
end
/Helvetica-Oblique exch definefont pop
/Times-BoldItalic findfont
dup length dict begin
  {1 index /FID ne {def} {pop pop} ifelse} forall
  /Encoding WinAnsiEncoding def
  currentdict
end
/Times-BoldItalic exch definefont pop
/Courier findfont
dup length dict begin
  {1 index /FID ne {def} {pop pop} ifelse} forall
  /Encoding WinAnsiEncoding def
  currentdict
end
/Courier exch definefont pop
/Times-Italic findfont
dup length dict begin
  {1 index /FID ne {def} {pop pop} ifelse} forall
  /Encoding WinAnsiEncoding def
  currentdict
end
/Times-Italic exch definefont pop
/Times-Bold findfont
dup length dict begin
  {1 index /FID ne {def} {pop pop} ifelse} forall
  /Encoding WinAnsiEncoding def
  currentdict
end
/Times-Bold exch definefont pop
%FOPEndFontReencode
%%EndProlog
%%Page: 1 1
%%PageBoundingBox: 0 0 420 315
%%BeginPageSetup
[1 0 0 -1 0 315] CT
%%EndPageSetup
GS
[0.75 0 0 0.75 0 0] CT
1 GC
N
0 0 560 420 re
f
GR
GS
[0.75 0 0 0.75 0 0] CT
1 GC
N
0 0 560 420 re
f
GR
GS
[0.75 0 0 0.75 0 0] CT
1 GC
N
73 353 M
507 353 L
507 38 L
73 38 L
cp
f
GR
GS
[0.75 0 0 0.75 217.5 287.24854] CT
0.149 GC
/Times-Roman-Italic 33 F
GS
[1 0 0 1 0 0] CT
-7.323 30.108 moveto 
1 -1 scale
(y) t 
GR
GR
GS
[0.75 0 0 0.75 0 0] CT
0.149 GC
2 setlinecap
10.0 ML
N
73 353 M
507 353 L
S
GR
GS
[0.75 0 0 0.75 0 0] CT
0.149 GC
2 setlinecap
10.0 ML
N
73 353 M
73 348.66 L
S
GR
GS
[0.75 0 0 0.75 0 0] CT
0.149 GC
2 setlinecap
10.0 ML
N
159.8 353 M
159.8 348.66 L
S
GR
GS
[0.75 0 0 0.75 0 0] CT
0.149 GC
2 setlinecap
10.0 ML
N
246.6 353 M
246.6 348.66 L
S
GR
GS
[0.75 0 0 0.75 0 0] CT
0.149 GC
2 setlinecap
10.0 ML
N
333.4 353 M
333.4 348.66 L
S
GR
GS
[0.75 0 0 0.75 0 0] CT
0.149 GC
2 setlinecap
10.0 ML
N
420.2 353 M
420.2 348.66 L
S
GR
GS
[0.75 0 0 0.75 0 0] CT
0.149 GC
2 setlinecap
10.0 ML
N
507 353 M
507 348.66 L
S
GR
GS
[0.75 0 0 0.75 54.75 269.74999] CT
0.149 GC
/Times-Roman 20 F
GS
[1 0 0 1 0 0] CT
-5 18.247 moveto 
1 -1 scale
(0) t 
GR
GR
GS
[0.75 0 0 0.75 119.85 269.74999] CT
0.149 GC
/Times-Roman 20 F
GS
[1 0 0 1 0 0] CT
-12.5 18.247 moveto 
1 -1 scale
(0.2) t 
GR
GR
GS
[0.75 0 0 0.75 184.95 269.74999] CT
0.149 GC
/Times-Roman 20 F
GS
[1 0 0 1 0 0] CT
-12.5 18.247 moveto 
1 -1 scale
(0.4) t 
GR
GR
GS
[0.75 0 0 0.75 250.05002 269.74999] CT
0.149 GC
/Times-Roman 20 F
GS
[1 0 0 1 0 0] CT
-12.5 18.247 moveto 
1 -1 scale
(0.6) t 
GR
GR
GS
[0.75 0 0 0.75 315.15001 269.74999] CT
0.149 GC
/Times-Roman 20 F
GS
[1 0 0 1 0 0] CT
-12.5 18.247 moveto 
1 -1 scale
(0.8) t 
GR
GR
GS
[0.75 0 0 0.75 380.25 269.74999] CT
0.149 GC
/Times-Roman 20 F
GS
[1 0 0 1 0 0] CT
-5 18.247 moveto 
1 -1 scale
(1) t 
GR
GR
GS
[0 -0.75 0.75 0 28 146.62502] CT
0.149 GC
/Times-Roman-Italic 33 F
GS
[1 0 0 1 0 0] CT
-32.057 -6.839 moveto 
1 -1 scale
(M\(y\)) t 
GR
GR
GS
[0.75 0 0 0.75 0 0] CT
0.149 GC
2 setlinecap
10.0 ML
N
73 353 M
73 38 L
S
GR
GS
[0.75 0 0 0.75 0 0] CT
0.149 GC
2 setlinecap
10.0 ML
N
73 353 M
77.34 353 L
S
GR
GS
[0.75 0 0 0.75 0 0] CT
0.149 GC
2 setlinecap
10.0 ML
N
73 290 M
77.34 290 L
S
GR
GS
[0.75 0 0 0.75 0 0] CT
0.149 GC
2 setlinecap
10.0 ML
N
73 227 M
77.34 227 L
S
GR
GS
[0.75 0 0 0.75 0 0] CT
0.149 GC
2 setlinecap
10.0 ML
N
73 164 M
77.34 164 L
S
GR
GS
[0.75 0 0 0.75 0 0] CT
0.149 GC
2 setlinecap
10.0 ML
N
73 101 M
77.34 101 L
S
GR
GS
[0.75 0 0 0.75 0 0] CT
0.149 GC
2 setlinecap
10.0 ML
N
73 38 M
77.34 38 L
S
GR
GS
[0.75 0 0 0.75 49.75 264.75] CT
0.149 GC
/Times-Roman 20 F
GS
[1 0 0 1 0 0] CT
-25 7.248 moveto 
1 -1 scale
(0.8) t 
GR
GR
GS
[0.75 0 0 0.75 49.75 217.5] CT
0.149 GC
/Times-Roman 20 F
GS
[1 0 0 1 0 0] CT
-25 7.248 moveto 
1 -1 scale
(0.9) t 
GR
GR
GS
[0.75 0 0 0.75 49.75 170.25] CT
0.149 GC
/Times-Roman 20 F
GS
[1 0 0 1 0 0] CT
-10 7.248 moveto 
1 -1 scale
(1) t 
GR
GR
GS
[0.75 0 0 0.75 49.75 122.99999] CT
0.149 GC
/Times-Roman 20 F
GS
[1 0 0 1 0 0] CT
-25 7.248 moveto 
1 -1 scale
(1.1) t 
GR
GR
GS
[0.75 0 0 0.75 49.75 75.74998] CT
0.149 GC
/Times-Roman 20 F
GS
[1 0 0 1 0 0] CT
-25 7.248 moveto 
1 -1 scale
(1.2) t 
GR
GR
GS
[0.75 0 0 0.75 49.75 28.50002] CT
0.149 GC
/Times-Roman 20 F
GS
[1 0 0 1 0 0] CT
-25 7.248 moveto 
1 -1 scale
(1.3) t 
GR
GR
GS
[0.75 0 0 0.75 0 0] CT
0 0.447 0.741 RC
2 setlinecap
10.0 ML
N
73 321.5 M
86.02 321.33 L
99.04 320.82 L
112.06 319.969 L
125.08 318.778 L
138.1 317.247 L
151.12 315.376 L
164.14 313.165 L
177.16 310.614 L
190.18 307.722 L
203.2 304.49 L
216.22 300.918 L
229.24 297.006 L
242.26 292.753 L
255.28 288.16 L
268.3 283.228 L
281.32 277.954 L
294.34 272.341 L
307.36 266.388 L
320.38 260.094 L
333.4 253.46 L
346.42 246.486 L
359.44 239.172 L
372.46 231.517 L
385.48 223.522 L
398.5 215.188 L
411.52 206.512 L
424.54 197.497 L
437.56 188.142 L
450.58 178.446 L
463.6 168.41 L
476.62 158.034 L
489.64 147.318 L
502.66 136.261 L
S
GR
GS
[0.75 0 0 0.75 0 0] CT
0.851 0.325 0.098 RC
2 setlinecap
10.0 ML
N
73 318.613 M
86.02 318.516 L
99.04 318.226 L
112.06 317.738 L
125.08 317.048 L
138.1 316.149 L
151.12 315.03 L
164.14 313.681 L
177.16 312.088 L
190.18 310.236 L
203.2 308.106 L
216.22 305.679 L
229.24 302.933 L
242.26 299.845 L
255.28 296.387 L
268.3 292.533 L
281.32 288.251 L
294.34 283.51 L
307.36 278.275 L
320.38 272.51 L
333.4 266.176 L
346.42 259.233 L
359.44 251.638 L
372.46 243.346 L
385.48 234.31 L
398.5 224.482 L
411.52 213.81 L
424.54 202.241 L
437.56 189.721 L
450.58 176.191 L
463.6 161.593 L
476.62 145.865 L
489.64 128.944 L
502.66 110.764 L
S
GR
GS
[0.75 0 0 0.75 0 0] CT
0.929 0.694 0.125 RC
2 setlinecap
10.0 ML
N
73 330.632 M
86.02 330.482 L
99.04 330.032 L
112.06 329.283 L
125.08 328.233 L
138.1 326.885 L
151.12 325.235 L
164.14 323.285 L
177.16 321.032 L
190.18 318.474 L
203.2 315.606 L
216.22 312.423 L
229.24 308.919 L
242.26 305.081 L
255.28 300.898 L
268.3 296.354 L
281.32 291.426 L
294.34 286.091 L
307.36 280.317 L
320.38 274.068 L
333.4 267.3 L
346.42 259.963 L
359.44 251.997 L
372.46 243.334 L
385.48 233.895 L
398.5 223.591 L
411.52 212.32 L
424.54 199.967 L
437.56 186.404 L
450.58 171.487 L
463.6 155.054 L
476.62 136.928 L
489.64 116.913 L
502.66 94.79 L
S
GR
GS
[0.75 0 0 0.75 195.75 14.25] CT
/Times-Roman-Bold 21 F
GS
[1 0 0 1 0 0] CT
0 0 moveto 
1 -1 scale
(R) t 
GR
GR
GS
[0.75 0 0 0.75 207.75 21.75] CT
/Times-Roman-Bold 16 F
GS
[1 0 0 1 0 0] CT
0 0 moveto 
1 -1 scale
(c) t 
GR
GR
GS
[0.75 0 0 0.75 213.75 14.25] CT
/Times-Roman-Bold 21 F
GS
[1 0 0 1 0 0] CT
0 0 moveto 
1 -1 scale
( = 1) t 
GR
GR
GS
[0.75 0 0 0.75 0 0] CT
1 GC
N
86 123 M
86 50 L
208 50 L
208 123 L
cp
f
GR
GS
[0.75 0 0 0.75 103.5 53.25] CT
/Times-Roman 17 F
GS
[1 0 0 1 0 0] CT
0 0 moveto 
1 -1 scale
(1) t 
GR
GR
GS
[0.75 0 0 0.75 110.25 47.25] CT
/Times-Roman 13 F
GS
[1 0 0 1 0 0] CT
0 0 moveto 
1 -1 scale
(st) t 
GR
GR
GS
[0.75 0 0 0.75 117 53.25] CT
/Times-Roman 17 F
GS
[1 0 0 1 0 0] CT
0 0 moveto 
1 -1 scale
( order) t 
GR
GR
GS
[0.75 0 0 0.75 0 0] CT
0 0.447 0.741 RC
2 setlinecap
10.0 ML
N
94 63.729 M
134 63.729 L
S
GR
GS
[0.75 0 0 0.75 103.5 70.5] CT
/Times-Roman 17 F
GS
[1 0 0 1 0 0] CT
0 0 moveto 
1 -1 scale
(2) t 
GR
GR
GS
[0.75 0 0 0.75 110.25 64.5] CT
/Times-Roman 13 F
GS
[1 0 0 1 0 0] CT
0 0 moveto 
1 -1 scale
(nd) t 
GR
GR
GS
[0.75 0 0 0.75 120 70.5] CT
/Times-Roman 17 F
GS
[1 0 0 1 0 0] CT
0 0 moveto 
1 -1 scale
( Order) t 
GR
GR
GS
[0.75 0 0 0.75 0 0] CT
0.851 0.325 0.098 RC
2 setlinecap
10.0 ML
N
94 86.5 M
134 86.5 L
S
GR
GS
[0.75 0 0 0.75 103.5 87.75] CT
/Times-Roman 17 F
GS
[1 0 0 1 0 0] CT
0 0 moveto 
1 -1 scale
(3) t 
GR
GR
GS
[0.75 0 0 0.75 110.25 81.75] CT
/Times-Roman 13 F
GS
[1 0 0 1 0 0] CT
0 0 moveto 
1 -1 scale
(rd) t 
GR
GR
GS
[0.75 0 0 0.75 118.5 87.75] CT
/Times-Roman 17 F
GS
[1 0 0 1 0 0] CT
0 0 moveto 
1 -1 scale
( Order) t 
GR
GR
GS
[0.75 0 0 0.75 0 0] CT
0.929 0.694 0.125 RC
2 setlinecap
10.0 ML
N
94 109.271 M
134 109.271 L
S
GR
GS
[0.75 0 0 0.75 0 0] CT
0.149 GC
2 setlinecap
10.0 ML
N
86 123 M
86 50 L
208 50 L
208 123 L
86 123 L
S
GR
%%Trailer
%%Pages: 1
%%EOF
