%!PS-Adobe-3.0 EPSF-3.0
%%Creator: (MATLAB, The Mathworks, Inc. Version 8.4.0.150421 \(R2014b\). Operating System: Windows 8)
%%Title: C:/Users/kartrmswy/F15/AE510/R_5_EPS.eps
%%CreationDate: 2015-10-05T01:07:48
%%Pages: (atend)
%%BoundingBox: 0 0 420 315
%%LanguageLevel: 2
%%EndComments
%%BeginProlog
%%BeginResource: procset (Apache XML Graphics Std ProcSet) 1.2 0
%%Version: 1.2 0
%%Copyright: (Copyright 2001-2003,2010 The Apache Software Foundation. License terms: http://www.apache.org/licenses/LICENSE-2.0)
/bd{bind def}bind def
/ld{load def}bd
/GR/grestore ld
/M/moveto ld
/LJ/setlinejoin ld
/C/curveto ld
/f/fill ld
/LW/setlinewidth ld
/GC/setgray ld
/t/show ld
/N/newpath ld
/CT/concat ld
/cp/closepath ld
/S/stroke ld
/L/lineto ld
/CC/setcmykcolor ld
/A/ashow ld
/GS/gsave ld
/RC/setrgbcolor ld
/RM/rmoveto ld
/ML/setmiterlimit ld
/re {4 2 roll M
1 index 0 rlineto
0 exch rlineto
neg 0 rlineto
cp } bd
/_ctm matrix def
/_tm matrix def
/BT { _ctm currentmatrix pop matrix _tm copy pop 0 0 moveto } bd
/ET { _ctm setmatrix } bd
/iTm { _ctm setmatrix _tm concat } bd
/Tm { _tm astore pop iTm 0 0 moveto } bd
/ux 0.0 def
/uy 0.0 def
/F {
  /Tp exch def
  /Tf exch def
  Tf findfont Tp scalefont setfont
  /cf Tf def  /cs Tp def
} bd
/ULS {currentpoint /uy exch def /ux exch def} bd
/ULE {
  /Tcx currentpoint pop def
  gsave
  newpath
  cf findfont cs scalefont dup
  /FontMatrix get 0 get /Ts exch def /FontInfo get dup
  /UnderlinePosition get Ts mul /To exch def
  /UnderlineThickness get Ts mul /Tt exch def
  ux uy To add moveto  Tcx uy To add lineto
  Tt setlinewidth stroke
  grestore
} bd
/OLE {
  /Tcx currentpoint pop def
  gsave
  newpath
  cf findfont cs scalefont dup
  /FontMatrix get 0 get /Ts exch def /FontInfo get dup
  /UnderlinePosition get Ts mul /To exch def
  /UnderlineThickness get Ts mul /Tt exch def
  ux uy To add cs add moveto Tcx uy To add cs add lineto
  Tt setlinewidth stroke
  grestore
} bd
/SOE {
  /Tcx currentpoint pop def
  gsave
  newpath
  cf findfont cs scalefont dup
  /FontMatrix get 0 get /Ts exch def /FontInfo get dup
  /UnderlinePosition get Ts mul /To exch def
  /UnderlineThickness get Ts mul /Tt exch def
  ux uy To add cs 10 mul 26 idiv add moveto Tcx uy To add cs 10 mul 26 idiv add lineto
  Tt setlinewidth stroke
  grestore
} bd
/QT {
/Y22 exch store
/X22 exch store
/Y21 exch store
/X21 exch store
currentpoint
/Y21 load 2 mul add 3 div exch
/X21 load 2 mul add 3 div exch
/X21 load 2 mul /X22 load add 3 div
/Y21 load 2 mul /Y22 load add 3 div
/X22 load /Y22 load curveto
} bd
/SSPD {
dup length /d exch dict def
{
/v exch def
/k exch def
currentpagedevice k known {
/cpdv currentpagedevice k get def
v cpdv ne {
/upd false def
/nullv v type /nulltype eq def
/nullcpdv cpdv type /nulltype eq def
nullv nullcpdv or
{
/upd true def
} {
/sametype v type cpdv type eq def
sametype {
v type /arraytype eq {
/vlen v length def
/cpdvlen cpdv length def
vlen cpdvlen eq {
0 1 vlen 1 sub {
/i exch def
/obj v i get def
/cpdobj cpdv i get def
obj cpdobj ne {
/upd true def
exit
} if
} for
} {
/upd true def
} ifelse
} {
v type /dicttype eq {
v {
/dv exch def
/dk exch def
/cpddv cpdv dk get def
dv cpddv ne {
/upd true def
exit
} if
} forall
} {
/upd true def
} ifelse
} ifelse
} if
} ifelse
upd true eq {
d k v put
} if
} if
} if
} forall
d length 0 gt {
d setpagedevice
} if
} bd
%%EndResource
%%BeginResource: procset (Apache XML Graphics EPS ProcSet) 1.0 0
%%Version: 1.0 0
%%Copyright: (Copyright 2002-2003 The Apache Software Foundation. License terms: http://www.apache.org/licenses/LICENSE-2.0)
/BeginEPSF { %def
/b4_Inc_state save def         % Save state for cleanup
/dict_count countdictstack def % Count objects on dict stack
/op_count count 1 sub def      % Count objects on operand stack
userdict begin                 % Push userdict on dict stack
/showpage { } def              % Redefine showpage, { } = null proc
0 setgray 0 setlinecap         % Prepare graphics state
1 setlinewidth 0 setlinejoin
10 setmiterlimit [ ] 0 setdash newpath
/languagelevel where           % If level not equal to 1 then
{pop languagelevel             % set strokeadjust and
1 ne                           % overprint to their defaults.
{false setstrokeadjust false setoverprint
} if
} if
} bd
/EndEPSF { %def
count op_count sub {pop} repeat            % Clean up stacks
countdictstack dict_count sub {end} repeat
b4_Inc_state restore
} bd
%%EndResource
%FOPBeginFontDict
%%IncludeResource: font Courier-Bold
%%IncludeResource: font Helvetica
%%IncludeResource: font Courier-BoldOblique
%%IncludeResource: font Courier-Oblique
%%IncludeResource: font Times-Roman
%%IncludeResource: font Helvetica-BoldOblique
%%IncludeResource: font Helvetica-Bold
%%IncludeResource: font Helvetica-Oblique
%%IncludeResource: font Times-BoldItalic
%%IncludeResource: font Courier
%%IncludeResource: font Times-Italic
%%IncludeResource: font Times-Bold
%%IncludeResource: font Symbol
%%IncludeResource: font ZapfDingbats
%FOPEndFontDict
%%BeginResource: encoding WinAnsiEncoding
/WinAnsiEncoding [
/.notdef /.notdef /.notdef /.notdef /.notdef
/.notdef /.notdef /.notdef /.notdef /.notdef
/.notdef /.notdef /.notdef /.notdef /.notdef
/.notdef /.notdef /.notdef /.notdef /.notdef
/.notdef /.notdef /.notdef /.notdef /.notdef
/.notdef /.notdef /.notdef /.notdef /.notdef
/.notdef /.notdef /space /exclam /quotedbl
/numbersign /dollar /percent /ampersand /quotesingle
/parenleft /parenright /asterisk /plus /comma
/hyphen /period /slash /zero /one
/two /three /four /five /six
/seven /eight /nine /colon /semicolon
/less /equal /greater /question /at
/A /B /C /D /E
/F /G /H /I /J
/K /L /M /N /O
/P /Q /R /S /T
/U /V /W /X /Y
/Z /bracketleft /backslash /bracketright /asciicircum
/underscore /quoteleft /a /b /c
/d /e /f /g /h
/i /j /k /l /m
/n /o /p /q /r
/s /t /u /v /w
/x /y /z /braceleft /bar
/braceright /asciitilde /bullet /Euro /bullet
/quotesinglbase /florin /quotedblbase /ellipsis /dagger
/daggerdbl /circumflex /perthousand /Scaron /guilsinglleft
/OE /bullet /Zcaron /bullet /bullet
/quoteleft /quoteright /quotedblleft /quotedblright /bullet
/endash /emdash /asciitilde /trademark /scaron
/guilsinglright /oe /bullet /zcaron /Ydieresis
/space /exclamdown /cent /sterling /currency
/yen /brokenbar /section /dieresis /copyright
/ordfeminine /guillemotleft /logicalnot /sfthyphen /registered
/macron /degree /plusminus /twosuperior /threesuperior
/acute /mu /paragraph /middot /cedilla
/onesuperior /ordmasculine /guillemotright /onequarter /onehalf
/threequarters /questiondown /Agrave /Aacute /Acircumflex
/Atilde /Adieresis /Aring /AE /Ccedilla
/Egrave /Eacute /Ecircumflex /Edieresis /Igrave
/Iacute /Icircumflex /Idieresis /Eth /Ntilde
/Ograve /Oacute /Ocircumflex /Otilde /Odieresis
/multiply /Oslash /Ugrave /Uacute /Ucircumflex
/Udieresis /Yacute /Thorn /germandbls /agrave
/aacute /acircumflex /atilde /adieresis /aring
/ae /ccedilla /egrave /eacute /ecircumflex
/edieresis /igrave /iacute /icircumflex /idieresis
/eth /ntilde /ograve /oacute /ocircumflex
/otilde /odieresis /divide /oslash /ugrave
/uacute /ucircumflex /udieresis /yacute /thorn
/ydieresis
] def
%%EndResource
%FOPBeginFontReencode
/Courier-Bold findfont
dup length dict begin
  {1 index /FID ne {def} {pop pop} ifelse} forall
  /Encoding WinAnsiEncoding def
  currentdict
end
/Courier-Bold exch definefont pop
/Helvetica findfont
dup length dict begin
  {1 index /FID ne {def} {pop pop} ifelse} forall
  /Encoding WinAnsiEncoding def
  currentdict
end
/Helvetica exch definefont pop
/Courier-BoldOblique findfont
dup length dict begin
  {1 index /FID ne {def} {pop pop} ifelse} forall
  /Encoding WinAnsiEncoding def
  currentdict
end
/Courier-BoldOblique exch definefont pop
/Courier-Oblique findfont
dup length dict begin
  {1 index /FID ne {def} {pop pop} ifelse} forall
  /Encoding WinAnsiEncoding def
  currentdict
end
/Courier-Oblique exch definefont pop
/Times-Roman findfont
dup length dict begin
  {1 index /FID ne {def} {pop pop} ifelse} forall
  /Encoding WinAnsiEncoding def
  currentdict
end
/Times-Roman exch definefont pop
/Helvetica-BoldOblique findfont
dup length dict begin
  {1 index /FID ne {def} {pop pop} ifelse} forall
  /Encoding WinAnsiEncoding def
  currentdict
end
/Helvetica-BoldOblique exch definefont pop
/Helvetica-Bold findfont
dup length dict begin
  {1 index /FID ne {def} {pop pop} ifelse} forall
  /Encoding WinAnsiEncoding def
  currentdict
end
/Helvetica-Bold exch definefont pop
/Helvetica-Oblique findfont
dup length dict begin
  {1 index /FID ne {def} {pop pop} ifelse} forall
  /Encoding WinAnsiEncoding def
  currentdict
end
/Helvetica-Oblique exch definefont pop
/Times-BoldItalic findfont
dup length dict begin
  {1 index /FID ne {def} {pop pop} ifelse} forall
  /Encoding WinAnsiEncoding def
  currentdict
end
/Times-BoldItalic exch definefont pop
/Courier findfont
dup length dict begin
  {1 index /FID ne {def} {pop pop} ifelse} forall
  /Encoding WinAnsiEncoding def
  currentdict
end
/Courier exch definefont pop
/Times-Italic findfont
dup length dict begin
  {1 index /FID ne {def} {pop pop} ifelse} forall
  /Encoding WinAnsiEncoding def
  currentdict
end
/Times-Italic exch definefont pop
/Times-Bold findfont
dup length dict begin
  {1 index /FID ne {def} {pop pop} ifelse} forall
  /Encoding WinAnsiEncoding def
  currentdict
end
/Times-Bold exch definefont pop
%FOPEndFontReencode
%%EndProlog
%%Page: 1 1
%%PageBoundingBox: 0 0 420 315
%%BeginPageSetup
[1 0 0 -1 0 315] CT
%%EndPageSetup
GS
[0.75 0 0 0.75 0 0] CT
1 GC
N
0 0 560 420 re
f
GR
GS
[0.75 0 0 0.75 0 0] CT
1 GC
N
0 0 560 420 re
f
GR
GS
[0.75 0 0 0.75 0 0] CT
1 GC
N
82 353 M
507 353 L
507 38 L
82 38 L
cp
f
GR
GS
[0.75 0 0 0.75 220.875 287.24854] CT
0.149 GC
/Times-Roman-Italic 33 F
GS
[1 0 0 1 0 0] CT
-7.323 30.108 moveto 
1 -1 scale
(y) t 
GR
GR
GS
[0.75 0 0 0.75 0 0] CT
0.149 GC
2 setlinecap
10.0 ML
N
82 353 M
507 353 L
S
GR
GS
[0.75 0 0 0.75 0 0] CT
0.149 GC
2 setlinecap
10.0 ML
N
82 353 M
82 348.76 L
S
GR
GS
[0.75 0 0 0.75 0 0] CT
0.149 GC
2 setlinecap
10.0 ML
N
167 353 M
167 348.76 L
S
GR
GS
[0.75 0 0 0.75 0 0] CT
0.149 GC
2 setlinecap
10.0 ML
N
252 353 M
252 348.76 L
S
GR
GS
[0.75 0 0 0.75 0 0] CT
0.149 GC
2 setlinecap
10.0 ML
N
337 353 M
337 348.76 L
S
GR
GS
[0.75 0 0 0.75 0 0] CT
0.149 GC
2 setlinecap
10.0 ML
N
422 353 M
422 348.76 L
S
GR
GS
[0.75 0 0 0.75 0 0] CT
0.149 GC
2 setlinecap
10.0 ML
N
507 353 M
507 348.76 L
S
GR
GS
[0.75 0 0 0.75 61.5 269.75004] CT
0.149 GC
/Times-Roman 20 F
GS
[1 0 0 1 0 0] CT
-5 18.247 moveto 
1 -1 scale
(0) t 
GR
GR
GS
[0.75 0 0 0.75 125.25 269.75004] CT
0.149 GC
/Times-Roman 20 F
GS
[1 0 0 1 0 0] CT
-12.5 18.247 moveto 
1 -1 scale
(0.2) t 
GR
GR
GS
[0.75 0 0 0.75 189 269.75004] CT
0.149 GC
/Times-Roman 20 F
GS
[1 0 0 1 0 0] CT
-12.5 18.247 moveto 
1 -1 scale
(0.4) t 
GR
GR
GS
[0.75 0 0 0.75 252.75 269.75004] CT
0.149 GC
/Times-Roman 20 F
GS
[1 0 0 1 0 0] CT
-12.5 18.247 moveto 
1 -1 scale
(0.6) t 
GR
GR
GS
[0.75 0 0 0.75 316.5 269.75004] CT
0.149 GC
/Times-Roman 20 F
GS
[1 0 0 1 0 0] CT
-12.5 18.247 moveto 
1 -1 scale
(0.8) t 
GR
GR
GS
[0.75 0 0 0.75 380.25 269.75004] CT
0.149 GC
/Times-Roman 20 F
GS
[1 0 0 1 0 0] CT
-5 18.247 moveto 
1 -1 scale
(1) t 
GR
GR
GS
[0 -0.75 0.75 0 27.25 146.625] CT
0.149 GC
/Times-Roman-Italic 33 F
GS
[1 0 0 1 0 0] CT
-32.057 -6.839 moveto 
1 -1 scale
(M\(y\)) t 
GR
GR
GS
[0.75 0 0 0.75 0 0] CT
0.149 GC
2 setlinecap
10.0 ML
N
82 353 M
82 38 L
S
GR
GS
[0.75 0 0 0.75 0 0] CT
0.149 GC
2 setlinecap
10.0 ML
N
82 353 M
86.24 353 L
S
GR
GS
[0.75 0 0 0.75 0 0] CT
0.149 GC
2 setlinecap
10.0 ML
N
82 300.5 M
86.24 300.5 L
S
GR
GS
[0.75 0 0 0.75 0 0] CT
0.149 GC
2 setlinecap
10.0 ML
N
82 248 M
86.24 248 L
S
GR
GS
[0.75 0 0 0.75 0 0] CT
0.149 GC
2 setlinecap
10.0 ML
N
82 195.5 M
86.24 195.5 L
S
GR
GS
[0.75 0 0 0.75 0 0] CT
0.149 GC
2 setlinecap
10.0 ML
N
82 143 M
86.24 143 L
S
GR
GS
[0.75 0 0 0.75 0 0] CT
0.149 GC
2 setlinecap
10.0 ML
N
82 90.5 M
86.24 90.5 L
S
GR
GS
[0.75 0 0 0.75 0 0] CT
0.149 GC
2 setlinecap
10.0 ML
N
82 38 M
86.24 38 L
S
GR
GS
[0.75 0 0 0.75 56.5 264.75] CT
0.149 GC
/Times-Roman 20 F
GS
[1 0 0 1 0 0] CT
-35 7.248 moveto 
1 -1 scale
(0.94) t 
GR
GR
GS
[0.75 0 0 0.75 56.5 225.37505] CT
0.149 GC
/Times-Roman 20 F
GS
[1 0 0 1 0 0] CT
-35 7.248 moveto 
1 -1 scale
(0.96) t 
GR
GR
GS
[0.75 0 0 0.75 56.5 185.99997] CT
0.149 GC
/Times-Roman 20 F
GS
[1 0 0 1 0 0] CT
-35 7.248 moveto 
1 -1 scale
(0.98) t 
GR
GR
GS
[0.75 0 0 0.75 56.5 146.625] CT
0.149 GC
/Times-Roman 20 F
GS
[1 0 0 1 0 0] CT
-10 7.248 moveto 
1 -1 scale
(1) t 
GR
GR
GS
[0.75 0 0 0.75 56.5 107.25003] CT
0.149 GC
/Times-Roman 20 F
GS
[1 0 0 1 0 0] CT
-35 7.248 moveto 
1 -1 scale
(1.02) t 
GR
GR
GS
[0.75 0 0 0.75 56.5 67.87507] CT
0.149 GC
/Times-Roman 20 F
GS
[1 0 0 1 0 0] CT
-35 7.248 moveto 
1 -1 scale
(1.04) t 
GR
GR
GS
[0.75 0 0 0.75 56.5 28.50011] CT
0.149 GC
/Times-Roman 20 F
GS
[1 0 0 1 0 0] CT
-35 7.248 moveto 
1 -1 scale
(1.06) t 
GR
GR
GS
[0.75 0 0 0.75 0 0] CT
0 0.447 0.741 RC
2 setlinecap
10.0 ML
N
82 326.75 M
94.75 326.514 L
107.5 325.805 L
120.25 324.624 L
133 322.97 L
145.75 320.844 L
158.5 318.245 L
171.25 315.174 L
184 311.63 L
196.75 307.614 L
209.5 303.125 L
222.25 298.164 L
235 292.73 L
247.75 286.824 L
260.5 280.445 L
273.25 273.594 L
286 266.27 L
298.75 258.474 L
311.5 250.205 L
324.25 241.464 L
337 232.25 L
349.75 222.564 L
362.5 212.405 L
375.25 201.774 L
388 190.67 L
400.75 179.094 L
413.5 167.045 L
426.25 154.524 L
439 141.53 L
451.75 128.064 L
464.5 114.125 L
477.25 99.714 L
490 84.83 L
502.75 69.474 L
S
GR
GS
[0.75 0 0 0.75 0 0] CT
0.851 0.325 0.098 RC
2 setlinecap
10.0 ML
N
82 325.413 M
94.75 325.211 L
107.5 324.604 L
120.25 323.591 L
133 322.169 L
145.75 320.335 L
158.5 318.085 L
171.25 315.413 L
184 312.313 L
196.75 308.778 L
209.5 304.799 L
222.25 300.368 L
235 295.474 L
247.75 290.107 L
260.5 284.254 L
273.25 277.902 L
286 271.037 L
298.75 263.645 L
311.5 255.709 L
324.25 247.212 L
337 238.137 L
349.75 228.465 L
362.5 218.176 L
375.25 207.25 L
388 195.664 L
400.75 183.397 L
413.5 170.423 L
426.25 156.72 L
439 142.261 L
451.75 127.02 L
464.5 110.969 L
477.25 94.08 L
490 76.324 L
502.75 57.67 L
S
GR
GS
[0.75 0 0 0.75 0 0] CT
0.929 0.694 0.125 RC
2 setlinecap
10.0 ML
N
82 327.268 M
94.75 327.058 L
107.5 326.426 L
120.25 325.372 L
133 323.895 L
145.75 321.992 L
158.5 319.659 L
171.25 316.895 L
184 313.693 L
196.75 310.049 L
209.5 305.957 L
222.25 301.409 L
235 296.398 L
247.75 290.915 L
260.5 284.95 L
273.25 278.491 L
286 271.527 L
298.75 264.043 L
311.5 256.024 L
324.25 247.452 L
337 238.311 L
349.75 228.578 L
362.5 218.232 L
375.25 207.248 L
388 195.6 L
400.75 183.259 L
413.5 170.193 L
426.25 156.369 L
439 141.749 L
451.75 126.294 L
464.5 109.96 L
477.25 92.701 L
490 74.467 L
502.75 55.204 L
S
GR
GS
[0.75 0 0 0.75 198.75 14.25] CT
/Times-Roman-Bold 21 F
GS
[1 0 0 1 0 0] CT
0 0 moveto 
1 -1 scale
(R) t 
GR
GR
GS
[0.75 0 0 0.75 210.75 21.75] CT
/Times-Roman-Bold 16 F
GS
[1 0 0 1 0 0] CT
0 0 moveto 
1 -1 scale
(c) t 
GR
GR
GS
[0.75 0 0 0.75 216.75 14.25] CT
/Times-Roman-Bold 21 F
GS
[1 0 0 1 0 0] CT
0 0 moveto 
1 -1 scale
( = 5) t 
GR
GR
GS
[0.75 0 0 0.75 0 0] CT
1 GC
N
96 123 M
96 50 L
218 50 L
218 123 L
cp
f
GR
GS
[0.75 0 0 0.75 111 53.25] CT
/Times-Roman 17 F
GS
[1 0 0 1 0 0] CT
0 0 moveto 
1 -1 scale
(1) t 
GR
GR
GS
[0.75 0 0 0.75 117.75 47.25] CT
/Times-Roman 13 F
GS
[1 0 0 1 0 0] CT
0 0 moveto 
1 -1 scale
(st) t 
GR
GR
GS
[0.75 0 0 0.75 124.5 53.25] CT
/Times-Roman 17 F
GS
[1 0 0 1 0 0] CT
0 0 moveto 
1 -1 scale
( order) t 
GR
GR
GS
[0.75 0 0 0.75 0 0] CT
0 0.447 0.741 RC
2 setlinecap
10.0 ML
N
104 63.729 M
144 63.729 L
S
GR
GS
[0.75 0 0 0.75 111 70.5] CT
/Times-Roman 17 F
GS
[1 0 0 1 0 0] CT
0 0 moveto 
1 -1 scale
(2) t 
GR
GR
GS
[0.75 0 0 0.75 117.75 64.5] CT
/Times-Roman 13 F
GS
[1 0 0 1 0 0] CT
0 0 moveto 
1 -1 scale
(nd) t 
GR
GR
GS
[0.75 0 0 0.75 127.5 70.5] CT
/Times-Roman 17 F
GS
[1 0 0 1 0 0] CT
0 0 moveto 
1 -1 scale
( Order) t 
GR
GR
GS
[0.75 0 0 0.75 0 0] CT
0.851 0.325 0.098 RC
2 setlinecap
10.0 ML
N
104 86.5 M
144 86.5 L
S
GR
GS
[0.75 0 0 0.75 111 87.75] CT
/Times-Roman 17 F
GS
[1 0 0 1 0 0] CT
0 0 moveto 
1 -1 scale
(3) t 
GR
GR
GS
[0.75 0 0 0.75 117.75 81.75] CT
/Times-Roman 13 F
GS
[1 0 0 1 0 0] CT
0 0 moveto 
1 -1 scale
(rd) t 
GR
GR
GS
[0.75 0 0 0.75 126 87.75] CT
/Times-Roman 17 F
GS
[1 0 0 1 0 0] CT
0 0 moveto 
1 -1 scale
( Order) t 
GR
GR
GS
[0.75 0 0 0.75 0 0] CT
0.929 0.694 0.125 RC
2 setlinecap
10.0 ML
N
104 109.271 M
144 109.271 L
S
GR
GS
[0.75 0 0 0.75 0 0] CT
0.149 GC
2 setlinecap
10.0 ML
N
96 123 M
96 50 L
218 50 L
218 123 L
96 123 L
S
GR
%%Trailer
%%Pages: 1
%%EOF
