%!PS-Adobe-3.0 EPSF-3.0
%%Creator: (MATLAB, The Mathworks, Inc. Version 8.4.0.150421 \(R2014b\). Operating System: Windows 8)
%%Title: (C:/Users/kartrmswy/Dropbox/F15/AE 510/HW5/5B_pres.eps)
%%CreationDate: 2015-11-03T03:10:18
%%Pages: (atend)
%%BoundingBox: 0 0 420 315
%%LanguageLevel: 2
%%EndComments
%%BeginProlog
%%BeginResource: procset (Apache XML Graphics Std ProcSet) 1.2 0
%%Version: 1.2 0
%%Copyright: (Copyright 2001-2003,2010 The Apache Software Foundation. License terms: http://www.apache.org/licenses/LICENSE-2.0)
/bd{bind def}bind def
/ld{load def}bd
/GR/grestore ld
/M/moveto ld
/LJ/setlinejoin ld
/C/curveto ld
/f/fill ld
/LW/setlinewidth ld
/GC/setgray ld
/t/show ld
/N/newpath ld
/CT/concat ld
/cp/closepath ld
/S/stroke ld
/L/lineto ld
/CC/setcmykcolor ld
/A/ashow ld
/GS/gsave ld
/RC/setrgbcolor ld
/RM/rmoveto ld
/ML/setmiterlimit ld
/re {4 2 roll M
1 index 0 rlineto
0 exch rlineto
neg 0 rlineto
cp } bd
/_ctm matrix def
/_tm matrix def
/BT { _ctm currentmatrix pop matrix _tm copy pop 0 0 moveto } bd
/ET { _ctm setmatrix } bd
/iTm { _ctm setmatrix _tm concat } bd
/Tm { _tm astore pop iTm 0 0 moveto } bd
/ux 0.0 def
/uy 0.0 def
/F {
  /Tp exch def
  /Tf exch def
  Tf findfont Tp scalefont setfont
  /cf Tf def  /cs Tp def
} bd
/ULS {currentpoint /uy exch def /ux exch def} bd
/ULE {
  /Tcx currentpoint pop def
  gsave
  newpath
  cf findfont cs scalefont dup
  /FontMatrix get 0 get /Ts exch def /FontInfo get dup
  /UnderlinePosition get Ts mul /To exch def
  /UnderlineThickness get Ts mul /Tt exch def
  ux uy To add moveto  Tcx uy To add lineto
  Tt setlinewidth stroke
  grestore
} bd
/OLE {
  /Tcx currentpoint pop def
  gsave
  newpath
  cf findfont cs scalefont dup
  /FontMatrix get 0 get /Ts exch def /FontInfo get dup
  /UnderlinePosition get Ts mul /To exch def
  /UnderlineThickness get Ts mul /Tt exch def
  ux uy To add cs add moveto Tcx uy To add cs add lineto
  Tt setlinewidth stroke
  grestore
} bd
/SOE {
  /Tcx currentpoint pop def
  gsave
  newpath
  cf findfont cs scalefont dup
  /FontMatrix get 0 get /Ts exch def /FontInfo get dup
  /UnderlinePosition get Ts mul /To exch def
  /UnderlineThickness get Ts mul /Tt exch def
  ux uy To add cs 10 mul 26 idiv add moveto Tcx uy To add cs 10 mul 26 idiv add lineto
  Tt setlinewidth stroke
  grestore
} bd
/QT {
/Y22 exch store
/X22 exch store
/Y21 exch store
/X21 exch store
currentpoint
/Y21 load 2 mul add 3 div exch
/X21 load 2 mul add 3 div exch
/X21 load 2 mul /X22 load add 3 div
/Y21 load 2 mul /Y22 load add 3 div
/X22 load /Y22 load curveto
} bd
/SSPD {
dup length /d exch dict def
{
/v exch def
/k exch def
currentpagedevice k known {
/cpdv currentpagedevice k get def
v cpdv ne {
/upd false def
/nullv v type /nulltype eq def
/nullcpdv cpdv type /nulltype eq def
nullv nullcpdv or
{
/upd true def
} {
/sametype v type cpdv type eq def
sametype {
v type /arraytype eq {
/vlen v length def
/cpdvlen cpdv length def
vlen cpdvlen eq {
0 1 vlen 1 sub {
/i exch def
/obj v i get def
/cpdobj cpdv i get def
obj cpdobj ne {
/upd true def
exit
} if
} for
} {
/upd true def
} ifelse
} {
v type /dicttype eq {
v {
/dv exch def
/dk exch def
/cpddv cpdv dk get def
dv cpddv ne {
/upd true def
exit
} if
} forall
} {
/upd true def
} ifelse
} ifelse
} if
} ifelse
upd true eq {
d k v put
} if
} if
} if
} forall
d length 0 gt {
d setpagedevice
} if
} bd
%%EndResource
%%BeginResource: procset (Apache XML Graphics EPS ProcSet) 1.0 0
%%Version: 1.0 0
%%Copyright: (Copyright 2002-2003 The Apache Software Foundation. License terms: http://www.apache.org/licenses/LICENSE-2.0)
/BeginEPSF { %def
/b4_Inc_state save def         % Save state for cleanup
/dict_count countdictstack def % Count objects on dict stack
/op_count count 1 sub def      % Count objects on operand stack
userdict begin                 % Push userdict on dict stack
/showpage { } def              % Redefine showpage, { } = null proc
0 setgray 0 setlinecap         % Prepare graphics state
1 setlinewidth 0 setlinejoin
10 setmiterlimit [ ] 0 setdash newpath
/languagelevel where           % If level not equal to 1 then
{pop languagelevel             % set strokeadjust and
1 ne                           % overprint to their defaults.
{false setstrokeadjust false setoverprint
} if
} if
} bd
/EndEPSF { %def
count op_count sub {pop} repeat            % Clean up stacks
countdictstack dict_count sub {end} repeat
b4_Inc_state restore
} bd
%%EndResource
%FOPBeginFontDict
%%IncludeResource: font Courier-Bold
%%IncludeResource: font Helvetica
%%IncludeResource: font Courier-BoldOblique
%%IncludeResource: font Courier-Oblique
%%IncludeResource: font Times-Roman
%%IncludeResource: font Helvetica-BoldOblique
%%IncludeResource: font Helvetica-Bold
%%IncludeResource: font Helvetica-Oblique
%%IncludeResource: font Times-BoldItalic
%%IncludeResource: font Courier
%%IncludeResource: font Times-Italic
%%IncludeResource: font Times-Bold
%%IncludeResource: font Symbol
%%IncludeResource: font ZapfDingbats
%FOPEndFontDict
%%BeginResource: encoding WinAnsiEncoding
/WinAnsiEncoding [
/.notdef /.notdef /.notdef /.notdef /.notdef
/.notdef /.notdef /.notdef /.notdef /.notdef
/.notdef /.notdef /.notdef /.notdef /.notdef
/.notdef /.notdef /.notdef /.notdef /.notdef
/.notdef /.notdef /.notdef /.notdef /.notdef
/.notdef /.notdef /.notdef /.notdef /.notdef
/.notdef /.notdef /space /exclam /quotedbl
/numbersign /dollar /percent /ampersand /quotesingle
/parenleft /parenright /asterisk /plus /comma
/hyphen /period /slash /zero /one
/two /three /four /five /six
/seven /eight /nine /colon /semicolon
/less /equal /greater /question /at
/A /B /C /D /E
/F /G /H /I /J
/K /L /M /N /O
/P /Q /R /S /T
/U /V /W /X /Y
/Z /bracketleft /backslash /bracketright /asciicircum
/underscore /quoteleft /a /b /c
/d /e /f /g /h
/i /j /k /l /m
/n /o /p /q /r
/s /t /u /v /w
/x /y /z /braceleft /bar
/braceright /asciitilde /bullet /Euro /bullet
/quotesinglbase /florin /quotedblbase /ellipsis /dagger
/daggerdbl /circumflex /perthousand /Scaron /guilsinglleft
/OE /bullet /Zcaron /bullet /bullet
/quoteleft /quoteright /quotedblleft /quotedblright /bullet
/endash /emdash /asciitilde /trademark /scaron
/guilsinglright /oe /bullet /zcaron /Ydieresis
/space /exclamdown /cent /sterling /currency
/yen /brokenbar /section /dieresis /copyright
/ordfeminine /guillemotleft /logicalnot /sfthyphen /registered
/macron /degree /plusminus /twosuperior /threesuperior
/acute /mu /paragraph /middot /cedilla
/onesuperior /ordmasculine /guillemotright /onequarter /onehalf
/threequarters /questiondown /Agrave /Aacute /Acircumflex
/Atilde /Adieresis /Aring /AE /Ccedilla
/Egrave /Eacute /Ecircumflex /Edieresis /Igrave
/Iacute /Icircumflex /Idieresis /Eth /Ntilde
/Ograve /Oacute /Ocircumflex /Otilde /Odieresis
/multiply /Oslash /Ugrave /Uacute /Ucircumflex
/Udieresis /Yacute /Thorn /germandbls /agrave
/aacute /acircumflex /atilde /adieresis /aring
/ae /ccedilla /egrave /eacute /ecircumflex
/edieresis /igrave /iacute /icircumflex /idieresis
/eth /ntilde /ograve /oacute /ocircumflex
/otilde /odieresis /divide /oslash /ugrave
/uacute /ucircumflex /udieresis /yacute /thorn
/ydieresis
] def
%%EndResource
%FOPBeginFontReencode
/Courier-Bold findfont
dup length dict begin
  {1 index /FID ne {def} {pop pop} ifelse} forall
  /Encoding WinAnsiEncoding def
  currentdict
end
/Courier-Bold exch definefont pop
/Helvetica findfont
dup length dict begin
  {1 index /FID ne {def} {pop pop} ifelse} forall
  /Encoding WinAnsiEncoding def
  currentdict
end
/Helvetica exch definefont pop
/Courier-BoldOblique findfont
dup length dict begin
  {1 index /FID ne {def} {pop pop} ifelse} forall
  /Encoding WinAnsiEncoding def
  currentdict
end
/Courier-BoldOblique exch definefont pop
/Courier-Oblique findfont
dup length dict begin
  {1 index /FID ne {def} {pop pop} ifelse} forall
  /Encoding WinAnsiEncoding def
  currentdict
end
/Courier-Oblique exch definefont pop
/Times-Roman findfont
dup length dict begin
  {1 index /FID ne {def} {pop pop} ifelse} forall
  /Encoding WinAnsiEncoding def
  currentdict
end
/Times-Roman exch definefont pop
/Helvetica-BoldOblique findfont
dup length dict begin
  {1 index /FID ne {def} {pop pop} ifelse} forall
  /Encoding WinAnsiEncoding def
  currentdict
end
/Helvetica-BoldOblique exch definefont pop
/Helvetica-Bold findfont
dup length dict begin
  {1 index /FID ne {def} {pop pop} ifelse} forall
  /Encoding WinAnsiEncoding def
  currentdict
end
/Helvetica-Bold exch definefont pop
/Helvetica-Oblique findfont
dup length dict begin
  {1 index /FID ne {def} {pop pop} ifelse} forall
  /Encoding WinAnsiEncoding def
  currentdict
end
/Helvetica-Oblique exch definefont pop
/Times-BoldItalic findfont
dup length dict begin
  {1 index /FID ne {def} {pop pop} ifelse} forall
  /Encoding WinAnsiEncoding def
  currentdict
end
/Times-BoldItalic exch definefont pop
/Courier findfont
dup length dict begin
  {1 index /FID ne {def} {pop pop} ifelse} forall
  /Encoding WinAnsiEncoding def
  currentdict
end
/Courier exch definefont pop
/Times-Italic findfont
dup length dict begin
  {1 index /FID ne {def} {pop pop} ifelse} forall
  /Encoding WinAnsiEncoding def
  currentdict
end
/Times-Italic exch definefont pop
/Times-Bold findfont
dup length dict begin
  {1 index /FID ne {def} {pop pop} ifelse} forall
  /Encoding WinAnsiEncoding def
  currentdict
end
/Times-Bold exch definefont pop
%FOPEndFontReencode
%%EndProlog
%%Page: 1 1
%%PageBoundingBox: 0 0 420 315
%%BeginPageSetup
[1 0 0 -1 0 315] CT
%%EndPageSetup
GS
[0.75 0 0 0.75 0 0] CT
1 GC
N
0 0 560 420 re
f
GR
GS
[0.75 0 0 0.75 0 0] CT
1 GC
N
0 0 560 420 re
f
GR
GS
[0.75 0 0 0.75 0 0] CT
1 GC
N
84 361 M
507 361 L
507 31 L
84 31 L
cp
f
GR
GS
[0.75 0 0 0.75 0 0] CT
0.873 GC
2 setlinecap
10.0 ML
N
84 361 M
84 31 L
S
GR
GS
[0.75 0 0 0.75 0 0] CT
0.873 GC
2 setlinecap
10.0 ML
N
131 361 M
131 31 L
S
GR
GS
[0.75 0 0 0.75 0 0] CT
0.873 GC
2 setlinecap
10.0 ML
N
178 361 M
178 31 L
S
GR
GS
[0.75 0 0 0.75 0 0] CT
0.873 GC
2 setlinecap
10.0 ML
N
225 361 M
225 31 L
S
GR
GS
[0.75 0 0 0.75 0 0] CT
0.873 GC
2 setlinecap
10.0 ML
N
272 361 M
272 31 L
S
GR
GS
[0.75 0 0 0.75 0 0] CT
0.873 GC
2 setlinecap
10.0 ML
N
319 361 M
319 31 L
S
GR
GS
[0.75 0 0 0.75 0 0] CT
0.873 GC
2 setlinecap
10.0 ML
N
366 361 M
366 31 L
S
GR
GS
[0.75 0 0 0.75 0 0] CT
0.873 GC
2 setlinecap
10.0 ML
N
413 361 M
413 31 L
S
GR
GS
[0.75 0 0 0.75 0 0] CT
0.873 GC
2 setlinecap
10.0 ML
N
460 361 M
460 31 L
S
GR
GS
[0.75 0 0 0.75 0 0] CT
0.873 GC
2 setlinecap
10.0 ML
N
507 361 M
507 31 L
S
GR
GS
[0.75 0 0 0.75 0 0] CT
0.873 GC
2 setlinecap
10.0 ML
N
507 361 M
84 361 L
S
GR
GS
[0.75 0 0 0.75 0 0] CT
0.873 GC
2 setlinecap
10.0 ML
N
507 313.857 M
84 313.857 L
S
GR
GS
[0.75 0 0 0.75 0 0] CT
0.873 GC
2 setlinecap
10.0 ML
N
507 266.714 M
84 266.714 L
S
GR
GS
[0.75 0 0 0.75 0 0] CT
0.873 GC
2 setlinecap
10.0 ML
N
507 219.571 M
84 219.571 L
S
GR
GS
[0.75 0 0 0.75 0 0] CT
0.873 GC
2 setlinecap
10.0 ML
N
507 172.429 M
84 172.429 L
S
GR
GS
[0.75 0 0 0.75 0 0] CT
0.873 GC
2 setlinecap
10.0 ML
N
507 125.286 M
84 125.286 L
S
GR
GS
[0.75 0 0 0.75 0 0] CT
0.873 GC
2 setlinecap
10.0 ML
N
507 78.143 M
84 78.143 L
S
GR
GS
[0.75 0 0 0.75 0 0] CT
0.873 GC
2 setlinecap
10.0 ML
N
507 31 M
84 31 L
S
GR
GS
[0.75 0 0 0.75 221.625 287.26366] CT
0.149 GC
/Times-Roman-Italic 33 F
GS
[1 0 0 1 0 0] CT
-7.323 30.108 moveto 
1 -1 scale
(x) t 
GR
GR
GS
[0.75 0 0 0.75 0 0] CT
0.149 GC
2 setlinecap
10.0 ML
N
84 361 M
507 361 L
S
GR
GS
[0.75 0 0 0.75 0 0] CT
0.149 GC
2 setlinecap
10.0 ML
N
84 31 M
507 31 L
S
GR
GS
[0.75 0 0 0.75 0 0] CT
0.149 GC
2 setlinecap
10.0 ML
N
84 361 M
84 356.66 L
S
GR
GS
[0.75 0 0 0.75 0 0] CT
0.149 GC
2 setlinecap
10.0 ML
N
84 31 M
84 35.34 L
S
GR
GS
[0.75 0 0 0.75 0 0] CT
0.149 GC
2 setlinecap
10.0 ML
N
131 361 M
131 356.66 L
S
GR
GS
[0.75 0 0 0.75 0 0] CT
0.149 GC
2 setlinecap
10.0 ML
N
131 31 M
131 35.34 L
S
GR
GS
[0.75 0 0 0.75 0 0] CT
0.149 GC
2 setlinecap
10.0 ML
N
178 361 M
178 356.66 L
S
GR
GS
[0.75 0 0 0.75 0 0] CT
0.149 GC
2 setlinecap
10.0 ML
N
178 31 M
178 35.34 L
S
GR
GS
[0.75 0 0 0.75 0 0] CT
0.149 GC
2 setlinecap
10.0 ML
N
225 361 M
225 356.66 L
S
GR
GS
[0.75 0 0 0.75 0 0] CT
0.149 GC
2 setlinecap
10.0 ML
N
225 31 M
225 35.34 L
S
GR
GS
[0.75 0 0 0.75 0 0] CT
0.149 GC
2 setlinecap
10.0 ML
N
272 361 M
272 356.66 L
S
GR
GS
[0.75 0 0 0.75 0 0] CT
0.149 GC
2 setlinecap
10.0 ML
N
272 31 M
272 35.34 L
S
GR
GS
[0.75 0 0 0.75 0 0] CT
0.149 GC
2 setlinecap
10.0 ML
N
319 361 M
319 356.66 L
S
GR
GS
[0.75 0 0 0.75 0 0] CT
0.149 GC
2 setlinecap
10.0 ML
N
319 31 M
319 35.34 L
S
GR
GS
[0.75 0 0 0.75 0 0] CT
0.149 GC
2 setlinecap
10.0 ML
N
366 361 M
366 356.66 L
S
GR
GS
[0.75 0 0 0.75 0 0] CT
0.149 GC
2 setlinecap
10.0 ML
N
366 31 M
366 35.34 L
S
GR
GS
[0.75 0 0 0.75 0 0] CT
0.149 GC
2 setlinecap
10.0 ML
N
413 361 M
413 356.66 L
S
GR
GS
[0.75 0 0 0.75 0 0] CT
0.149 GC
2 setlinecap
10.0 ML
N
413 31 M
413 35.34 L
S
GR
GS
[0.75 0 0 0.75 0 0] CT
0.149 GC
2 setlinecap
10.0 ML
N
460 361 M
460 356.66 L
S
GR
GS
[0.75 0 0 0.75 0 0] CT
0.149 GC
2 setlinecap
10.0 ML
N
460 31 M
460 35.34 L
S
GR
GS
[0.75 0 0 0.75 0 0] CT
0.149 GC
2 setlinecap
10.0 ML
N
507 361 M
507 356.66 L
S
GR
GS
[0.75 0 0 0.75 0 0] CT
0.149 GC
2 setlinecap
10.0 ML
N
507 31 M
507 35.34 L
S
GR
GS
[0.75 0 0 0.75 63 274.75001] CT
0.149 GC
/Helvetica 13 F
GS
[1 0 0 1 0 0] CT
-9.036 13.07 moveto 
1 -1 scale
(0.2) t 
GR
GR
GS
[0.75 0 0 0.75 98.25 274.75001] CT
0.149 GC
/Helvetica 13 F
GS
[1 0 0 1 0 0] CT
-9.036 13.07 moveto 
1 -1 scale
(0.4) t 
GR
GR
GS
[0.75 0 0 0.75 133.5 274.75001] CT
0.149 GC
/Helvetica 13 F
GS
[1 0 0 1 0 0] CT
-9.036 13.07 moveto 
1 -1 scale
(0.6) t 
GR
GR
GS
[0.75 0 0 0.75 168.75 274.75001] CT
0.149 GC
/Helvetica 13 F
GS
[1 0 0 1 0 0] CT
-9.036 13.07 moveto 
1 -1 scale
(0.8) t 
GR
GR
GS
[0.75 0 0 0.75 204 274.75001] CT
0.149 GC
/Helvetica 13 F
GS
[1 0 0 1 0 0] CT
-3.615 13.07 moveto 
1 -1 scale
(1) t 
GR
GR
GS
[0.75 0 0 0.75 239.25 274.75001] CT
0.149 GC
/Helvetica 13 F
GS
[1 0 0 1 0 0] CT
-9.036 13.07 moveto 
1 -1 scale
(1.2) t 
GR
GR
GS
[0.75 0 0 0.75 274.5 274.75001] CT
0.149 GC
/Helvetica 13 F
GS
[1 0 0 1 0 0] CT
-9.036 13.07 moveto 
1 -1 scale
(1.4) t 
GR
GR
GS
[0.75 0 0 0.75 309.75 274.75001] CT
0.149 GC
/Helvetica 13 F
GS
[1 0 0 1 0 0] CT
-9.036 13.07 moveto 
1 -1 scale
(1.6) t 
GR
GR
GS
[0.75 0 0 0.75 345 274.75001] CT
0.149 GC
/Helvetica 13 F
GS
[1 0 0 1 0 0] CT
-9.036 13.07 moveto 
1 -1 scale
(1.8) t 
GR
GR
GS
[0.75 0 0 0.75 380.25 274.75001] CT
0.149 GC
/Helvetica 13 F
GS
[1 0 0 1 0 0] CT
-3.615 13.07 moveto 
1 -1 scale
(2) t 
GR
GR
GS
[0 -0.75 0.75 0 21 171] CT
0.149 GC
/Times-Roman-Italic 33 F
GS
[1 0 0 1 0 0] CT
0 0 moveto 
1 -1 scale
(P/P) t 
GR
GR
GS
[0 -0.75 0.75 0 33 133.5] CT
0.149 GC
/Times-Roman-Italic 27 F
GS
[1 0 0 1 0 0] CT
0 0 moveto 
1 -1 scale
(0) t 
GR
GR
GS
[0.75 0 0 0.75 0 0] CT
0.149 GC
2 setlinecap
10.0 ML
N
84 361 M
84 31 L
S
GR
GS
[0.75 0 0 0.75 0 0] CT
0.149 GC
2 setlinecap
10.0 ML
N
507 361 M
507 31 L
S
GR
GS
[0.75 0 0 0.75 0 0] CT
0.149 GC
2 setlinecap
10.0 ML
N
84 361 M
88.34 361 L
S
GR
GS
[0.75 0 0 0.75 0 0] CT
0.149 GC
2 setlinecap
10.0 ML
N
507 361 M
502.66 361 L
S
GR
GS
[0.75 0 0 0.75 0 0] CT
0.149 GC
2 setlinecap
10.0 ML
N
84 313.857 M
88.34 313.857 L
S
GR
GS
[0.75 0 0 0.75 0 0] CT
0.149 GC
2 setlinecap
10.0 ML
N
507 313.857 M
502.66 313.857 L
S
GR
GS
[0.75 0 0 0.75 0 0] CT
0.149 GC
2 setlinecap
10.0 ML
N
84 266.714 M
88.34 266.714 L
S
GR
GS
[0.75 0 0 0.75 0 0] CT
0.149 GC
2 setlinecap
10.0 ML
N
507 266.714 M
502.66 266.714 L
S
GR
GS
[0.75 0 0 0.75 0 0] CT
0.149 GC
2 setlinecap
10.0 ML
N
84 219.571 M
88.34 219.571 L
S
GR
GS
[0.75 0 0 0.75 0 0] CT
0.149 GC
2 setlinecap
10.0 ML
N
507 219.571 M
502.66 219.571 L
S
GR
GS
[0.75 0 0 0.75 0 0] CT
0.149 GC
2 setlinecap
10.0 ML
N
84 172.429 M
88.34 172.429 L
S
GR
GS
[0.75 0 0 0.75 0 0] CT
0.149 GC
2 setlinecap
10.0 ML
N
507 172.429 M
502.66 172.429 L
S
GR
GS
[0.75 0 0 0.75 0 0] CT
0.149 GC
2 setlinecap
10.0 ML
N
84 125.286 M
88.34 125.286 L
S
GR
GS
[0.75 0 0 0.75 0 0] CT
0.149 GC
2 setlinecap
10.0 ML
N
507 125.286 M
502.66 125.286 L
S
GR
GS
[0.75 0 0 0.75 0 0] CT
0.149 GC
2 setlinecap
10.0 ML
N
84 78.143 M
88.34 78.143 L
S
GR
GS
[0.75 0 0 0.75 0 0] CT
0.149 GC
2 setlinecap
10.0 ML
N
507 78.143 M
502.66 78.143 L
S
GR
GS
[0.75 0 0 0.75 0 0] CT
0.149 GC
2 setlinecap
10.0 ML
N
84 31 M
88.34 31 L
S
GR
GS
[0.75 0 0 0.75 0 0] CT
0.149 GC
2 setlinecap
10.0 ML
N
507 31 M
502.66 31 L
S
GR
GS
[0.75 0 0 0.75 59 270.75] CT
0.149 GC
/Helvetica 13 F
GS
[1 0 0 1 0 0] CT
-18.072 5.394 moveto 
1 -1 scale
(0.2) t 
GR
GR
GS
[0.75 0 0 0.75 59 235.39286] CT
0.149 GC
/Helvetica 13 F
GS
[1 0 0 1 0 0] CT
-25.302 5.394 moveto 
1 -1 scale
(0.25) t 
GR
GR
GS
[0.75 0 0 0.75 59 200.0357] CT
0.149 GC
/Helvetica 13 F
GS
[1 0 0 1 0 0] CT
-18.072 5.394 moveto 
1 -1 scale
(0.3) t 
GR
GR
GS
[0.75 0 0 0.75 59 164.67858] CT
0.149 GC
/Helvetica 13 F
GS
[1 0 0 1 0 0] CT
-25.302 5.394 moveto 
1 -1 scale
(0.35) t 
GR
GR
GS
[0.75 0 0 0.75 59 129.32142] CT
0.149 GC
/Helvetica 13 F
GS
[1 0 0 1 0 0] CT
-18.072 5.394 moveto 
1 -1 scale
(0.4) t 
GR
GR
GS
[0.75 0 0 0.75 59 93.9643] CT
0.149 GC
/Helvetica 13 F
GS
[1 0 0 1 0 0] CT
-25.302 5.394 moveto 
1 -1 scale
(0.45) t 
GR
GR
GS
[0.75 0 0 0.75 59 58.60715] CT
0.149 GC
/Helvetica 13 F
GS
[1 0 0 1 0 0] CT
-18.072 5.394 moveto 
1 -1 scale
(0.5) t 
GR
GR
GS
[0.75 0 0 0.75 59 23.24999] CT
0.149 GC
/Helvetica 13 F
GS
[1 0 0 1 0 0] CT
-25.302 5.394 moveto 
1 -1 scale
(0.55) t 
GR
GR
GS
[0.75 0 0 0.75 0 0] CT
1 0 0 RC
2 setlinecap
10.0 ML
N
97.5 75.5 M
96.5 73.768 L
94.5 73.768 L
93.5 75.5 L
94.5 77.232 L
96.5 77.232 L
97.5 75.5 L
S
GR
GS
[0.75 0 0 0.75 0 0] CT
0 0 1 RC
2 setlinecap
10.0 ML
N
93.94 209.06 M
93.94 205.94 L
97.06 205.94 L
97.06 209.06 L
93.94 209.06 L
S
GR
GS
[0.75 0 0 0.75 0 0] CT
1 0 0 RC
2 setlinecap
10.0 ML
N
99.5 78.5 M
98.5 76.768 L
96.5 76.768 L
95.5 78.5 L
96.5 80.232 L
98.5 80.232 L
99.5 78.5 L
S
GR
GS
[0.75 0 0 0.75 0 0] CT
0 0 1 RC
2 setlinecap
10.0 ML
N
99.94 209.06 M
99.94 205.94 L
103.06 205.94 L
103.06 209.06 L
99.94 209.06 L
S
GR
GS
[0.75 0 0 0.75 0 0] CT
1 0 0 RC
2 setlinecap
10.0 ML
N
101.5 80.5 M
100.5 78.768 L
98.5 78.768 L
97.5 80.5 L
98.5 82.232 L
100.5 82.232 L
101.5 80.5 L
S
GR
GS
[0.75 0 0 0.75 0 0] CT
0 0 1 RC
2 setlinecap
10.0 ML
N
106.94 209.06 M
106.94 205.94 L
110.06 205.94 L
110.06 209.06 L
106.94 209.06 L
S
GR
GS
[0.75 0 0 0.75 0 0] CT
1 0 0 RC
2 setlinecap
10.0 ML
N
103.5 83.5 M
102.5 81.768 L
100.5 81.768 L
99.5 83.5 L
100.5 85.232 L
102.5 85.232 L
103.5 83.5 L
S
GR
GS
[0.75 0 0 0.75 0 0] CT
0 0 1 RC
2 setlinecap
10.0 ML
N
111.94 210.06 M
111.94 206.94 L
115.06 206.94 L
115.06 210.06 L
111.94 210.06 L
S
GR
GS
[0.75 0 0 0.75 0 0] CT
1 0 0 RC
2 setlinecap
10.0 ML
N
106.5 86.5 M
105.5 84.768 L
103.5 84.768 L
102.5 86.5 L
103.5 88.232 L
105.5 88.232 L
106.5 86.5 L
S
GR
GS
[0.75 0 0 0.75 0 0] CT
0 0 1 RC
2 setlinecap
10.0 ML
N
116.94 210.06 M
116.94 206.94 L
120.06 206.94 L
120.06 210.06 L
116.94 210.06 L
S
GR
GS
[0.75 0 0 0.75 0 0] CT
1 0 0 RC
2 setlinecap
10.0 ML
N
108.5 89.5 M
107.5 87.768 L
105.5 87.768 L
104.5 89.5 L
105.5 91.232 L
107.5 91.232 L
108.5 89.5 L
S
GR
GS
[0.75 0 0 0.75 0 0] CT
0 0 1 RC
2 setlinecap
10.0 ML
N
121.94 211.06 M
121.94 207.94 L
125.06 207.94 L
125.06 211.06 L
121.94 211.06 L
S
GR
GS
[0.75 0 0 0.75 0 0] CT
1 0 0 RC
2 setlinecap
10.0 ML
N
111.5 92.5 M
110.5 90.768 L
108.5 90.768 L
107.5 92.5 L
108.5 94.232 L
110.5 94.232 L
111.5 92.5 L
S
GR
GS
[0.75 0 0 0.75 0 0] CT
0 0 1 RC
2 setlinecap
10.0 ML
N
126.94 213.06 M
126.94 209.94 L
130.06 209.94 L
130.06 213.06 L
126.94 213.06 L
S
GR
GS
[0.75 0 0 0.75 0 0] CT
1 0 0 RC
2 setlinecap
10.0 ML
N
114.5 95.5 M
113.5 93.768 L
111.5 93.768 L
110.5 95.5 L
111.5 97.232 L
113.5 97.232 L
114.5 95.5 L
S
GR
GS
[0.75 0 0 0.75 0 0] CT
0 0 1 RC
2 setlinecap
10.0 ML
N
130.94 214.06 M
130.94 210.94 L
134.06 210.94 L
134.06 214.06 L
130.94 214.06 L
S
GR
GS
[0.75 0 0 0.75 0 0] CT
1 0 0 RC
2 setlinecap
10.0 ML
N
116.5 99.5 M
115.5 97.768 L
113.5 97.768 L
112.5 99.5 L
113.5 101.232 L
115.5 101.232 L
116.5 99.5 L
S
GR
GS
[0.75 0 0 0.75 0 0] CT
0 0 1 RC
2 setlinecap
10.0 ML
N
135.94 215.06 M
135.94 211.94 L
139.06 211.94 L
139.06 215.06 L
135.94 215.06 L
S
GR
GS
[0.75 0 0 0.75 0 0] CT
1 0 0 RC
2 setlinecap
10.0 ML
N
120.5 102.5 M
119.5 100.768 L
117.5 100.768 L
116.5 102.5 L
117.5 104.232 L
119.5 104.232 L
120.5 102.5 L
S
GR
GS
[0.75 0 0 0.75 0 0] CT
0 0 1 RC
2 setlinecap
10.0 ML
N
140.94 217.06 M
140.94 213.94 L
144.06 213.94 L
144.06 217.06 L
140.94 217.06 L
S
GR
GS
[0.75 0 0 0.75 0 0] CT
1 0 0 RC
2 setlinecap
10.0 ML
N
123.5 106.5 M
122.5 104.768 L
120.5 104.768 L
119.5 106.5 L
120.5 108.232 L
122.5 108.232 L
123.5 106.5 L
S
GR
GS
[0.75 0 0 0.75 0 0] CT
0 0 1 RC
2 setlinecap
10.0 ML
N
144.94 218.06 M
144.94 214.94 L
148.06 214.94 L
148.06 218.06 L
144.94 218.06 L
S
GR
GS
[0.75 0 0 0.75 0 0] CT
1 0 0 RC
2 setlinecap
10.0 ML
N
126.5 110.5 M
125.5 108.768 L
123.5 108.768 L
122.5 110.5 L
123.5 112.232 L
125.5 112.232 L
126.5 110.5 L
S
GR
GS
[0.75 0 0 0.75 0 0] CT
0 0 1 RC
2 setlinecap
10.0 ML
N
149.94 220.06 M
149.94 216.94 L
153.06 216.94 L
153.06 220.06 L
149.94 220.06 L
S
GR
GS
[0.75 0 0 0.75 0 0] CT
1 0 0 RC
2 setlinecap
10.0 ML
N
130.5 115.5 M
129.5 113.768 L
127.5 113.768 L
126.5 115.5 L
127.5 117.232 L
129.5 117.232 L
130.5 115.5 L
S
GR
GS
[0.75 0 0 0.75 0 0] CT
0 0 1 RC
2 setlinecap
10.0 ML
N
153.94 221.06 M
153.94 217.94 L
157.06 217.94 L
157.06 221.06 L
153.94 221.06 L
S
GR
GS
[0.75 0 0 0.75 0 0] CT
1 0 0 RC
2 setlinecap
10.0 ML
N
134.5 119.5 M
133.5 117.768 L
131.5 117.768 L
130.5 119.5 L
131.5 121.232 L
133.5 121.232 L
134.5 119.5 L
S
GR
GS
[0.75 0 0 0.75 0 0] CT
0 0 1 RC
2 setlinecap
10.0 ML
N
158.94 223.06 M
158.94 219.94 L
162.06 219.94 L
162.06 223.06 L
158.94 223.06 L
S
GR
GS
[0.75 0 0 0.75 0 0] CT
1 0 0 RC
2 setlinecap
10.0 ML
N
138.5 124.5 M
137.5 122.768 L
135.5 122.768 L
134.5 124.5 L
135.5 126.232 L
137.5 126.232 L
138.5 124.5 L
S
GR
GS
[0.75 0 0 0.75 0 0] CT
0 0 1 RC
2 setlinecap
10.0 ML
N
162.94 224.06 M
162.94 220.94 L
166.06 220.94 L
166.06 224.06 L
162.94 224.06 L
S
GR
GS
[0.75 0 0 0.75 0 0] CT
1 0 0 RC
2 setlinecap
10.0 ML
N
142.5 129.5 M
141.5 127.768 L
139.5 127.768 L
138.5 129.5 L
139.5 131.232 L
141.5 131.232 L
142.5 129.5 L
S
GR
GS
[0.75 0 0 0.75 0 0] CT
0 0 1 RC
2 setlinecap
10.0 ML
N
167.94 226.06 M
167.94 222.94 L
171.06 222.94 L
171.06 226.06 L
167.94 226.06 L
S
GR
GS
[0.75 0 0 0.75 0 0] CT
1 0 0 RC
2 setlinecap
10.0 ML
N
147.5 134.5 M
146.5 132.768 L
144.5 132.768 L
143.5 134.5 L
144.5 136.232 L
146.5 136.232 L
147.5 134.5 L
S
GR
GS
[0.75 0 0 0.75 0 0] CT
0 0 1 RC
2 setlinecap
10.0 ML
N
171.94 228.06 M
171.94 224.94 L
175.06 224.94 L
175.06 228.06 L
171.94 228.06 L
S
GR
GS
[0.75 0 0 0.75 0 0] CT
1 0 0 RC
2 setlinecap
10.0 ML
N
152.5 140.5 M
151.5 138.768 L
149.5 138.768 L
148.5 140.5 L
149.5 142.232 L
151.5 142.232 L
152.5 140.5 L
S
GR
GS
[0.75 0 0 0.75 0 0] CT
0 0 1 RC
2 setlinecap
10.0 ML
N
176.94 230.06 M
176.94 226.94 L
180.06 226.94 L
180.06 230.06 L
176.94 230.06 L
S
GR
GS
[0.75 0 0 0.75 0 0] CT
1 0 0 RC
2 setlinecap
10.0 ML
N
157.5 145.5 M
156.5 143.768 L
154.5 143.768 L
153.5 145.5 L
154.5 147.232 L
156.5 147.232 L
157.5 145.5 L
S
GR
GS
[0.75 0 0 0.75 0 0] CT
0 0 1 RC
2 setlinecap
10.0 ML
N
181.94 232.06 M
181.94 228.94 L
185.06 228.94 L
185.06 232.06 L
181.94 232.06 L
S
GR
GS
[0.75 0 0 0.75 0 0] CT
1 0 0 RC
2 setlinecap
10.0 ML
N
163.5 152.5 M
162.5 150.768 L
160.5 150.768 L
159.5 152.5 L
160.5 154.232 L
162.5 154.232 L
163.5 152.5 L
S
GR
GS
[0.75 0 0 0.75 0 0] CT
0 0 1 RC
2 setlinecap
10.0 ML
N
186.94 234.06 M
186.94 230.94 L
190.06 230.94 L
190.06 234.06 L
186.94 234.06 L
S
GR
GS
[0.75 0 0 0.75 0 0] CT
1 0 0 RC
2 setlinecap
10.0 ML
N
169.5 158.5 M
168.5 156.768 L
166.5 156.768 L
165.5 158.5 L
166.5 160.232 L
168.5 160.232 L
169.5 158.5 L
S
GR
GS
[0.75 0 0 0.75 0 0] CT
0 0 1 RC
2 setlinecap
10.0 ML
N
191.94 236.06 M
191.94 232.94 L
195.06 232.94 L
195.06 236.06 L
191.94 236.06 L
S
GR
GS
[0.75 0 0 0.75 0 0] CT
1 0 0 RC
2 setlinecap
10.0 ML
N
175.5 165.5 M
174.5 163.768 L
172.5 163.768 L
171.5 165.5 L
172.5 167.232 L
174.5 167.232 L
175.5 165.5 L
S
GR
GS
[0.75 0 0 0.75 0 0] CT
0 0 1 RC
2 setlinecap
10.0 ML
N
197.94 238.06 M
197.94 234.94 L
201.06 234.94 L
201.06 238.06 L
197.94 238.06 L
S
GR
GS
[0.75 0 0 0.75 0 0] CT
1 0 0 RC
2 setlinecap
10.0 ML
N
182.5 172.5 M
181.5 170.768 L
179.5 170.768 L
178.5 172.5 L
179.5 174.232 L
181.5 174.232 L
182.5 172.5 L
S
GR
GS
[0.75 0 0 0.75 0 0] CT
0 0 1 RC
2 setlinecap
10.0 ML
N
202.94 241.06 M
202.94 237.94 L
206.06 237.94 L
206.06 241.06 L
202.94 241.06 L
S
GR
GS
[0.75 0 0 0.75 0 0] CT
1 0 0 RC
2 setlinecap
10.0 ML
N
189.5 179.5 M
188.5 177.768 L
186.5 177.768 L
185.5 179.5 L
186.5 181.232 L
188.5 181.232 L
189.5 179.5 L
S
GR
GS
[0.75 0 0 0.75 0 0] CT
0 0 1 RC
2 setlinecap
10.0 ML
N
209.94 244.06 M
209.94 240.94 L
213.06 240.94 L
213.06 244.06 L
209.94 244.06 L
S
GR
GS
[0.75 0 0 0.75 0 0] CT
1 0 0 RC
2 setlinecap
10.0 ML
N
197.5 186.5 M
196.5 184.768 L
194.5 184.768 L
193.5 186.5 L
194.5 188.232 L
196.5 188.232 L
197.5 186.5 L
S
GR
GS
[0.75 0 0 0.75 0 0] CT
0 0 1 RC
2 setlinecap
10.0 ML
N
215.94 247.06 M
215.94 243.94 L
219.06 243.94 L
219.06 247.06 L
215.94 247.06 L
S
GR
GS
[0.75 0 0 0.75 0 0] CT
1 0 0 RC
2 setlinecap
10.0 ML
N
205.5 195.5 M
204.5 193.768 L
202.5 193.768 L
201.5 195.5 L
202.5 197.232 L
204.5 197.232 L
205.5 195.5 L
S
GR
GS
[0.75 0 0 0.75 0 0] CT
0 0 1 RC
2 setlinecap
10.0 ML
N
222.94 250.06 M
222.94 246.94 L
226.06 246.94 L
226.06 250.06 L
222.94 250.06 L
S
GR
GS
[0.75 0 0 0.75 0 0] CT
1 0 0 RC
2 setlinecap
10.0 ML
N
214.5 203.5 M
213.5 201.768 L
211.5 201.768 L
210.5 203.5 L
211.5 205.232 L
213.5 205.232 L
214.5 203.5 L
S
GR
GS
[0.75 0 0 0.75 0 0] CT
0 0 1 RC
2 setlinecap
10.0 ML
N
230.94 253.06 M
230.94 249.94 L
234.06 249.94 L
234.06 253.06 L
230.94 253.06 L
S
GR
GS
[0.75 0 0 0.75 0 0] CT
1 0 0 RC
2 setlinecap
10.0 ML
N
224.5 212.5 M
223.5 210.768 L
221.5 210.768 L
220.5 212.5 L
221.5 214.232 L
223.5 214.232 L
224.5 212.5 L
S
GR
GS
[0.75 0 0 0.75 0 0] CT
0 0 1 RC
2 setlinecap
10.0 ML
N
239.94 257.06 M
239.94 253.94 L
243.06 253.94 L
243.06 257.06 L
239.94 257.06 L
S
GR
GS
[0.75 0 0 0.75 0 0] CT
1 0 0 RC
2 setlinecap
10.0 ML
N
234.5 220.5 M
233.5 218.768 L
231.5 218.768 L
230.5 220.5 L
231.5 222.232 L
233.5 222.232 L
234.5 220.5 L
S
GR
GS
[0.75 0 0 0.75 0 0] CT
0 0 1 RC
2 setlinecap
10.0 ML
N
248.94 262.06 M
248.94 258.94 L
252.06 258.94 L
252.06 262.06 L
248.94 262.06 L
S
GR
GS
[0.75 0 0 0.75 0 0] CT
1 0 0 RC
2 setlinecap
10.0 ML
N
245.5 230.5 M
244.5 228.768 L
242.5 228.768 L
241.5 230.5 L
242.5 232.232 L
244.5 232.232 L
245.5 230.5 L
S
GR
GS
[0.75 0 0 0.75 0 0] CT
0 0 1 RC
2 setlinecap
10.0 ML
N
258.94 266.06 M
258.94 262.94 L
262.06 262.94 L
262.06 266.06 L
258.94 266.06 L
S
GR
GS
[0.75 0 0 0.75 0 0] CT
1 0 0 RC
2 setlinecap
10.0 ML
N
257.5 239.5 M
256.5 237.768 L
254.5 237.768 L
253.5 239.5 L
254.5 241.232 L
256.5 241.232 L
257.5 239.5 L
S
GR
GS
[0.75 0 0 0.75 0 0] CT
0 0 1 RC
2 setlinecap
10.0 ML
N
268.94 272.06 M
268.94 268.94 L
272.06 268.94 L
272.06 272.06 L
268.94 272.06 L
S
GR
GS
[0.75 0 0 0.75 0 0] CT
1 0 0 RC
2 setlinecap
10.0 ML
N
270.5 249.5 M
269.5 247.768 L
267.5 247.768 L
266.5 249.5 L
267.5 251.232 L
269.5 251.232 L
270.5 249.5 L
S
GR
GS
[0.75 0 0 0.75 0 0] CT
0 0 1 RC
2 setlinecap
10.0 ML
N
280.94 277.06 M
280.94 273.94 L
284.06 273.94 L
284.06 277.06 L
280.94 277.06 L
S
GR
GS
[0.75 0 0 0.75 0 0] CT
1 0 0 RC
2 setlinecap
10.0 ML
N
283.5 259.5 M
282.5 257.768 L
280.5 257.768 L
279.5 259.5 L
280.5 261.232 L
282.5 261.232 L
283.5 259.5 L
S
GR
GS
[0.75 0 0 0.75 0 0] CT
0 0 1 RC
2 setlinecap
10.0 ML
N
293.94 283.06 M
293.94 279.94 L
297.06 279.94 L
297.06 283.06 L
293.94 283.06 L
S
GR
GS
[0.75 0 0 0.75 0 0] CT
1 0 0 RC
2 setlinecap
10.0 ML
N
298.5 270.5 M
297.5 268.768 L
295.5 268.768 L
294.5 270.5 L
295.5 272.232 L
297.5 272.232 L
298.5 270.5 L
S
GR
GS
[0.75 0 0 0.75 0 0] CT
0 0 1 RC
2 setlinecap
10.0 ML
N
307.94 290.06 M
307.94 286.94 L
311.06 286.94 L
311.06 290.06 L
307.94 290.06 L
S
GR
GS
[0.75 0 0 0.75 0 0] CT
1 0 0 RC
2 setlinecap
10.0 ML
N
315.5 280.5 M
314.5 278.768 L
312.5 278.768 L
311.5 280.5 L
312.5 282.232 L
314.5 282.232 L
315.5 280.5 L
S
GR
GS
[0.75 0 0 0.75 0 0] CT
0 0 1 RC
2 setlinecap
10.0 ML
N
322.94 297.06 M
322.94 293.94 L
326.06 293.94 L
326.06 297.06 L
322.94 297.06 L
S
GR
GS
[0.75 0 0 0.75 0 0] CT
1 0 0 RC
2 setlinecap
10.0 ML
N
333.5 291.5 M
332.5 289.768 L
330.5 289.768 L
329.5 291.5 L
330.5 293.232 L
332.5 293.232 L
333.5 291.5 L
S
GR
GS
[0.75 0 0 0.75 0 0] CT
0 0 1 RC
2 setlinecap
10.0 ML
N
340.94 305.06 M
340.94 301.94 L
344.06 301.94 L
344.06 305.06 L
340.94 305.06 L
S
GR
GS
[0.75 0 0 0.75 0 0] CT
1 0 0 RC
2 setlinecap
10.0 ML
N
352.5 302.5 M
351.5 300.768 L
349.5 300.768 L
348.5 302.5 L
349.5 304.232 L
351.5 304.232 L
352.5 302.5 L
S
GR
GS
[0.75 0 0 0.75 0 0] CT
0 0 1 RC
2 setlinecap
10.0 ML
N
359.94 313.06 M
359.94 309.94 L
363.06 309.94 L
363.06 313.06 L
359.94 313.06 L
S
GR
GS
[0.75 0 0 0.75 0 0] CT
1 0 0 RC
2 setlinecap
10.0 ML
N
379.5 316.5 M
378.5 314.768 L
376.5 314.768 L
375.5 316.5 L
376.5 318.232 L
378.5 318.232 L
379.5 316.5 L
S
GR
GS
[0.75 0 0 0.75 0 0] CT
0 0 1 RC
2 setlinecap
10.0 ML
N
380.94 322.06 M
380.94 318.94 L
384.06 318.94 L
384.06 322.06 L
380.94 322.06 L
S
GR
GS
[0.75 0 0 0.75 0 0] CT
1 0 0 RC
2 setlinecap
10.0 ML
N
409.5 329.5 M
408.5 327.768 L
406.5 327.768 L
405.5 329.5 L
406.5 331.232 L
408.5 331.232 L
409.5 329.5 L
S
GR
GS
[0.75 0 0 0.75 0 0] CT
0 0 1 RC
2 setlinecap
10.0 ML
N
404.94 332.06 M
404.94 328.94 L
408.06 328.94 L
408.06 332.06 L
404.94 332.06 L
S
GR
GS
[0.75 0 0 0.75 0 0] CT
1 0 0 RC
2 setlinecap
10.0 ML
N
441.5 342.5 M
440.5 340.768 L
438.5 340.768 L
437.5 342.5 L
438.5 344.232 L
440.5 344.232 L
441.5 342.5 L
S
GR
GS
[0.75 0 0 0.75 0 0] CT
0 0 1 RC
2 setlinecap
10.0 ML
N
437.94 344.06 M
437.94 340.94 L
441.06 340.94 L
441.06 344.06 L
437.94 344.06 L
S
GR
GS
[0.75 0 0 0.75 0 0] CT
1 0 0 RC
2 setlinecap
10.0 ML
N
476.5 354.5 M
475.5 352.768 L
473.5 352.768 L
472.5 354.5 L
473.5 356.232 L
475.5 356.232 L
476.5 354.5 L
S
GR
GS
[0.75 0 0 0.75 0 0] CT
0 0 1 RC
2 setlinecap
10.0 ML
N
472.94 356.06 M
472.94 352.94 L
476.06 352.94 L
476.06 356.06 L
472.94 356.06 L
S
GR
GS
[0.75 0 0 0.75 0 0] CT
1 GC
N
300 79 M
300 44 L
494 44 L
494 79 L
cp
f
GR
GS
[0.75 0 0 0.75 264.12289 40.45829] CT
/Helvetica 12 F
GS
[1 0 0 1 0 0] CT
0 5.018 moveto 
1 -1 scale
(Pressure Ratio Along B-C) t 
GR
GR
GS
[0.75 0 0 0.75 0 0] CT
1 0 0 RC
2 setlinecap
10.0 ML
N
330.5 53.5 M
329.5 51.768 L
327.5 51.768 L
326.5 53.5 L
327.5 55.232 L
329.5 55.232 L
330.5 53.5 L
S
GR
GS
[0.75 0 0 0.75 264.12289 51.7917] CT
/Helvetica 12 F
GS
[1 0 0 1 0 0] CT
0 5.018 moveto 
1 -1 scale
(Pressure Ratio Along A-C) t 
GR
GR
GS
[0.75 0 0 0.75 0 0] CT
0 0 1 RC
2 setlinecap
10.0 ML
N
326.94 71.06 M
326.94 67.94 L
330.06 67.94 L
330.06 71.06 L
326.94 71.06 L
S
GR
GS
[0.75 0 0 0.75 0 0] CT
0.149 GC
2 setlinecap
10.0 ML
N
300 79 M
300 44 L
494 44 L
494 79 L
300 79 L
S
GR
%%Trailer
%%Pages: 1
%%EOF
