%!PS-Adobe-3.0 EPSF-3.0
%%Creator: (MATLAB, The Mathworks, Inc. Version 8.4.0.150421 \(R2014b\). Operating System: Windows 8)
%%Title: (C:/Users/kartrmswy/Dropbox/F15/AE 510/HW5/HW5_xy.eps)
%%CreationDate: 2015-11-03T02:25:11
%%Pages: (atend)
%%BoundingBox: 0 0 420 315
%%LanguageLevel: 2
%%EndComments
%%BeginProlog
%%BeginResource: procset (Apache XML Graphics Std ProcSet) 1.2 0
%%Version: 1.2 0
%%Copyright: (Copyright 2001-2003,2010 The Apache Software Foundation. License terms: http://www.apache.org/licenses/LICENSE-2.0)
/bd{bind def}bind def
/ld{load def}bd
/GR/grestore ld
/M/moveto ld
/LJ/setlinejoin ld
/C/curveto ld
/f/fill ld
/LW/setlinewidth ld
/GC/setgray ld
/t/show ld
/N/newpath ld
/CT/concat ld
/cp/closepath ld
/S/stroke ld
/L/lineto ld
/CC/setcmykcolor ld
/A/ashow ld
/GS/gsave ld
/RC/setrgbcolor ld
/RM/rmoveto ld
/ML/setmiterlimit ld
/re {4 2 roll M
1 index 0 rlineto
0 exch rlineto
neg 0 rlineto
cp } bd
/_ctm matrix def
/_tm matrix def
/BT { _ctm currentmatrix pop matrix _tm copy pop 0 0 moveto } bd
/ET { _ctm setmatrix } bd
/iTm { _ctm setmatrix _tm concat } bd
/Tm { _tm astore pop iTm 0 0 moveto } bd
/ux 0.0 def
/uy 0.0 def
/F {
  /Tp exch def
  /Tf exch def
  Tf findfont Tp scalefont setfont
  /cf Tf def  /cs Tp def
} bd
/ULS {currentpoint /uy exch def /ux exch def} bd
/ULE {
  /Tcx currentpoint pop def
  gsave
  newpath
  cf findfont cs scalefont dup
  /FontMatrix get 0 get /Ts exch def /FontInfo get dup
  /UnderlinePosition get Ts mul /To exch def
  /UnderlineThickness get Ts mul /Tt exch def
  ux uy To add moveto  Tcx uy To add lineto
  Tt setlinewidth stroke
  grestore
} bd
/OLE {
  /Tcx currentpoint pop def
  gsave
  newpath
  cf findfont cs scalefont dup
  /FontMatrix get 0 get /Ts exch def /FontInfo get dup
  /UnderlinePosition get Ts mul /To exch def
  /UnderlineThickness get Ts mul /Tt exch def
  ux uy To add cs add moveto Tcx uy To add cs add lineto
  Tt setlinewidth stroke
  grestore
} bd
/SOE {
  /Tcx currentpoint pop def
  gsave
  newpath
  cf findfont cs scalefont dup
  /FontMatrix get 0 get /Ts exch def /FontInfo get dup
  /UnderlinePosition get Ts mul /To exch def
  /UnderlineThickness get Ts mul /Tt exch def
  ux uy To add cs 10 mul 26 idiv add moveto Tcx uy To add cs 10 mul 26 idiv add lineto
  Tt setlinewidth stroke
  grestore
} bd
/QT {
/Y22 exch store
/X22 exch store
/Y21 exch store
/X21 exch store
currentpoint
/Y21 load 2 mul add 3 div exch
/X21 load 2 mul add 3 div exch
/X21 load 2 mul /X22 load add 3 div
/Y21 load 2 mul /Y22 load add 3 div
/X22 load /Y22 load curveto
} bd
/SSPD {
dup length /d exch dict def
{
/v exch def
/k exch def
currentpagedevice k known {
/cpdv currentpagedevice k get def
v cpdv ne {
/upd false def
/nullv v type /nulltype eq def
/nullcpdv cpdv type /nulltype eq def
nullv nullcpdv or
{
/upd true def
} {
/sametype v type cpdv type eq def
sametype {
v type /arraytype eq {
/vlen v length def
/cpdvlen cpdv length def
vlen cpdvlen eq {
0 1 vlen 1 sub {
/i exch def
/obj v i get def
/cpdobj cpdv i get def
obj cpdobj ne {
/upd true def
exit
} if
} for
} {
/upd true def
} ifelse
} {
v type /dicttype eq {
v {
/dv exch def
/dk exch def
/cpddv cpdv dk get def
dv cpddv ne {
/upd true def
exit
} if
} forall
} {
/upd true def
} ifelse
} ifelse
} if
} ifelse
upd true eq {
d k v put
} if
} if
} if
} forall
d length 0 gt {
d setpagedevice
} if
} bd
%%EndResource
%%BeginResource: procset (Apache XML Graphics EPS ProcSet) 1.0 0
%%Version: 1.0 0
%%Copyright: (Copyright 2002-2003 The Apache Software Foundation. License terms: http://www.apache.org/licenses/LICENSE-2.0)
/BeginEPSF { %def
/b4_Inc_state save def         % Save state for cleanup
/dict_count countdictstack def % Count objects on dict stack
/op_count count 1 sub def      % Count objects on operand stack
userdict begin                 % Push userdict on dict stack
/showpage { } def              % Redefine showpage, { } = null proc
0 setgray 0 setlinecap         % Prepare graphics state
1 setlinewidth 0 setlinejoin
10 setmiterlimit [ ] 0 setdash newpath
/languagelevel where           % If level not equal to 1 then
{pop languagelevel             % set strokeadjust and
1 ne                           % overprint to their defaults.
{false setstrokeadjust false setoverprint
} if
} if
} bd
/EndEPSF { %def
count op_count sub {pop} repeat            % Clean up stacks
countdictstack dict_count sub {end} repeat
b4_Inc_state restore
} bd
%%EndResource
%FOPBeginFontDict
%%IncludeResource: font Courier-Bold
%%IncludeResource: font Helvetica
%%IncludeResource: font Courier-BoldOblique
%%IncludeResource: font Courier-Oblique
%%IncludeResource: font Times-Roman
%%IncludeResource: font Helvetica-BoldOblique
%%IncludeResource: font Helvetica-Bold
%%IncludeResource: font Helvetica-Oblique
%%IncludeResource: font Times-BoldItalic
%%IncludeResource: font Courier
%%IncludeResource: font Times-Italic
%%IncludeResource: font Times-Bold
%%IncludeResource: font Symbol
%%IncludeResource: font ZapfDingbats
%FOPEndFontDict
%%BeginResource: encoding WinAnsiEncoding
/WinAnsiEncoding [
/.notdef /.notdef /.notdef /.notdef /.notdef
/.notdef /.notdef /.notdef /.notdef /.notdef
/.notdef /.notdef /.notdef /.notdef /.notdef
/.notdef /.notdef /.notdef /.notdef /.notdef
/.notdef /.notdef /.notdef /.notdef /.notdef
/.notdef /.notdef /.notdef /.notdef /.notdef
/.notdef /.notdef /space /exclam /quotedbl
/numbersign /dollar /percent /ampersand /quotesingle
/parenleft /parenright /asterisk /plus /comma
/hyphen /period /slash /zero /one
/two /three /four /five /six
/seven /eight /nine /colon /semicolon
/less /equal /greater /question /at
/A /B /C /D /E
/F /G /H /I /J
/K /L /M /N /O
/P /Q /R /S /T
/U /V /W /X /Y
/Z /bracketleft /backslash /bracketright /asciicircum
/underscore /quoteleft /a /b /c
/d /e /f /g /h
/i /j /k /l /m
/n /o /p /q /r
/s /t /u /v /w
/x /y /z /braceleft /bar
/braceright /asciitilde /bullet /Euro /bullet
/quotesinglbase /florin /quotedblbase /ellipsis /dagger
/daggerdbl /circumflex /perthousand /Scaron /guilsinglleft
/OE /bullet /Zcaron /bullet /bullet
/quoteleft /quoteright /quotedblleft /quotedblright /bullet
/endash /emdash /asciitilde /trademark /scaron
/guilsinglright /oe /bullet /zcaron /Ydieresis
/space /exclamdown /cent /sterling /currency
/yen /brokenbar /section /dieresis /copyright
/ordfeminine /guillemotleft /logicalnot /sfthyphen /registered
/macron /degree /plusminus /twosuperior /threesuperior
/acute /mu /paragraph /middot /cedilla
/onesuperior /ordmasculine /guillemotright /onequarter /onehalf
/threequarters /questiondown /Agrave /Aacute /Acircumflex
/Atilde /Adieresis /Aring /AE /Ccedilla
/Egrave /Eacute /Ecircumflex /Edieresis /Igrave
/Iacute /Icircumflex /Idieresis /Eth /Ntilde
/Ograve /Oacute /Ocircumflex /Otilde /Odieresis
/multiply /Oslash /Ugrave /Uacute /Ucircumflex
/Udieresis /Yacute /Thorn /germandbls /agrave
/aacute /acircumflex /atilde /adieresis /aring
/ae /ccedilla /egrave /eacute /ecircumflex
/edieresis /igrave /iacute /icircumflex /idieresis
/eth /ntilde /ograve /oacute /ocircumflex
/otilde /odieresis /divide /oslash /ugrave
/uacute /ucircumflex /udieresis /yacute /thorn
/ydieresis
] def
%%EndResource
%FOPBeginFontReencode
/Courier-Bold findfont
dup length dict begin
  {1 index /FID ne {def} {pop pop} ifelse} forall
  /Encoding WinAnsiEncoding def
  currentdict
end
/Courier-Bold exch definefont pop
/Helvetica findfont
dup length dict begin
  {1 index /FID ne {def} {pop pop} ifelse} forall
  /Encoding WinAnsiEncoding def
  currentdict
end
/Helvetica exch definefont pop
/Courier-BoldOblique findfont
dup length dict begin
  {1 index /FID ne {def} {pop pop} ifelse} forall
  /Encoding WinAnsiEncoding def
  currentdict
end
/Courier-BoldOblique exch definefont pop
/Courier-Oblique findfont
dup length dict begin
  {1 index /FID ne {def} {pop pop} ifelse} forall
  /Encoding WinAnsiEncoding def
  currentdict
end
/Courier-Oblique exch definefont pop
/Times-Roman findfont
dup length dict begin
  {1 index /FID ne {def} {pop pop} ifelse} forall
  /Encoding WinAnsiEncoding def
  currentdict
end
/Times-Roman exch definefont pop
/Helvetica-BoldOblique findfont
dup length dict begin
  {1 index /FID ne {def} {pop pop} ifelse} forall
  /Encoding WinAnsiEncoding def
  currentdict
end
/Helvetica-BoldOblique exch definefont pop
/Helvetica-Bold findfont
dup length dict begin
  {1 index /FID ne {def} {pop pop} ifelse} forall
  /Encoding WinAnsiEncoding def
  currentdict
end
/Helvetica-Bold exch definefont pop
/Helvetica-Oblique findfont
dup length dict begin
  {1 index /FID ne {def} {pop pop} ifelse} forall
  /Encoding WinAnsiEncoding def
  currentdict
end
/Helvetica-Oblique exch definefont pop
/Times-BoldItalic findfont
dup length dict begin
  {1 index /FID ne {def} {pop pop} ifelse} forall
  /Encoding WinAnsiEncoding def
  currentdict
end
/Times-BoldItalic exch definefont pop
/Courier findfont
dup length dict begin
  {1 index /FID ne {def} {pop pop} ifelse} forall
  /Encoding WinAnsiEncoding def
  currentdict
end
/Courier exch definefont pop
/Times-Italic findfont
dup length dict begin
  {1 index /FID ne {def} {pop pop} ifelse} forall
  /Encoding WinAnsiEncoding def
  currentdict
end
/Times-Italic exch definefont pop
/Times-Bold findfont
dup length dict begin
  {1 index /FID ne {def} {pop pop} ifelse} forall
  /Encoding WinAnsiEncoding def
  currentdict
end
/Times-Bold exch definefont pop
%FOPEndFontReencode
%%EndProlog
%%Page: 1 1
%%PageBoundingBox: 0 0 420 315
%%BeginPageSetup
[1 0 0 -1 0 315] CT
%%EndPageSetup
GS
[0.75 0 0 0.75 0 0] CT
1 GC
N
0 0 560 420 re
f
GR
GS
[0.75 0 0 0.75 0 0] CT
1 GC
N
0 0 560 420 re
f
GR
GS
[0.75 0 0 0.75 0 0] CT
1 GC
N
73 361 M
507 361 L
507 31 L
73 31 L
cp
f
GR
GS
[0.75 0 0 0.75 0 0] CT
0.873 GC
2 setlinecap
10.0 ML
N
110.2 361 M
110.2 31 L
S
GR
GS
[0.75 0 0 0.75 0 0] CT
0.873 GC
2 setlinecap
10.0 ML
N
159.8 361 M
159.8 31 L
S
GR
GS
[0.75 0 0 0.75 0 0] CT
0.873 GC
2 setlinecap
10.0 ML
N
209.4 361 M
209.4 31 L
S
GR
GS
[0.75 0 0 0.75 0 0] CT
0.873 GC
2 setlinecap
10.0 ML
N
259 361 M
259 31 L
S
GR
GS
[0.75 0 0 0.75 0 0] CT
0.873 GC
2 setlinecap
10.0 ML
N
308.6 361 M
308.6 31 L
S
GR
GS
[0.75 0 0 0.75 0 0] CT
0.873 GC
2 setlinecap
10.0 ML
N
358.2 361 M
358.2 31 L
S
GR
GS
[0.75 0 0 0.75 0 0] CT
0.873 GC
2 setlinecap
10.0 ML
N
407.8 361 M
407.8 31 L
S
GR
GS
[0.75 0 0 0.75 0 0] CT
0.873 GC
2 setlinecap
10.0 ML
N
457.4 361 M
457.4 31 L
S
GR
GS
[0.75 0 0 0.75 0 0] CT
0.873 GC
2 setlinecap
10.0 ML
N
507 361 M
507 31 L
S
GR
GS
[0.75 0 0 0.75 0 0] CT
0.873 GC
2 setlinecap
10.0 ML
N
507 361 M
73 361 L
S
GR
GS
[0.75 0 0 0.75 0 0] CT
0.873 GC
2 setlinecap
10.0 ML
N
507 301 M
73 301 L
S
GR
GS
[0.75 0 0 0.75 0 0] CT
0.873 GC
2 setlinecap
10.0 ML
N
507 241 M
73 241 L
S
GR
GS
[0.75 0 0 0.75 0 0] CT
0.873 GC
2 setlinecap
10.0 ML
N
507 181 M
73 181 L
S
GR
GS
[0.75 0 0 0.75 0 0] CT
0.873 GC
2 setlinecap
10.0 ML
N
507 121 M
73 121 L
S
GR
GS
[0.75 0 0 0.75 0 0] CT
0.873 GC
2 setlinecap
10.0 ML
N
507 61 M
73 61 L
S
GR
GS
[0.75 0 0 0.75 217.5 287.26366] CT
0.149 GC
/Times-Roman-Italic 33 F
GS
[1 0 0 1 0 0] CT
-7.323 30.108 moveto 
1 -1 scale
(x) t 
GR
GR
GS
[0.75 0 0 0.75 0 0] CT
0.149 GC
2 setlinecap
10.0 ML
N
73 361 M
507 361 L
S
GR
GS
[0.75 0 0 0.75 0 0] CT
0.149 GC
2 setlinecap
10.0 ML
N
73 31 M
507 31 L
S
GR
GS
[0.75 0 0 0.75 0 0] CT
0.149 GC
2 setlinecap
10.0 ML
N
110.2 361 M
110.2 356.66 L
S
GR
GS
[0.75 0 0 0.75 0 0] CT
0.149 GC
2 setlinecap
10.0 ML
N
110.2 31 M
110.2 35.34 L
S
GR
GS
[0.75 0 0 0.75 0 0] CT
0.149 GC
2 setlinecap
10.0 ML
N
159.8 361 M
159.8 356.66 L
S
GR
GS
[0.75 0 0 0.75 0 0] CT
0.149 GC
2 setlinecap
10.0 ML
N
159.8 31 M
159.8 35.34 L
S
GR
GS
[0.75 0 0 0.75 0 0] CT
0.149 GC
2 setlinecap
10.0 ML
N
209.4 361 M
209.4 356.66 L
S
GR
GS
[0.75 0 0 0.75 0 0] CT
0.149 GC
2 setlinecap
10.0 ML
N
209.4 31 M
209.4 35.34 L
S
GR
GS
[0.75 0 0 0.75 0 0] CT
0.149 GC
2 setlinecap
10.0 ML
N
259 361 M
259 356.66 L
S
GR
GS
[0.75 0 0 0.75 0 0] CT
0.149 GC
2 setlinecap
10.0 ML
N
259 31 M
259 35.34 L
S
GR
GS
[0.75 0 0 0.75 0 0] CT
0.149 GC
2 setlinecap
10.0 ML
N
308.6 361 M
308.6 356.66 L
S
GR
GS
[0.75 0 0 0.75 0 0] CT
0.149 GC
2 setlinecap
10.0 ML
N
308.6 31 M
308.6 35.34 L
S
GR
GS
[0.75 0 0 0.75 0 0] CT
0.149 GC
2 setlinecap
10.0 ML
N
358.2 361 M
358.2 356.66 L
S
GR
GS
[0.75 0 0 0.75 0 0] CT
0.149 GC
2 setlinecap
10.0 ML
N
358.2 31 M
358.2 35.34 L
S
GR
GS
[0.75 0 0 0.75 0 0] CT
0.149 GC
2 setlinecap
10.0 ML
N
407.8 361 M
407.8 356.66 L
S
GR
GS
[0.75 0 0 0.75 0 0] CT
0.149 GC
2 setlinecap
10.0 ML
N
407.8 31 M
407.8 35.34 L
S
GR
GS
[0.75 0 0 0.75 0 0] CT
0.149 GC
2 setlinecap
10.0 ML
N
457.4 361 M
457.4 356.66 L
S
GR
GS
[0.75 0 0 0.75 0 0] CT
0.149 GC
2 setlinecap
10.0 ML
N
457.4 31 M
457.4 35.34 L
S
GR
GS
[0.75 0 0 0.75 0 0] CT
0.149 GC
2 setlinecap
10.0 ML
N
507 361 M
507 356.66 L
S
GR
GS
[0.75 0 0 0.75 0 0] CT
0.149 GC
2 setlinecap
10.0 ML
N
507 31 M
507 35.34 L
S
GR
GS
[0.75 0 0 0.75 82.65 274.75001] CT
0.149 GC
/Helvetica 13 F
GS
[1 0 0 1 0 0] CT
-9.036 13.07 moveto 
1 -1 scale
(0.4) t 
GR
GR
GS
[0.75 0 0 0.75 119.85 274.75001] CT
0.149 GC
/Helvetica 13 F
GS
[1 0 0 1 0 0] CT
-9.036 13.07 moveto 
1 -1 scale
(0.6) t 
GR
GR
GS
[0.75 0 0 0.75 157.05001 274.75001] CT
0.149 GC
/Helvetica 13 F
GS
[1 0 0 1 0 0] CT
-9.036 13.07 moveto 
1 -1 scale
(0.8) t 
GR
GR
GS
[0.75 0 0 0.75 194.25 274.75001] CT
0.149 GC
/Helvetica 13 F
GS
[1 0 0 1 0 0] CT
-3.615 13.07 moveto 
1 -1 scale
(1) t 
GR
GR
GS
[0.75 0 0 0.75 231.45 274.75001] CT
0.149 GC
/Helvetica 13 F
GS
[1 0 0 1 0 0] CT
-9.036 13.07 moveto 
1 -1 scale
(1.2) t 
GR
GR
GS
[0.75 0 0 0.75 268.64999 274.75001] CT
0.149 GC
/Helvetica 13 F
GS
[1 0 0 1 0 0] CT
-9.036 13.07 moveto 
1 -1 scale
(1.4) t 
GR
GR
GS
[0.75 0 0 0.75 305.85001 274.75001] CT
0.149 GC
/Helvetica 13 F
GS
[1 0 0 1 0 0] CT
-9.036 13.07 moveto 
1 -1 scale
(1.6) t 
GR
GR
GS
[0.75 0 0 0.75 343.05 274.75001] CT
0.149 GC
/Helvetica 13 F
GS
[1 0 0 1 0 0] CT
-9.036 13.07 moveto 
1 -1 scale
(1.8) t 
GR
GR
GS
[0.75 0 0 0.75 380.25 274.75001] CT
0.149 GC
/Helvetica 13 F
GS
[1 0 0 1 0 0] CT
-3.615 13.07 moveto 
1 -1 scale
(2) t 
GR
GR
GS
[0 -0.75 0.75 0 34.19617 147] CT
0.149 GC
/Times-Roman-Italic 33 F
GS
[1 0 0 1 0 0] CT
-7.323 -6.839 moveto 
1 -1 scale
(y) t 
GR
GR
GS
[0.75 0 0 0.75 0 0] CT
0.149 GC
2 setlinecap
10.0 ML
N
73 361 M
73 31 L
S
GR
GS
[0.75 0 0 0.75 0 0] CT
0.149 GC
2 setlinecap
10.0 ML
N
507 361 M
507 31 L
S
GR
GS
[0.75 0 0 0.75 0 0] CT
0.149 GC
2 setlinecap
10.0 ML
N
73 361 M
77.34 361 L
S
GR
GS
[0.75 0 0 0.75 0 0] CT
0.149 GC
2 setlinecap
10.0 ML
N
507 361 M
502.66 361 L
S
GR
GS
[0.75 0 0 0.75 0 0] CT
0.149 GC
2 setlinecap
10.0 ML
N
73 301 M
77.34 301 L
S
GR
GS
[0.75 0 0 0.75 0 0] CT
0.149 GC
2 setlinecap
10.0 ML
N
507 301 M
502.66 301 L
S
GR
GS
[0.75 0 0 0.75 0 0] CT
0.149 GC
2 setlinecap
10.0 ML
N
73 241 M
77.34 241 L
S
GR
GS
[0.75 0 0 0.75 0 0] CT
0.149 GC
2 setlinecap
10.0 ML
N
507 241 M
502.66 241 L
S
GR
GS
[0.75 0 0 0.75 0 0] CT
0.149 GC
2 setlinecap
10.0 ML
N
73 181 M
77.34 181 L
S
GR
GS
[0.75 0 0 0.75 0 0] CT
0.149 GC
2 setlinecap
10.0 ML
N
507 181 M
502.66 181 L
S
GR
GS
[0.75 0 0 0.75 0 0] CT
0.149 GC
2 setlinecap
10.0 ML
N
73 121 M
77.34 121 L
S
GR
GS
[0.75 0 0 0.75 0 0] CT
0.149 GC
2 setlinecap
10.0 ML
N
507 121 M
502.66 121 L
S
GR
GS
[0.75 0 0 0.75 0 0] CT
0.149 GC
2 setlinecap
10.0 ML
N
73 61 M
77.34 61 L
S
GR
GS
[0.75 0 0 0.75 0 0] CT
0.149 GC
2 setlinecap
10.0 ML
N
507 61 M
502.66 61 L
S
GR
GS
[0.75 0 0 0.75 50.75 270.75] CT
0.149 GC
/Helvetica 13 F
GS
[1 0 0 1 0 0] CT
-7.23 5.394 moveto 
1 -1 scale
(0) t 
GR
GR
GS
[0.75 0 0 0.75 50.75 225.75] CT
0.149 GC
/Helvetica 13 F
GS
[1 0 0 1 0 0] CT
-18.072 5.394 moveto 
1 -1 scale
(0.2) t 
GR
GR
GS
[0.75 0 0 0.75 50.75 180.75] CT
0.149 GC
/Helvetica 13 F
GS
[1 0 0 1 0 0] CT
-18.072 5.394 moveto 
1 -1 scale
(0.4) t 
GR
GR
GS
[0.75 0 0 0.75 50.75 135.75] CT
0.149 GC
/Helvetica 13 F
GS
[1 0 0 1 0 0] CT
-18.072 5.394 moveto 
1 -1 scale
(0.6) t 
GR
GR
GS
[0.75 0 0 0.75 50.75 90.75] CT
0.149 GC
/Helvetica 13 F
GS
[1 0 0 1 0 0] CT
-18.072 5.394 moveto 
1 -1 scale
(0.8) t 
GR
GR
GS
[0.75 0 0 0.75 50.75 45.75] CT
0.149 GC
/Helvetica 13 F
GS
[1 0 0 1 0 0] CT
-7.23 5.394 moveto 
1 -1 scale
(1) t 
GR
GR
GS
[0.75 0 0 0.75 0 0] CT
2 setlinecap
10.0 ML
N
75.5 360.5 M
74.5 358.768 L
72.5 358.768 L
71.5 360.5 L
72.5 362.232 L
74.5 362.232 L
75.5 360.5 L
S
GR
GS
[0.75 0 0 0.75 0 0] CT
2 setlinecap
10.0 ML
N
75.5 346.5 M
74.5 344.768 L
72.5 344.768 L
71.5 346.5 L
72.5 348.232 L
74.5 348.232 L
75.5 346.5 L
S
GR
GS
[0.75 0 0 0.75 0 0] CT
2 setlinecap
10.0 ML
N
75.5 330.5 M
74.5 328.768 L
72.5 328.768 L
71.5 330.5 L
72.5 332.232 L
74.5 332.232 L
75.5 330.5 L
S
GR
GS
[0.75 0 0 0.75 0 0] CT
2 setlinecap
10.0 ML
N
75.5 315.5 M
74.5 313.768 L
72.5 313.768 L
71.5 315.5 L
72.5 317.232 L
74.5 317.232 L
75.5 315.5 L
S
GR
GS
[0.75 0 0 0.75 0 0] CT
2 setlinecap
10.0 ML
N
75.5 300.5 M
74.5 298.768 L
72.5 298.768 L
71.5 300.5 L
72.5 302.232 L
74.5 302.232 L
75.5 300.5 L
S
GR
GS
[0.75 0 0 0.75 0 0] CT
2 setlinecap
10.0 ML
N
75.5 286.5 M
74.5 284.768 L
72.5 284.768 L
71.5 286.5 L
72.5 288.232 L
74.5 288.232 L
75.5 286.5 L
S
GR
GS
[0.75 0 0 0.75 0 0] CT
2 setlinecap
10.0 ML
N
75.5 270.5 M
74.5 268.768 L
72.5 268.768 L
71.5 270.5 L
72.5 272.232 L
74.5 272.232 L
75.5 270.5 L
S
GR
GS
[0.75 0 0 0.75 0 0] CT
2 setlinecap
10.0 ML
N
75.5 256.5 M
74.5 254.768 L
72.5 254.768 L
71.5 256.5 L
72.5 258.232 L
74.5 258.232 L
75.5 256.5 L
S
GR
GS
[0.75 0 0 0.75 0 0] CT
2 setlinecap
10.0 ML
N
75.5 240.5 M
74.5 238.768 L
72.5 238.768 L
71.5 240.5 L
72.5 242.232 L
74.5 242.232 L
75.5 240.5 L
S
GR
GS
[0.75 0 0 0.75 0 0] CT
2 setlinecap
10.0 ML
N
75.5 226.5 M
74.5 224.768 L
72.5 224.768 L
71.5 226.5 L
72.5 228.232 L
74.5 228.232 L
75.5 226.5 L
S
GR
GS
[0.75 0 0 0.75 0 0] CT
2 setlinecap
10.0 ML
N
75.5 211.5 M
74.5 209.768 L
72.5 209.768 L
71.5 211.5 L
72.5 213.232 L
74.5 213.232 L
75.5 211.5 L
S
GR
GS
[0.75 0 0 0.75 0 0] CT
2 setlinecap
10.0 ML
N
75.5 195.5 M
74.5 193.768 L
72.5 193.768 L
71.5 195.5 L
72.5 197.232 L
74.5 197.232 L
75.5 195.5 L
S
GR
GS
[0.75 0 0 0.75 0 0] CT
2 setlinecap
10.0 ML
N
75.5 180.5 M
74.5 178.768 L
72.5 178.768 L
71.5 180.5 L
72.5 182.232 L
74.5 182.232 L
75.5 180.5 L
S
GR
GS
[0.75 0 0 0.75 0 0] CT
2 setlinecap
10.0 ML
N
75.5 166.5 M
74.5 164.768 L
72.5 164.768 L
71.5 166.5 L
72.5 168.232 L
74.5 168.232 L
75.5 166.5 L
S
GR
GS
[0.75 0 0 0.75 0 0] CT
2 setlinecap
10.0 ML
N
75.5 151.5 M
74.5 149.768 L
72.5 149.768 L
71.5 151.5 L
72.5 153.232 L
74.5 153.232 L
75.5 151.5 L
S
GR
GS
[0.75 0 0 0.75 0 0] CT
2 setlinecap
10.0 ML
N
75.5 135.5 M
74.5 133.768 L
72.5 133.768 L
71.5 135.5 L
72.5 137.232 L
74.5 137.232 L
75.5 135.5 L
S
GR
GS
[0.75 0 0 0.75 0 0] CT
2 setlinecap
10.0 ML
N
75.5 120.5 M
74.5 118.768 L
72.5 118.768 L
71.5 120.5 L
72.5 122.232 L
74.5 122.232 L
75.5 120.5 L
S
GR
GS
[0.75 0 0 0.75 0 0] CT
2 setlinecap
10.0 ML
N
75.5 105.5 M
74.5 103.768 L
72.5 103.768 L
71.5 105.5 L
72.5 107.232 L
74.5 107.232 L
75.5 105.5 L
S
GR
GS
[0.75 0 0 0.75 0 0] CT
2 setlinecap
10.0 ML
N
75.5 91.5 M
74.5 89.768 L
72.5 89.768 L
71.5 91.5 L
72.5 93.232 L
74.5 93.232 L
75.5 91.5 L
S
GR
GS
[0.75 0 0 0.75 0 0] CT
2 setlinecap
10.0 ML
N
75.5 73.5 M
74.5 71.768 L
72.5 71.768 L
71.5 73.5 L
72.5 75.232 L
74.5 75.232 L
75.5 73.5 L
S
GR
GS
[0.75 0 0 0.75 0 0] CT
2 setlinecap
10.0 ML
N
75.5 56.5 M
74.5 54.768 L
72.5 54.768 L
71.5 56.5 L
72.5 58.232 L
74.5 58.232 L
75.5 56.5 L
S
GR
GS
[0.75 0 0 0.75 0 0] CT
2 setlinecap
10.0 ML
N
77.5 353.5 M
76.5 351.768 L
74.5 351.768 L
73.5 353.5 L
74.5 355.232 L
76.5 355.232 L
77.5 353.5 L
S
GR
GS
[0.75 0 0 0.75 0 0] CT
2 setlinecap
10.0 ML
N
77.5 338.5 M
76.5 336.768 L
74.5 336.768 L
73.5 338.5 L
74.5 340.232 L
76.5 340.232 L
77.5 338.5 L
S
GR
GS
[0.75 0 0 0.75 0 0] CT
2 setlinecap
10.0 ML
N
77.5 323.5 M
76.5 321.768 L
74.5 321.768 L
73.5 323.5 L
74.5 325.232 L
76.5 325.232 L
77.5 323.5 L
S
GR
GS
[0.75 0 0 0.75 0 0] CT
2 setlinecap
10.0 ML
N
77.5 308.5 M
76.5 306.768 L
74.5 306.768 L
73.5 308.5 L
74.5 310.232 L
76.5 310.232 L
77.5 308.5 L
S
GR
GS
[0.75 0 0 0.75 0 0] CT
2 setlinecap
10.0 ML
N
77.5 293.5 M
76.5 291.768 L
74.5 291.768 L
73.5 293.5 L
74.5 295.232 L
76.5 295.232 L
77.5 293.5 L
S
GR
GS
[0.75 0 0 0.75 0 0] CT
2 setlinecap
10.0 ML
N
77.5 278.5 M
76.5 276.768 L
74.5 276.768 L
73.5 278.5 L
74.5 280.232 L
76.5 280.232 L
77.5 278.5 L
S
GR
GS
[0.75 0 0 0.75 0 0] CT
2 setlinecap
10.0 ML
N
77.5 263.5 M
76.5 261.768 L
74.5 261.768 L
73.5 263.5 L
74.5 265.232 L
76.5 265.232 L
77.5 263.5 L
S
GR
GS
[0.75 0 0 0.75 0 0] CT
2 setlinecap
10.0 ML
N
77.5 248.5 M
76.5 246.768 L
74.5 246.768 L
73.5 248.5 L
74.5 250.232 L
76.5 250.232 L
77.5 248.5 L
S
GR
GS
[0.75 0 0 0.75 0 0] CT
2 setlinecap
10.0 ML
N
77.5 233.5 M
76.5 231.768 L
74.5 231.768 L
73.5 233.5 L
74.5 235.232 L
76.5 235.232 L
77.5 233.5 L
S
GR
GS
[0.75 0 0 0.75 0 0] CT
2 setlinecap
10.0 ML
N
77.5 218.5 M
76.5 216.768 L
74.5 216.768 L
73.5 218.5 L
74.5 220.232 L
76.5 220.232 L
77.5 218.5 L
S
GR
GS
[0.75 0 0 0.75 0 0] CT
2 setlinecap
10.0 ML
N
78.5 202.5 M
77.5 200.768 L
75.5 200.768 L
74.5 202.5 L
75.5 204.232 L
77.5 204.232 L
78.5 202.5 L
S
GR
GS
[0.75 0 0 0.75 0 0] CT
2 setlinecap
10.0 ML
N
78.5 187.5 M
77.5 185.768 L
75.5 185.768 L
74.5 187.5 L
75.5 189.232 L
77.5 189.232 L
78.5 187.5 L
S
GR
GS
[0.75 0 0 0.75 0 0] CT
2 setlinecap
10.0 ML
N
78.5 172.5 M
77.5 170.768 L
75.5 170.768 L
74.5 172.5 L
75.5 174.232 L
77.5 174.232 L
78.5 172.5 L
S
GR
GS
[0.75 0 0 0.75 0 0] CT
2 setlinecap
10.0 ML
N
78.5 157.5 M
77.5 155.768 L
75.5 155.768 L
74.5 157.5 L
75.5 159.232 L
77.5 159.232 L
78.5 157.5 L
S
GR
GS
[0.75 0 0 0.75 0 0] CT
2 setlinecap
10.0 ML
N
79.5 142.5 M
78.5 140.768 L
76.5 140.768 L
75.5 142.5 L
76.5 144.232 L
78.5 144.232 L
79.5 142.5 L
S
GR
GS
[0.75 0 0 0.75 0 0] CT
2 setlinecap
10.0 ML
N
79.5 127.5 M
78.5 125.768 L
76.5 125.768 L
75.5 127.5 L
76.5 129.232 L
78.5 129.232 L
79.5 127.5 L
S
GR
GS
[0.75 0 0 0.75 0 0] CT
2 setlinecap
10.0 ML
N
79.5 112.5 M
78.5 110.768 L
76.5 110.768 L
75.5 112.5 L
76.5 114.232 L
78.5 114.232 L
79.5 112.5 L
S
GR
GS
[0.75 0 0 0.75 0 0] CT
2 setlinecap
10.0 ML
N
79.5 97.5 M
78.5 95.768 L
76.5 95.768 L
75.5 97.5 L
76.5 99.232 L
78.5 99.232 L
79.5 97.5 L
S
GR
GS
[0.75 0 0 0.75 0 0] CT
2 setlinecap
10.0 ML
N
81.5 80.5 M
80.5 78.768 L
78.5 78.768 L
77.5 80.5 L
78.5 82.232 L
80.5 82.232 L
81.5 80.5 L
S
GR
GS
[0.75 0 0 0.75 0 0] CT
2 setlinecap
10.0 ML
N
81.5 62.5 M
80.5 60.768 L
78.5 60.768 L
77.5 62.5 L
78.5 64.232 L
80.5 64.232 L
81.5 62.5 L
S
GR
GS
[0.75 0 0 0.75 0 0] CT
2 setlinecap
10.0 ML
N
79.5 360.5 M
78.5 358.768 L
76.5 358.768 L
75.5 360.5 L
76.5 362.232 L
78.5 362.232 L
79.5 360.5 L
S
GR
GS
[0.75 0 0 0.75 0 0] CT
2 setlinecap
10.0 ML
N
79.5 345.5 M
78.5 343.768 L
76.5 343.768 L
75.5 345.5 L
76.5 347.232 L
78.5 347.232 L
79.5 345.5 L
S
GR
GS
[0.75 0 0 0.75 0 0] CT
2 setlinecap
10.0 ML
N
79.5 330.5 M
78.5 328.768 L
76.5 328.768 L
75.5 330.5 L
76.5 332.232 L
78.5 332.232 L
79.5 330.5 L
S
GR
GS
[0.75 0 0 0.75 0 0] CT
2 setlinecap
10.0 ML
N
79.5 315.5 M
78.5 313.768 L
76.5 313.768 L
75.5 315.5 L
76.5 317.232 L
78.5 317.232 L
79.5 315.5 L
S
GR
GS
[0.75 0 0 0.75 0 0] CT
2 setlinecap
10.0 ML
N
79.5 300.5 M
78.5 298.768 L
76.5 298.768 L
75.5 300.5 L
76.5 302.232 L
78.5 302.232 L
79.5 300.5 L
S
GR
GS
[0.75 0 0 0.75 0 0] CT
2 setlinecap
10.0 ML
N
79.5 285.5 M
78.5 283.768 L
76.5 283.768 L
75.5 285.5 L
76.5 287.232 L
78.5 287.232 L
79.5 285.5 L
S
GR
GS
[0.75 0 0 0.75 0 0] CT
2 setlinecap
10.0 ML
N
79.5 270.5 M
78.5 268.768 L
76.5 268.768 L
75.5 270.5 L
76.5 272.232 L
78.5 272.232 L
79.5 270.5 L
S
GR
GS
[0.75 0 0 0.75 0 0] CT
2 setlinecap
10.0 ML
N
80.5 255.5 M
79.5 253.768 L
77.5 253.768 L
76.5 255.5 L
77.5 257.232 L
79.5 257.232 L
80.5 255.5 L
S
GR
GS
[0.75 0 0 0.75 0 0] CT
2 setlinecap
10.0 ML
N
80.5 239.5 M
79.5 237.768 L
77.5 237.768 L
76.5 239.5 L
77.5 241.232 L
79.5 241.232 L
80.5 239.5 L
S
GR
GS
[0.75 0 0 0.75 0 0] CT
2 setlinecap
10.0 ML
N
80.5 224.5 M
79.5 222.768 L
77.5 222.768 L
76.5 224.5 L
77.5 226.232 L
79.5 226.232 L
80.5 224.5 L
S
GR
GS
[0.75 0 0 0.75 0 0] CT
2 setlinecap
10.0 ML
N
81.5 209.5 M
80.5 207.768 L
78.5 207.768 L
77.5 209.5 L
78.5 211.232 L
80.5 211.232 L
81.5 209.5 L
S
GR
GS
[0.75 0 0 0.75 0 0] CT
2 setlinecap
10.0 ML
N
81.5 194.5 M
80.5 192.768 L
78.5 192.768 L
77.5 194.5 L
78.5 196.232 L
80.5 196.232 L
81.5 194.5 L
S
GR
GS
[0.75 0 0 0.75 0 0] CT
2 setlinecap
10.0 ML
N
81.5 179.5 M
80.5 177.768 L
78.5 177.768 L
77.5 179.5 L
78.5 181.232 L
80.5 181.232 L
81.5 179.5 L
S
GR
GS
[0.75 0 0 0.75 0 0] CT
2 setlinecap
10.0 ML
N
82.5 164.5 M
81.5 162.768 L
79.5 162.768 L
78.5 164.5 L
79.5 166.232 L
81.5 166.232 L
82.5 164.5 L
S
GR
GS
[0.75 0 0 0.75 0 0] CT
2 setlinecap
10.0 ML
N
82.5 148.5 M
81.5 146.768 L
79.5 146.768 L
78.5 148.5 L
79.5 150.232 L
81.5 150.232 L
82.5 148.5 L
S
GR
GS
[0.75 0 0 0.75 0 0] CT
2 setlinecap
10.0 ML
N
83.5 133.5 M
82.5 131.768 L
80.5 131.768 L
79.5 133.5 L
80.5 135.232 L
82.5 135.232 L
83.5 133.5 L
S
GR
GS
[0.75 0 0 0.75 0 0] CT
2 setlinecap
10.0 ML
N
84.5 118.5 M
83.5 116.768 L
81.5 116.768 L
80.5 118.5 L
81.5 120.232 L
83.5 120.232 L
84.5 118.5 L
S
GR
GS
[0.75 0 0 0.75 0 0] CT
2 setlinecap
10.0 ML
N
84.5 103.5 M
83.5 101.768 L
81.5 101.768 L
80.5 103.5 L
81.5 105.232 L
83.5 105.232 L
84.5 103.5 L
S
GR
GS
[0.75 0 0 0.75 0 0] CT
2 setlinecap
10.0 ML
N
86.5 85.5 M
85.5 83.768 L
83.5 83.768 L
82.5 85.5 L
83.5 87.232 L
85.5 87.232 L
86.5 85.5 L
S
GR
GS
[0.75 0 0 0.75 0 0] CT
2 setlinecap
10.0 ML
N
88.5 68.5 M
87.5 66.768 L
85.5 66.768 L
84.5 68.5 L
85.5 70.232 L
87.5 70.232 L
88.5 68.5 L
S
GR
GS
[0.75 0 0 0.75 0 0] CT
2 setlinecap
10.0 ML
N
81.5 353.5 M
80.5 351.768 L
78.5 351.768 L
77.5 353.5 L
78.5 355.232 L
80.5 355.232 L
81.5 353.5 L
S
GR
GS
[0.75 0 0 0.75 0 0] CT
2 setlinecap
10.0 ML
N
81.5 338.5 M
80.5 336.768 L
78.5 336.768 L
77.5 338.5 L
78.5 340.232 L
80.5 340.232 L
81.5 338.5 L
S
GR
GS
[0.75 0 0 0.75 0 0] CT
2 setlinecap
10.0 ML
N
81.5 322.5 M
80.5 320.768 L
78.5 320.768 L
77.5 322.5 L
78.5 324.232 L
80.5 324.232 L
81.5 322.5 L
S
GR
GS
[0.75 0 0 0.75 0 0] CT
2 setlinecap
10.0 ML
N
81.5 307.5 M
80.5 305.768 L
78.5 305.768 L
77.5 307.5 L
78.5 309.232 L
80.5 309.232 L
81.5 307.5 L
S
GR
GS
[0.75 0 0 0.75 0 0] CT
2 setlinecap
10.0 ML
N
82.5 292.5 M
81.5 290.768 L
79.5 290.768 L
78.5 292.5 L
79.5 294.232 L
81.5 294.232 L
82.5 292.5 L
S
GR
GS
[0.75 0 0 0.75 0 0] CT
2 setlinecap
10.0 ML
N
82.5 277.5 M
81.5 275.768 L
79.5 275.768 L
78.5 277.5 L
79.5 279.232 L
81.5 279.232 L
82.5 277.5 L
S
GR
GS
[0.75 0 0 0.75 0 0] CT
2 setlinecap
10.0 ML
N
82.5 261.5 M
81.5 259.768 L
79.5 259.768 L
78.5 261.5 L
79.5 263.232 L
81.5 263.232 L
82.5 261.5 L
S
GR
GS
[0.75 0 0 0.75 0 0] CT
2 setlinecap
10.0 ML
N
83.5 246.5 M
82.5 244.768 L
80.5 244.768 L
79.5 246.5 L
80.5 248.232 L
82.5 248.232 L
83.5 246.5 L
S
GR
GS
[0.75 0 0 0.75 0 0] CT
2 setlinecap
10.0 ML
N
83.5 231.5 M
82.5 229.768 L
80.5 229.768 L
79.5 231.5 L
80.5 233.232 L
82.5 233.232 L
83.5 231.5 L
S
GR
GS
[0.75 0 0 0.75 0 0] CT
2 setlinecap
10.0 ML
N
84.5 216.5 M
83.5 214.768 L
81.5 214.768 L
80.5 216.5 L
81.5 218.232 L
83.5 218.232 L
84.5 216.5 L
S
GR
GS
[0.75 0 0 0.75 0 0] CT
2 setlinecap
10.0 ML
N
84.5 201.5 M
83.5 199.768 L
81.5 199.768 L
80.5 201.5 L
81.5 203.232 L
83.5 203.232 L
84.5 201.5 L
S
GR
GS
[0.75 0 0 0.75 0 0] CT
2 setlinecap
10.0 ML
N
85.5 185.5 M
84.5 183.768 L
82.5 183.768 L
81.5 185.5 L
82.5 187.232 L
84.5 187.232 L
85.5 185.5 L
S
GR
GS
[0.75 0 0 0.75 0 0] CT
2 setlinecap
10.0 ML
N
86.5 170.5 M
85.5 168.768 L
83.5 168.768 L
82.5 170.5 L
83.5 172.232 L
85.5 172.232 L
86.5 170.5 L
S
GR
GS
[0.75 0 0 0.75 0 0] CT
2 setlinecap
10.0 ML
N
86.5 155.5 M
85.5 153.768 L
83.5 153.768 L
82.5 155.5 L
83.5 157.232 L
85.5 157.232 L
86.5 155.5 L
S
GR
GS
[0.75 0 0 0.75 0 0] CT
2 setlinecap
10.0 ML
N
87.5 139.5 M
86.5 137.768 L
84.5 137.768 L
83.5 139.5 L
84.5 141.232 L
86.5 141.232 L
87.5 139.5 L
S
GR
GS
[0.75 0 0 0.75 0 0] CT
2 setlinecap
10.0 ML
N
88.5 124.5 M
87.5 122.768 L
85.5 122.768 L
84.5 124.5 L
85.5 126.232 L
87.5 126.232 L
88.5 124.5 L
S
GR
GS
[0.75 0 0 0.75 0 0] CT
2 setlinecap
10.0 ML
N
89.5 108.5 M
88.5 106.768 L
86.5 106.768 L
85.5 108.5 L
86.5 110.232 L
88.5 110.232 L
89.5 108.5 L
S
GR
GS
[0.75 0 0 0.75 0 0] CT
2 setlinecap
10.0 ML
N
91.5 91.5 M
90.5 89.768 L
88.5 89.768 L
87.5 91.5 L
88.5 93.232 L
90.5 93.232 L
91.5 91.5 L
S
GR
GS
[0.75 0 0 0.75 0 0] CT
2 setlinecap
10.0 ML
N
93.5 74.5 M
92.5 72.768 L
90.5 72.768 L
89.5 74.5 L
90.5 76.232 L
92.5 76.232 L
93.5 74.5 L
S
GR
GS
[0.75 0 0 0.75 0 0] CT
2 setlinecap
10.0 ML
N
83.5 360.5 M
82.5 358.768 L
80.5 358.768 L
79.5 360.5 L
80.5 362.232 L
82.5 362.232 L
83.5 360.5 L
S
GR
GS
[0.75 0 0 0.75 0 0] CT
2 setlinecap
10.0 ML
N
84.5 345.5 M
83.5 343.768 L
81.5 343.768 L
80.5 345.5 L
81.5 347.232 L
83.5 347.232 L
84.5 345.5 L
S
GR
GS
[0.75 0 0 0.75 0 0] CT
2 setlinecap
10.0 ML
N
84.5 330.5 M
83.5 328.768 L
81.5 328.768 L
80.5 330.5 L
81.5 332.232 L
83.5 332.232 L
84.5 330.5 L
S
GR
GS
[0.75 0 0 0.75 0 0] CT
2 setlinecap
10.0 ML
N
84.5 314.5 M
83.5 312.768 L
81.5 312.768 L
80.5 314.5 L
81.5 316.232 L
83.5 316.232 L
84.5 314.5 L
S
GR
GS
[0.75 0 0 0.75 0 0] CT
2 setlinecap
10.0 ML
N
84.5 299.5 M
83.5 297.768 L
81.5 297.768 L
80.5 299.5 L
81.5 301.232 L
83.5 301.232 L
84.5 299.5 L
S
GR
GS
[0.75 0 0 0.75 0 0] CT
2 setlinecap
10.0 ML
N
85.5 284.5 M
84.5 282.768 L
82.5 282.768 L
81.5 284.5 L
82.5 286.232 L
84.5 286.232 L
85.5 284.5 L
S
GR
GS
[0.75 0 0 0.75 0 0] CT
2 setlinecap
10.0 ML
N
85.5 268.5 M
84.5 266.768 L
82.5 266.768 L
81.5 268.5 L
82.5 270.232 L
84.5 270.232 L
85.5 268.5 L
S
GR
GS
[0.75 0 0 0.75 0 0] CT
2 setlinecap
10.0 ML
N
85.5 253.5 M
84.5 251.768 L
82.5 251.768 L
81.5 253.5 L
82.5 255.232 L
84.5 255.232 L
85.5 253.5 L
S
GR
GS
[0.75 0 0 0.75 0 0] CT
2 setlinecap
10.0 ML
N
86.5 238.5 M
85.5 236.768 L
83.5 236.768 L
82.5 238.5 L
83.5 240.232 L
85.5 240.232 L
86.5 238.5 L
S
GR
GS
[0.75 0 0 0.75 0 0] CT
2 setlinecap
10.0 ML
N
87.5 222.5 M
86.5 220.768 L
84.5 220.768 L
83.5 222.5 L
84.5 224.232 L
86.5 224.232 L
87.5 222.5 L
S
GR
GS
[0.75 0 0 0.75 0 0] CT
2 setlinecap
10.0 ML
N
87.5 207.5 M
86.5 205.768 L
84.5 205.768 L
83.5 207.5 L
84.5 209.232 L
86.5 209.232 L
87.5 207.5 L
S
GR
GS
[0.75 0 0 0.75 0 0] CT
2 setlinecap
10.0 ML
N
88.5 192.5 M
87.5 190.768 L
85.5 190.768 L
84.5 192.5 L
85.5 194.232 L
87.5 194.232 L
88.5 192.5 L
S
GR
GS
[0.75 0 0 0.75 0 0] CT
2 setlinecap
10.0 ML
N
89.5 176.5 M
88.5 174.768 L
86.5 174.768 L
85.5 176.5 L
86.5 178.232 L
88.5 178.232 L
89.5 176.5 L
S
GR
GS
[0.75 0 0 0.75 0 0] CT
2 setlinecap
10.0 ML
N
90.5 161.5 M
89.5 159.768 L
87.5 159.768 L
86.5 161.5 L
87.5 163.232 L
89.5 163.232 L
90.5 161.5 L
S
GR
GS
[0.75 0 0 0.75 0 0] CT
2 setlinecap
10.0 ML
N
91.5 145.5 M
90.5 143.768 L
88.5 143.768 L
87.5 145.5 L
88.5 147.232 L
90.5 147.232 L
91.5 145.5 L
S
GR
GS
[0.75 0 0 0.75 0 0] CT
2 setlinecap
10.0 ML
N
92.5 130.5 M
91.5 128.768 L
89.5 128.768 L
88.5 130.5 L
89.5 132.232 L
91.5 132.232 L
92.5 130.5 L
S
GR
GS
[0.75 0 0 0.75 0 0] CT
2 setlinecap
10.0 ML
N
93.5 114.5 M
92.5 112.768 L
90.5 112.768 L
89.5 114.5 L
90.5 116.232 L
92.5 116.232 L
93.5 114.5 L
S
GR
GS
[0.75 0 0 0.75 0 0] CT
2 setlinecap
10.0 ML
N
96.5 96.5 M
95.5 94.768 L
93.5 94.768 L
92.5 96.5 L
93.5 98.232 L
95.5 98.232 L
96.5 96.5 L
S
GR
GS
[0.75 0 0 0.75 0 0] CT
2 setlinecap
10.0 ML
N
98.5 79.5 M
97.5 77.768 L
95.5 77.768 L
94.5 79.5 L
95.5 81.232 L
97.5 81.232 L
98.5 79.5 L
S
GR
GS
[0.75 0 0 0.75 0 0] CT
2 setlinecap
10.0 ML
N
86.5 353.5 M
85.5 351.768 L
83.5 351.768 L
82.5 353.5 L
83.5 355.232 L
85.5 355.232 L
86.5 353.5 L
S
GR
GS
[0.75 0 0 0.75 0 0] CT
2 setlinecap
10.0 ML
N
86.5 337.5 M
85.5 335.768 L
83.5 335.768 L
82.5 337.5 L
83.5 339.232 L
85.5 339.232 L
86.5 337.5 L
S
GR
GS
[0.75 0 0 0.75 0 0] CT
2 setlinecap
10.0 ML
N
86.5 321.5 M
85.5 319.768 L
83.5 319.768 L
82.5 321.5 L
83.5 323.232 L
85.5 323.232 L
86.5 321.5 L
S
GR
GS
[0.75 0 0 0.75 0 0] CT
2 setlinecap
10.0 ML
N
87.5 306.5 M
86.5 304.768 L
84.5 304.768 L
83.5 306.5 L
84.5 308.232 L
86.5 308.232 L
87.5 306.5 L
S
GR
GS
[0.75 0 0 0.75 0 0] CT
2 setlinecap
10.0 ML
N
87.5 290.5 M
86.5 288.768 L
84.5 288.768 L
83.5 290.5 L
84.5 292.232 L
86.5 292.232 L
87.5 290.5 L
S
GR
GS
[0.75 0 0 0.75 0 0] CT
2 setlinecap
10.0 ML
N
88.5 275.5 M
87.5 273.768 L
85.5 273.768 L
84.5 275.5 L
85.5 277.232 L
87.5 277.232 L
88.5 275.5 L
S
GR
GS
[0.75 0 0 0.75 0 0] CT
2 setlinecap
10.0 ML
N
88.5 259.5 M
87.5 257.768 L
85.5 257.768 L
84.5 259.5 L
85.5 261.232 L
87.5 261.232 L
88.5 259.5 L
S
GR
GS
[0.75 0 0 0.75 0 0] CT
2 setlinecap
10.0 ML
N
89.5 244.5 M
88.5 242.768 L
86.5 242.768 L
85.5 244.5 L
86.5 246.232 L
88.5 246.232 L
89.5 244.5 L
S
GR
GS
[0.75 0 0 0.75 0 0] CT
2 setlinecap
10.0 ML
N
90.5 229.5 M
89.5 227.768 L
87.5 227.768 L
86.5 229.5 L
87.5 231.232 L
89.5 231.232 L
90.5 229.5 L
S
GR
GS
[0.75 0 0 0.75 0 0] CT
2 setlinecap
10.0 ML
N
91.5 213.5 M
90.5 211.768 L
88.5 211.768 L
87.5 213.5 L
88.5 215.232 L
90.5 215.232 L
91.5 213.5 L
S
GR
GS
[0.75 0 0 0.75 0 0] CT
2 setlinecap
10.0 ML
N
92.5 198.5 M
91.5 196.768 L
89.5 196.768 L
88.5 198.5 L
89.5 200.232 L
91.5 200.232 L
92.5 198.5 L
S
GR
GS
[0.75 0 0 0.75 0 0] CT
2 setlinecap
10.0 ML
N
93.5 182.5 M
92.5 180.768 L
90.5 180.768 L
89.5 182.5 L
90.5 184.232 L
92.5 184.232 L
93.5 182.5 L
S
GR
GS
[0.75 0 0 0.75 0 0] CT
2 setlinecap
10.0 ML
N
94.5 167.5 M
93.5 165.768 L
91.5 165.768 L
90.5 167.5 L
91.5 169.232 L
93.5 169.232 L
94.5 167.5 L
S
GR
GS
[0.75 0 0 0.75 0 0] CT
2 setlinecap
10.0 ML
N
95.5 151.5 M
94.5 149.768 L
92.5 149.768 L
91.5 151.5 L
92.5 153.232 L
94.5 153.232 L
95.5 151.5 L
S
GR
GS
[0.75 0 0 0.75 0 0] CT
2 setlinecap
10.0 ML
N
96.5 135.5 M
95.5 133.768 L
93.5 133.768 L
92.5 135.5 L
93.5 137.232 L
95.5 137.232 L
96.5 135.5 L
S
GR
GS
[0.75 0 0 0.75 0 0] CT
2 setlinecap
10.0 ML
N
98.5 119.5 M
97.5 117.768 L
95.5 117.768 L
94.5 119.5 L
95.5 121.232 L
97.5 121.232 L
98.5 119.5 L
S
GR
GS
[0.75 0 0 0.75 0 0] CT
2 setlinecap
10.0 ML
N
101.5 101.5 M
100.5 99.768 L
98.5 99.768 L
97.5 101.5 L
98.5 103.232 L
100.5 103.232 L
101.5 101.5 L
S
GR
GS
[0.75 0 0 0.75 0 0] CT
2 setlinecap
10.0 ML
N
104.5 84.5 M
103.5 82.768 L
101.5 82.768 L
100.5 84.5 L
101.5 86.232 L
103.5 86.232 L
104.5 84.5 L
S
GR
GS
[0.75 0 0 0.75 0 0] CT
2 setlinecap
10.0 ML
N
89.5 360.5 M
88.5 358.768 L
86.5 358.768 L
85.5 360.5 L
86.5 362.232 L
88.5 362.232 L
89.5 360.5 L
S
GR
GS
[0.75 0 0 0.75 0 0] CT
2 setlinecap
10.0 ML
N
89.5 345.5 M
88.5 343.768 L
86.5 343.768 L
85.5 345.5 L
86.5 347.232 L
88.5 347.232 L
89.5 345.5 L
S
GR
GS
[0.75 0 0 0.75 0 0] CT
2 setlinecap
10.0 ML
N
89.5 329.5 M
88.5 327.768 L
86.5 327.768 L
85.5 329.5 L
86.5 331.232 L
88.5 331.232 L
89.5 329.5 L
S
GR
GS
[0.75 0 0 0.75 0 0] CT
2 setlinecap
10.0 ML
N
89.5 313.5 M
88.5 311.768 L
86.5 311.768 L
85.5 313.5 L
86.5 315.232 L
88.5 315.232 L
89.5 313.5 L
S
GR
GS
[0.75 0 0 0.75 0 0] CT
2 setlinecap
10.0 ML
N
90.5 297.5 M
89.5 295.768 L
87.5 295.768 L
86.5 297.5 L
87.5 299.232 L
89.5 299.232 L
90.5 297.5 L
S
GR
GS
[0.75 0 0 0.75 0 0] CT
2 setlinecap
10.0 ML
N
90.5 282.5 M
89.5 280.768 L
87.5 280.768 L
86.5 282.5 L
87.5 284.232 L
89.5 284.232 L
90.5 282.5 L
S
GR
GS
[0.75 0 0 0.75 0 0] CT
2 setlinecap
10.0 ML
N
91.5 266.5 M
90.5 264.768 L
88.5 264.768 L
87.5 266.5 L
88.5 268.232 L
90.5 268.232 L
91.5 266.5 L
S
GR
GS
[0.75 0 0 0.75 0 0] CT
2 setlinecap
10.0 ML
N
92.5 250.5 M
91.5 248.768 L
89.5 248.768 L
88.5 250.5 L
89.5 252.232 L
91.5 252.232 L
92.5 250.5 L
S
GR
GS
[0.75 0 0 0.75 0 0] CT
2 setlinecap
10.0 ML
N
93.5 235.5 M
92.5 233.768 L
90.5 233.768 L
89.5 235.5 L
90.5 237.232 L
92.5 237.232 L
93.5 235.5 L
S
GR
GS
[0.75 0 0 0.75 0 0] CT
2 setlinecap
10.0 ML
N
94.5 219.5 M
93.5 217.768 L
91.5 217.768 L
90.5 219.5 L
91.5 221.232 L
93.5 221.232 L
94.5 219.5 L
S
GR
GS
[0.75 0 0 0.75 0 0] CT
2 setlinecap
10.0 ML
N
95.5 204.5 M
94.5 202.768 L
92.5 202.768 L
91.5 204.5 L
92.5 206.232 L
94.5 206.232 L
95.5 204.5 L
S
GR
GS
[0.75 0 0 0.75 0 0] CT
2 setlinecap
10.0 ML
N
96.5 188.5 M
95.5 186.768 L
93.5 186.768 L
92.5 188.5 L
93.5 190.232 L
95.5 190.232 L
96.5 188.5 L
S
GR
GS
[0.75 0 0 0.75 0 0] CT
2 setlinecap
10.0 ML
N
97.5 172.5 M
96.5 170.768 L
94.5 170.768 L
93.5 172.5 L
94.5 174.232 L
96.5 174.232 L
97.5 172.5 L
S
GR
GS
[0.75 0 0 0.75 0 0] CT
2 setlinecap
10.0 ML
N
99.5 157.5 M
98.5 155.768 L
96.5 155.768 L
95.5 157.5 L
96.5 159.232 L
98.5 159.232 L
99.5 157.5 L
S
GR
GS
[0.75 0 0 0.75 0 0] CT
2 setlinecap
10.0 ML
N
101.5 141.5 M
100.5 139.768 L
98.5 139.768 L
97.5 141.5 L
98.5 143.232 L
100.5 143.232 L
101.5 141.5 L
S
GR
GS
[0.75 0 0 0.75 0 0] CT
2 setlinecap
10.0 ML
N
102.5 125.5 M
101.5 123.768 L
99.5 123.768 L
98.5 125.5 L
99.5 127.232 L
101.5 127.232 L
102.5 125.5 L
S
GR
GS
[0.75 0 0 0.75 0 0] CT
2 setlinecap
10.0 ML
N
106.5 106.5 M
105.5 104.768 L
103.5 104.768 L
102.5 106.5 L
103.5 108.232 L
105.5 108.232 L
106.5 106.5 L
S
GR
GS
[0.75 0 0 0.75 0 0] CT
2 setlinecap
10.0 ML
N
109.5 89.5 M
108.5 87.768 L
106.5 87.768 L
105.5 89.5 L
106.5 91.232 L
108.5 91.232 L
109.5 89.5 L
S
GR
GS
[0.75 0 0 0.75 0 0] CT
2 setlinecap
10.0 ML
N
92.5 352.5 M
91.5 350.768 L
89.5 350.768 L
88.5 352.5 L
89.5 354.232 L
91.5 354.232 L
92.5 352.5 L
S
GR
GS
[0.75 0 0 0.75 0 0] CT
2 setlinecap
10.0 ML
N
92.5 336.5 M
91.5 334.768 L
89.5 334.768 L
88.5 336.5 L
89.5 338.232 L
91.5 338.232 L
92.5 336.5 L
S
GR
GS
[0.75 0 0 0.75 0 0] CT
2 setlinecap
10.0 ML
N
92.5 320.5 M
91.5 318.768 L
89.5 318.768 L
88.5 320.5 L
89.5 322.232 L
91.5 322.232 L
92.5 320.5 L
S
GR
GS
[0.75 0 0 0.75 0 0] CT
2 setlinecap
10.0 ML
N
93.5 304.5 M
92.5 302.768 L
90.5 302.768 L
89.5 304.5 L
90.5 306.232 L
92.5 306.232 L
93.5 304.5 L
S
GR
GS
[0.75 0 0 0.75 0 0] CT
2 setlinecap
10.0 ML
N
93.5 289.5 M
92.5 287.768 L
90.5 287.768 L
89.5 289.5 L
90.5 291.232 L
92.5 291.232 L
93.5 289.5 L
S
GR
GS
[0.75 0 0 0.75 0 0] CT
2 setlinecap
10.0 ML
N
94.5 273.5 M
93.5 271.768 L
91.5 271.768 L
90.5 273.5 L
91.5 275.232 L
93.5 275.232 L
94.5 273.5 L
S
GR
GS
[0.75 0 0 0.75 0 0] CT
2 setlinecap
10.0 ML
N
95.5 257.5 M
94.5 255.768 L
92.5 255.768 L
91.5 257.5 L
92.5 259.232 L
94.5 259.232 L
95.5 257.5 L
S
GR
GS
[0.75 0 0 0.75 0 0] CT
2 setlinecap
10.0 ML
N
96.5 241.5 M
95.5 239.768 L
93.5 239.768 L
92.5 241.5 L
93.5 243.232 L
95.5 243.232 L
96.5 241.5 L
S
GR
GS
[0.75 0 0 0.75 0 0] CT
2 setlinecap
10.0 ML
N
97.5 225.5 M
96.5 223.768 L
94.5 223.768 L
93.5 225.5 L
94.5 227.232 L
96.5 227.232 L
97.5 225.5 L
S
GR
GS
[0.75 0 0 0.75 0 0] CT
2 setlinecap
10.0 ML
N
98.5 210.5 M
97.5 208.768 L
95.5 208.768 L
94.5 210.5 L
95.5 212.232 L
97.5 212.232 L
98.5 210.5 L
S
GR
GS
[0.75 0 0 0.75 0 0] CT
2 setlinecap
10.0 ML
N
100.5 194.5 M
99.5 192.768 L
97.5 192.768 L
96.5 194.5 L
97.5 196.232 L
99.5 196.232 L
100.5 194.5 L
S
GR
GS
[0.75 0 0 0.75 0 0] CT
2 setlinecap
10.0 ML
N
101.5 178.5 M
100.5 176.768 L
98.5 176.768 L
97.5 178.5 L
98.5 180.232 L
100.5 180.232 L
101.5 178.5 L
S
GR
GS
[0.75 0 0 0.75 0 0] CT
2 setlinecap
10.0 ML
N
103.5 162.5 M
102.5 160.768 L
100.5 160.768 L
99.5 162.5 L
100.5 164.232 L
102.5 164.232 L
103.5 162.5 L
S
GR
GS
[0.75 0 0 0.75 0 0] CT
2 setlinecap
10.0 ML
N
105.5 146.5 M
104.5 144.768 L
102.5 144.768 L
101.5 146.5 L
102.5 148.232 L
104.5 148.232 L
105.5 146.5 L
S
GR
GS
[0.75 0 0 0.75 0 0] CT
2 setlinecap
10.0 ML
N
107.5 130.5 M
106.5 128.768 L
104.5 128.768 L
103.5 130.5 L
104.5 132.232 L
106.5 132.232 L
107.5 130.5 L
S
GR
GS
[0.75 0 0 0.75 0 0] CT
2 setlinecap
10.0 ML
N
110.5 111.5 M
109.5 109.768 L
107.5 109.768 L
106.5 111.5 L
107.5 113.232 L
109.5 113.232 L
110.5 111.5 L
S
GR
GS
[0.75 0 0 0.75 0 0] CT
2 setlinecap
10.0 ML
N
114.5 93.5 M
113.5 91.768 L
111.5 91.768 L
110.5 93.5 L
111.5 95.232 L
113.5 95.232 L
114.5 93.5 L
S
GR
GS
[0.75 0 0 0.75 0 0] CT
2 setlinecap
10.0 ML
N
95.5 360.5 M
94.5 358.768 L
92.5 358.768 L
91.5 360.5 L
92.5 362.232 L
94.5 362.232 L
95.5 360.5 L
S
GR
GS
[0.75 0 0 0.75 0 0] CT
2 setlinecap
10.0 ML
N
95.5 344.5 M
94.5 342.768 L
92.5 342.768 L
91.5 344.5 L
92.5 346.232 L
94.5 346.232 L
95.5 344.5 L
S
GR
GS
[0.75 0 0 0.75 0 0] CT
2 setlinecap
10.0 ML
N
95.5 328.5 M
94.5 326.768 L
92.5 326.768 L
91.5 328.5 L
92.5 330.232 L
94.5 330.232 L
95.5 328.5 L
S
GR
GS
[0.75 0 0 0.75 0 0] CT
2 setlinecap
10.0 ML
N
96.5 312.5 M
95.5 310.768 L
93.5 310.768 L
92.5 312.5 L
93.5 314.232 L
95.5 314.232 L
96.5 312.5 L
S
GR
GS
[0.75 0 0 0.75 0 0] CT
2 setlinecap
10.0 ML
N
96.5 295.5 M
95.5 293.768 L
93.5 293.768 L
92.5 295.5 L
93.5 297.232 L
95.5 297.232 L
96.5 295.5 L
S
GR
GS
[0.75 0 0 0.75 0 0] CT
2 setlinecap
10.0 ML
N
97.5 279.5 M
96.5 277.768 L
94.5 277.768 L
93.5 279.5 L
94.5 281.232 L
96.5 281.232 L
97.5 279.5 L
S
GR
GS
[0.75 0 0 0.75 0 0] CT
2 setlinecap
10.0 ML
N
98.5 263.5 M
97.5 261.768 L
95.5 261.768 L
94.5 263.5 L
95.5 265.232 L
97.5 265.232 L
98.5 263.5 L
S
GR
GS
[0.75 0 0 0.75 0 0] CT
2 setlinecap
10.0 ML
N
99.5 247.5 M
98.5 245.768 L
96.5 245.768 L
95.5 247.5 L
96.5 249.232 L
98.5 249.232 L
99.5 247.5 L
S
GR
GS
[0.75 0 0 0.75 0 0] CT
2 setlinecap
10.0 ML
N
100.5 232.5 M
99.5 230.768 L
97.5 230.768 L
96.5 232.5 L
97.5 234.232 L
99.5 234.232 L
100.5 232.5 L
S
GR
GS
[0.75 0 0 0.75 0 0] CT
2 setlinecap
10.0 ML
N
101.5 216.5 M
100.5 214.768 L
98.5 214.768 L
97.5 216.5 L
98.5 218.232 L
100.5 218.232 L
101.5 216.5 L
S
GR
GS
[0.75 0 0 0.75 0 0] CT
2 setlinecap
10.0 ML
N
103.5 200.5 M
102.5 198.768 L
100.5 198.768 L
99.5 200.5 L
100.5 202.232 L
102.5 202.232 L
103.5 200.5 L
S
GR
GS
[0.75 0 0 0.75 0 0] CT
2 setlinecap
10.0 ML
N
105.5 184.5 M
104.5 182.768 L
102.5 182.768 L
101.5 184.5 L
102.5 186.232 L
104.5 186.232 L
105.5 184.5 L
S
GR
GS
[0.75 0 0 0.75 0 0] CT
2 setlinecap
10.0 ML
N
107.5 168.5 M
106.5 166.768 L
104.5 166.768 L
103.5 168.5 L
104.5 170.232 L
106.5 170.232 L
107.5 168.5 L
S
GR
GS
[0.75 0 0 0.75 0 0] CT
2 setlinecap
10.0 ML
N
109.5 152.5 M
108.5 150.768 L
106.5 150.768 L
105.5 152.5 L
106.5 154.232 L
108.5 154.232 L
109.5 152.5 L
S
GR
GS
[0.75 0 0 0.75 0 0] CT
2 setlinecap
10.0 ML
N
111.5 135.5 M
110.5 133.768 L
108.5 133.768 L
107.5 135.5 L
108.5 137.232 L
110.5 137.232 L
111.5 135.5 L
S
GR
GS
[0.75 0 0 0.75 0 0] CT
2 setlinecap
10.0 ML
N
115.5 116.5 M
114.5 114.768 L
112.5 114.768 L
111.5 116.5 L
112.5 118.232 L
114.5 118.232 L
115.5 116.5 L
S
GR
GS
[0.75 0 0 0.75 0 0] CT
2 setlinecap
10.0 ML
N
119.5 98.5 M
118.5 96.768 L
116.5 96.768 L
115.5 98.5 L
116.5 100.232 L
118.5 100.232 L
119.5 98.5 L
S
GR
GS
[0.75 0 0 0.75 0 0] CT
2 setlinecap
10.0 ML
N
98.5 352.5 M
97.5 350.768 L
95.5 350.768 L
94.5 352.5 L
95.5 354.232 L
97.5 354.232 L
98.5 352.5 L
S
GR
GS
[0.75 0 0 0.75 0 0] CT
2 setlinecap
10.0 ML
N
98.5 336.5 M
97.5 334.768 L
95.5 334.768 L
94.5 336.5 L
95.5 338.232 L
97.5 338.232 L
98.5 336.5 L
S
GR
GS
[0.75 0 0 0.75 0 0] CT
2 setlinecap
10.0 ML
N
99.5 319.5 M
98.5 317.768 L
96.5 317.768 L
95.5 319.5 L
96.5 321.232 L
98.5 321.232 L
99.5 319.5 L
S
GR
GS
[0.75 0 0 0.75 0 0] CT
2 setlinecap
10.0 ML
N
99.5 303.5 M
98.5 301.768 L
96.5 301.768 L
95.5 303.5 L
96.5 305.232 L
98.5 305.232 L
99.5 303.5 L
S
GR
GS
[0.75 0 0 0.75 0 0] CT
2 setlinecap
10.0 ML
N
100.5 286.5 M
99.5 284.768 L
97.5 284.768 L
96.5 286.5 L
97.5 288.232 L
99.5 288.232 L
100.5 286.5 L
S
GR
GS
[0.75 0 0 0.75 0 0] CT
2 setlinecap
10.0 ML
N
101.5 270.5 M
100.5 268.768 L
98.5 268.768 L
97.5 270.5 L
98.5 272.232 L
100.5 272.232 L
101.5 270.5 L
S
GR
GS
[0.75 0 0 0.75 0 0] CT
2 setlinecap
10.0 ML
N
102.5 254.5 M
101.5 252.768 L
99.5 252.768 L
98.5 254.5 L
99.5 256.232 L
101.5 256.232 L
102.5 254.5 L
S
GR
GS
[0.75 0 0 0.75 0 0] CT
2 setlinecap
10.0 ML
N
103.5 238.5 M
102.5 236.768 L
100.5 236.768 L
99.5 238.5 L
100.5 240.232 L
102.5 240.232 L
103.5 238.5 L
S
GR
GS
[0.75 0 0 0.75 0 0] CT
2 setlinecap
10.0 ML
N
105.5 222.5 M
104.5 220.768 L
102.5 220.768 L
101.5 222.5 L
102.5 224.232 L
104.5 224.232 L
105.5 222.5 L
S
GR
GS
[0.75 0 0 0.75 0 0] CT
2 setlinecap
10.0 ML
N
106.5 205.5 M
105.5 203.768 L
103.5 203.768 L
102.5 205.5 L
103.5 207.232 L
105.5 207.232 L
106.5 205.5 L
S
GR
GS
[0.75 0 0 0.75 0 0] CT
2 setlinecap
10.0 ML
N
108.5 189.5 M
107.5 187.768 L
105.5 187.768 L
104.5 189.5 L
105.5 191.232 L
107.5 191.232 L
108.5 189.5 L
S
GR
GS
[0.75 0 0 0.75 0 0] CT
2 setlinecap
10.0 ML
N
110.5 173.5 M
109.5 171.768 L
107.5 171.768 L
106.5 173.5 L
107.5 175.232 L
109.5 175.232 L
110.5 173.5 L
S
GR
GS
[0.75 0 0 0.75 0 0] CT
2 setlinecap
10.0 ML
N
113.5 157.5 M
112.5 155.768 L
110.5 155.768 L
109.5 157.5 L
110.5 159.232 L
112.5 159.232 L
113.5 157.5 L
S
GR
GS
[0.75 0 0 0.75 0 0] CT
2 setlinecap
10.0 ML
N
115.5 140.5 M
114.5 138.768 L
112.5 138.768 L
111.5 140.5 L
112.5 142.232 L
114.5 142.232 L
115.5 140.5 L
S
GR
GS
[0.75 0 0 0.75 0 0] CT
2 setlinecap
10.0 ML
N
119.5 121.5 M
118.5 119.768 L
116.5 119.768 L
115.5 121.5 L
116.5 123.232 L
118.5 123.232 L
119.5 121.5 L
S
GR
GS
[0.75 0 0 0.75 0 0] CT
2 setlinecap
10.0 ML
N
124.5 102.5 M
123.5 100.768 L
121.5 100.768 L
120.5 102.5 L
121.5 104.232 L
123.5 104.232 L
124.5 102.5 L
S
GR
GS
[0.75 0 0 0.75 0 0] CT
2 setlinecap
10.0 ML
N
101.5 360.5 M
100.5 358.768 L
98.5 358.768 L
97.5 360.5 L
98.5 362.232 L
100.5 362.232 L
101.5 360.5 L
S
GR
GS
[0.75 0 0 0.75 0 0] CT
2 setlinecap
10.0 ML
N
102.5 344.5 M
101.5 342.768 L
99.5 342.768 L
98.5 344.5 L
99.5 346.232 L
101.5 346.232 L
102.5 344.5 L
S
GR
GS
[0.75 0 0 0.75 0 0] CT
2 setlinecap
10.0 ML
N
102.5 327.5 M
101.5 325.768 L
99.5 325.768 L
98.5 327.5 L
99.5 329.232 L
101.5 329.232 L
102.5 327.5 L
S
GR
GS
[0.75 0 0 0.75 0 0] CT
2 setlinecap
10.0 ML
N
102.5 310.5 M
101.5 308.768 L
99.5 308.768 L
98.5 310.5 L
99.5 312.232 L
101.5 312.232 L
102.5 310.5 L
S
GR
GS
[0.75 0 0 0.75 0 0] CT
2 setlinecap
10.0 ML
N
103.5 293.5 M
102.5 291.768 L
100.5 291.768 L
99.5 293.5 L
100.5 295.232 L
102.5 295.232 L
103.5 293.5 L
S
GR
GS
[0.75 0 0 0.75 0 0] CT
2 setlinecap
10.0 ML
N
104.5 277.5 M
103.5 275.768 L
101.5 275.768 L
100.5 277.5 L
101.5 279.232 L
103.5 279.232 L
104.5 277.5 L
S
GR
GS
[0.75 0 0 0.75 0 0] CT
2 setlinecap
10.0 ML
N
105.5 260.5 M
104.5 258.768 L
102.5 258.768 L
101.5 260.5 L
102.5 262.232 L
104.5 262.232 L
105.5 260.5 L
S
GR
GS
[0.75 0 0 0.75 0 0] CT
2 setlinecap
10.0 ML
N
107.5 244.5 M
106.5 242.768 L
104.5 242.768 L
103.5 244.5 L
104.5 246.232 L
106.5 246.232 L
107.5 244.5 L
S
GR
GS
[0.75 0 0 0.75 0 0] CT
2 setlinecap
10.0 ML
N
108.5 227.5 M
107.5 225.768 L
105.5 225.768 L
104.5 227.5 L
105.5 229.232 L
107.5 229.232 L
108.5 227.5 L
S
GR
GS
[0.75 0 0 0.75 0 0] CT
2 setlinecap
10.0 ML
N
110.5 211.5 M
109.5 209.768 L
107.5 209.768 L
106.5 211.5 L
107.5 213.232 L
109.5 213.232 L
110.5 211.5 L
S
GR
GS
[0.75 0 0 0.75 0 0] CT
2 setlinecap
10.0 ML
N
112.5 195.5 M
111.5 193.768 L
109.5 193.768 L
108.5 195.5 L
109.5 197.232 L
111.5 197.232 L
112.5 195.5 L
S
GR
GS
[0.75 0 0 0.75 0 0] CT
2 setlinecap
10.0 ML
N
114.5 178.5 M
113.5 176.768 L
111.5 176.768 L
110.5 178.5 L
111.5 180.232 L
113.5 180.232 L
114.5 178.5 L
S
GR
GS
[0.75 0 0 0.75 0 0] CT
2 setlinecap
10.0 ML
N
117.5 162.5 M
116.5 160.768 L
114.5 160.768 L
113.5 162.5 L
114.5 164.232 L
116.5 164.232 L
117.5 162.5 L
S
GR
GS
[0.75 0 0 0.75 0 0] CT
2 setlinecap
10.0 ML
N
119.5 145.5 M
118.5 143.768 L
116.5 143.768 L
115.5 145.5 L
116.5 147.232 L
118.5 147.232 L
119.5 145.5 L
S
GR
GS
[0.75 0 0 0.75 0 0] CT
2 setlinecap
10.0 ML
N
124.5 126.5 M
123.5 124.768 L
121.5 124.768 L
120.5 126.5 L
121.5 128.232 L
123.5 128.232 L
124.5 126.5 L
S
GR
GS
[0.75 0 0 0.75 0 0] CT
2 setlinecap
10.0 ML
N
128.5 107.5 M
127.5 105.768 L
125.5 105.768 L
124.5 107.5 L
125.5 109.232 L
127.5 109.232 L
128.5 107.5 L
S
GR
GS
[0.75 0 0 0.75 0 0] CT
2 setlinecap
10.0 ML
N
105.5 352.5 M
104.5 350.768 L
102.5 350.768 L
101.5 352.5 L
102.5 354.232 L
104.5 354.232 L
105.5 352.5 L
S
GR
GS
[0.75 0 0 0.75 0 0] CT
2 setlinecap
10.0 ML
N
105.5 335.5 M
104.5 333.768 L
102.5 333.768 L
101.5 335.5 L
102.5 337.232 L
104.5 337.232 L
105.5 335.5 L
S
GR
GS
[0.75 0 0 0.75 0 0] CT
2 setlinecap
10.0 ML
N
106.5 317.5 M
105.5 315.768 L
103.5 315.768 L
102.5 317.5 L
103.5 319.232 L
105.5 319.232 L
106.5 317.5 L
S
GR
GS
[0.75 0 0 0.75 0 0] CT
2 setlinecap
10.0 ML
N
107.5 300.5 M
106.5 298.768 L
104.5 298.768 L
103.5 300.5 L
104.5 302.232 L
106.5 302.232 L
107.5 300.5 L
S
GR
GS
[0.75 0 0 0.75 0 0] CT
2 setlinecap
10.0 ML
N
107.5 283.5 M
106.5 281.768 L
104.5 281.768 L
103.5 283.5 L
104.5 285.232 L
106.5 285.232 L
107.5 283.5 L
S
GR
GS
[0.75 0 0 0.75 0 0] CT
2 setlinecap
10.0 ML
N
109.5 267.5 M
108.5 265.768 L
106.5 265.768 L
105.5 267.5 L
106.5 269.232 L
108.5 269.232 L
109.5 267.5 L
S
GR
GS
[0.75 0 0 0.75 0 0] CT
2 setlinecap
10.0 ML
N
110.5 250.5 M
109.5 248.768 L
107.5 248.768 L
106.5 250.5 L
107.5 252.232 L
109.5 252.232 L
110.5 250.5 L
S
GR
GS
[0.75 0 0 0.75 0 0] CT
2 setlinecap
10.0 ML
N
112.5 233.5 M
111.5 231.768 L
109.5 231.768 L
108.5 233.5 L
109.5 235.232 L
111.5 235.232 L
112.5 233.5 L
S
GR
GS
[0.75 0 0 0.75 0 0] CT
2 setlinecap
10.0 ML
N
113.5 217.5 M
112.5 215.768 L
110.5 215.768 L
109.5 217.5 L
110.5 219.232 L
112.5 219.232 L
113.5 217.5 L
S
GR
GS
[0.75 0 0 0.75 0 0] CT
2 setlinecap
10.0 ML
N
116.5 200.5 M
115.5 198.768 L
113.5 198.768 L
112.5 200.5 L
113.5 202.232 L
115.5 202.232 L
116.5 200.5 L
S
GR
GS
[0.75 0 0 0.75 0 0] CT
2 setlinecap
10.0 ML
N
118.5 184.5 M
117.5 182.768 L
115.5 182.768 L
114.5 184.5 L
115.5 186.232 L
117.5 186.232 L
118.5 184.5 L
S
GR
GS
[0.75 0 0 0.75 0 0] CT
2 setlinecap
10.0 ML
N
121.5 167.5 M
120.5 165.768 L
118.5 165.768 L
117.5 167.5 L
118.5 169.232 L
120.5 169.232 L
121.5 167.5 L
S
GR
GS
[0.75 0 0 0.75 0 0] CT
2 setlinecap
10.0 ML
N
124.5 150.5 M
123.5 148.768 L
121.5 148.768 L
120.5 150.5 L
121.5 152.232 L
123.5 152.232 L
124.5 150.5 L
S
GR
GS
[0.75 0 0 0.75 0 0] CT
2 setlinecap
10.0 ML
N
128.5 130.5 M
127.5 128.768 L
125.5 128.768 L
124.5 130.5 L
125.5 132.232 L
127.5 132.232 L
128.5 130.5 L
S
GR
GS
[0.75 0 0 0.75 0 0] CT
2 setlinecap
10.0 ML
N
133.5 111.5 M
132.5 109.768 L
130.5 109.768 L
129.5 111.5 L
130.5 113.232 L
132.5 113.232 L
133.5 111.5 L
S
GR
GS
[0.75 0 0 0.75 0 0] CT
2 setlinecap
10.0 ML
N
109.5 360.5 M
108.5 358.768 L
106.5 358.768 L
105.5 360.5 L
106.5 362.232 L
108.5 362.232 L
109.5 360.5 L
S
GR
GS
[0.75 0 0 0.75 0 0] CT
2 setlinecap
10.0 ML
N
109.5 343.5 M
108.5 341.768 L
106.5 341.768 L
105.5 343.5 L
106.5 345.232 L
108.5 345.232 L
109.5 343.5 L
S
GR
GS
[0.75 0 0 0.75 0 0] CT
2 setlinecap
10.0 ML
N
110.5 325.5 M
109.5 323.768 L
107.5 323.768 L
106.5 325.5 L
107.5 327.232 L
109.5 327.232 L
110.5 325.5 L
S
GR
GS
[0.75 0 0 0.75 0 0] CT
2 setlinecap
10.0 ML
N
110.5 308.5 M
109.5 306.768 L
107.5 306.768 L
106.5 308.5 L
107.5 310.232 L
109.5 310.232 L
110.5 308.5 L
S
GR
GS
[0.75 0 0 0.75 0 0] CT
2 setlinecap
10.0 ML
N
111.5 291.5 M
110.5 289.768 L
108.5 289.768 L
107.5 291.5 L
108.5 293.232 L
110.5 293.232 L
111.5 291.5 L
S
GR
GS
[0.75 0 0 0.75 0 0] CT
2 setlinecap
10.0 ML
N
112.5 273.5 M
111.5 271.768 L
109.5 271.768 L
108.5 273.5 L
109.5 275.232 L
111.5 275.232 L
112.5 273.5 L
S
GR
GS
[0.75 0 0 0.75 0 0] CT
2 setlinecap
10.0 ML
N
114.5 256.5 M
113.5 254.768 L
111.5 254.768 L
110.5 256.5 L
111.5 258.232 L
113.5 258.232 L
114.5 256.5 L
S
GR
GS
[0.75 0 0 0.75 0 0] CT
2 setlinecap
10.0 ML
N
115.5 239.5 M
114.5 237.768 L
112.5 237.768 L
111.5 239.5 L
112.5 241.232 L
114.5 241.232 L
115.5 239.5 L
S
GR
GS
[0.75 0 0 0.75 0 0] CT
2 setlinecap
10.0 ML
N
117.5 223.5 M
116.5 221.768 L
114.5 221.768 L
113.5 223.5 L
114.5 225.232 L
116.5 225.232 L
117.5 223.5 L
S
GR
GS
[0.75 0 0 0.75 0 0] CT
2 setlinecap
10.0 ML
N
119.5 206.5 M
118.5 204.768 L
116.5 204.768 L
115.5 206.5 L
116.5 208.232 L
118.5 208.232 L
119.5 206.5 L
S
GR
GS
[0.75 0 0 0.75 0 0] CT
2 setlinecap
10.0 ML
N
122.5 189.5 M
121.5 187.768 L
119.5 187.768 L
118.5 189.5 L
119.5 191.232 L
121.5 191.232 L
122.5 189.5 L
S
GR
GS
[0.75 0 0 0.75 0 0] CT
2 setlinecap
10.0 ML
N
125.5 172.5 M
124.5 170.768 L
122.5 170.768 L
121.5 172.5 L
122.5 174.232 L
124.5 174.232 L
125.5 172.5 L
S
GR
GS
[0.75 0 0 0.75 0 0] CT
2 setlinecap
10.0 ML
N
128.5 155.5 M
127.5 153.768 L
125.5 153.768 L
124.5 155.5 L
125.5 157.232 L
127.5 157.232 L
128.5 155.5 L
S
GR
GS
[0.75 0 0 0.75 0 0] CT
2 setlinecap
10.0 ML
N
133.5 135.5 M
132.5 133.768 L
130.5 133.768 L
129.5 135.5 L
130.5 137.232 L
132.5 137.232 L
133.5 135.5 L
S
GR
GS
[0.75 0 0 0.75 0 0] CT
2 setlinecap
10.0 ML
N
138.5 115.5 M
137.5 113.768 L
135.5 113.768 L
134.5 115.5 L
135.5 117.232 L
137.5 117.232 L
138.5 115.5 L
S
GR
GS
[0.75 0 0 0.75 0 0] CT
2 setlinecap
10.0 ML
N
113.5 352.5 M
112.5 350.768 L
110.5 350.768 L
109.5 352.5 L
110.5 354.232 L
112.5 354.232 L
113.5 352.5 L
S
GR
GS
[0.75 0 0 0.75 0 0] CT
2 setlinecap
10.0 ML
N
113.5 334.5 M
112.5 332.768 L
110.5 332.768 L
109.5 334.5 L
110.5 336.232 L
112.5 336.232 L
113.5 334.5 L
S
GR
GS
[0.75 0 0 0.75 0 0] CT
2 setlinecap
10.0 ML
N
114.5 316.5 M
113.5 314.768 L
111.5 314.768 L
110.5 316.5 L
111.5 318.232 L
113.5 318.232 L
114.5 316.5 L
S
GR
GS
[0.75 0 0 0.75 0 0] CT
2 setlinecap
10.0 ML
N
115.5 298.5 M
114.5 296.768 L
112.5 296.768 L
111.5 298.5 L
112.5 300.232 L
114.5 300.232 L
115.5 298.5 L
S
GR
GS
[0.75 0 0 0.75 0 0] CT
2 setlinecap
10.0 ML
N
116.5 280.5 M
115.5 278.768 L
113.5 278.768 L
112.5 280.5 L
113.5 282.232 L
115.5 282.232 L
116.5 280.5 L
S
GR
GS
[0.75 0 0 0.75 0 0] CT
2 setlinecap
10.0 ML
N
117.5 263.5 M
116.5 261.768 L
114.5 261.768 L
113.5 263.5 L
114.5 265.232 L
116.5 265.232 L
117.5 263.5 L
S
GR
GS
[0.75 0 0 0.75 0 0] CT
2 setlinecap
10.0 ML
N
119.5 246.5 M
118.5 244.768 L
116.5 244.768 L
115.5 246.5 L
116.5 248.232 L
118.5 248.232 L
119.5 246.5 L
S
GR
GS
[0.75 0 0 0.75 0 0] CT
2 setlinecap
10.0 ML
N
121.5 229.5 M
120.5 227.768 L
118.5 227.768 L
117.5 229.5 L
118.5 231.232 L
120.5 231.232 L
121.5 229.5 L
S
GR
GS
[0.75 0 0 0.75 0 0] CT
2 setlinecap
10.0 ML
N
123.5 211.5 M
122.5 209.768 L
120.5 209.768 L
119.5 211.5 L
120.5 213.232 L
122.5 213.232 L
123.5 211.5 L
S
GR
GS
[0.75 0 0 0.75 0 0] CT
2 setlinecap
10.0 ML
N
126.5 194.5 M
125.5 192.768 L
123.5 192.768 L
122.5 194.5 L
123.5 196.232 L
125.5 196.232 L
126.5 194.5 L
S
GR
GS
[0.75 0 0 0.75 0 0] CT
2 setlinecap
10.0 ML
N
129.5 177.5 M
128.5 175.768 L
126.5 175.768 L
125.5 177.5 L
126.5 179.232 L
128.5 179.232 L
129.5 177.5 L
S
GR
GS
[0.75 0 0 0.75 0 0] CT
2 setlinecap
10.0 ML
N
132.5 160.5 M
131.5 158.768 L
129.5 158.768 L
128.5 160.5 L
129.5 162.232 L
131.5 162.232 L
132.5 160.5 L
S
GR
GS
[0.75 0 0 0.75 0 0] CT
2 setlinecap
10.0 ML
N
137.5 139.5 M
136.5 137.768 L
134.5 137.768 L
133.5 139.5 L
134.5 141.232 L
136.5 141.232 L
137.5 139.5 L
S
GR
GS
[0.75 0 0 0.75 0 0] CT
2 setlinecap
10.0 ML
N
143.5 120.5 M
142.5 118.768 L
140.5 118.768 L
139.5 120.5 L
140.5 122.232 L
142.5 122.232 L
143.5 120.5 L
S
GR
GS
[0.75 0 0 0.75 0 0] CT
2 setlinecap
10.0 ML
N
118.5 360.5 M
117.5 358.768 L
115.5 358.768 L
114.5 360.5 L
115.5 362.232 L
117.5 362.232 L
118.5 360.5 L
S
GR
GS
[0.75 0 0 0.75 0 0] CT
2 setlinecap
10.0 ML
N
118.5 342.5 M
117.5 340.768 L
115.5 340.768 L
114.5 342.5 L
115.5 344.232 L
117.5 344.232 L
118.5 342.5 L
S
GR
GS
[0.75 0 0 0.75 0 0] CT
2 setlinecap
10.0 ML
N
118.5 324.5 M
117.5 322.768 L
115.5 322.768 L
114.5 324.5 L
115.5 326.232 L
117.5 326.232 L
118.5 324.5 L
S
GR
GS
[0.75 0 0 0.75 0 0] CT
2 setlinecap
10.0 ML
N
119.5 306.5 M
118.5 304.768 L
116.5 304.768 L
115.5 306.5 L
116.5 308.232 L
118.5 308.232 L
119.5 306.5 L
S
GR
GS
[0.75 0 0 0.75 0 0] CT
2 setlinecap
10.0 ML
N
120.5 288.5 M
119.5 286.768 L
117.5 286.768 L
116.5 288.5 L
117.5 290.232 L
119.5 290.232 L
120.5 288.5 L
S
GR
GS
[0.75 0 0 0.75 0 0] CT
2 setlinecap
10.0 ML
N
121.5 270.5 M
120.5 268.768 L
118.5 268.768 L
117.5 270.5 L
118.5 272.232 L
120.5 272.232 L
121.5 270.5 L
S
GR
GS
[0.75 0 0 0.75 0 0] CT
2 setlinecap
10.0 ML
N
123.5 252.5 M
122.5 250.768 L
120.5 250.768 L
119.5 252.5 L
120.5 254.232 L
122.5 254.232 L
123.5 252.5 L
S
GR
GS
[0.75 0 0 0.75 0 0] CT
2 setlinecap
10.0 ML
N
125.5 235.5 M
124.5 233.768 L
122.5 233.768 L
121.5 235.5 L
122.5 237.232 L
124.5 237.232 L
125.5 235.5 L
S
GR
GS
[0.75 0 0 0.75 0 0] CT
2 setlinecap
10.0 ML
N
127.5 217.5 M
126.5 215.768 L
124.5 215.768 L
123.5 217.5 L
124.5 219.232 L
126.5 219.232 L
127.5 217.5 L
S
GR
GS
[0.75 0 0 0.75 0 0] CT
2 setlinecap
10.0 ML
N
130.5 200.5 M
129.5 198.768 L
127.5 198.768 L
126.5 200.5 L
127.5 202.232 L
129.5 202.232 L
130.5 200.5 L
S
GR
GS
[0.75 0 0 0.75 0 0] CT
2 setlinecap
10.0 ML
N
133.5 182.5 M
132.5 180.768 L
130.5 180.768 L
129.5 182.5 L
130.5 184.232 L
132.5 184.232 L
133.5 182.5 L
S
GR
GS
[0.75 0 0 0.75 0 0] CT
2 setlinecap
10.0 ML
N
136.5 165.5 M
135.5 163.768 L
133.5 163.768 L
132.5 165.5 L
133.5 167.232 L
135.5 167.232 L
136.5 165.5 L
S
GR
GS
[0.75 0 0 0.75 0 0] CT
2 setlinecap
10.0 ML
N
142.5 144.5 M
141.5 142.768 L
139.5 142.768 L
138.5 144.5 L
139.5 146.232 L
141.5 146.232 L
142.5 144.5 L
S
GR
GS
[0.75 0 0 0.75 0 0] CT
2 setlinecap
10.0 ML
N
147.5 124.5 M
146.5 122.768 L
144.5 122.768 L
143.5 124.5 L
144.5 126.232 L
146.5 126.232 L
147.5 124.5 L
S
GR
GS
[0.75 0 0 0.75 0 0] CT
2 setlinecap
10.0 ML
N
122.5 351.5 M
121.5 349.768 L
119.5 349.768 L
118.5 351.5 L
119.5 353.232 L
121.5 353.232 L
122.5 351.5 L
S
GR
GS
[0.75 0 0 0.75 0 0] CT
2 setlinecap
10.0 ML
N
122.5 332.5 M
121.5 330.768 L
119.5 330.768 L
118.5 332.5 L
119.5 334.232 L
121.5 334.232 L
122.5 332.5 L
S
GR
GS
[0.75 0 0 0.75 0 0] CT
2 setlinecap
10.0 ML
N
123.5 314.5 M
122.5 312.768 L
120.5 312.768 L
119.5 314.5 L
120.5 316.232 L
122.5 316.232 L
123.5 314.5 L
S
GR
GS
[0.75 0 0 0.75 0 0] CT
2 setlinecap
10.0 ML
N
124.5 295.5 M
123.5 293.768 L
121.5 293.768 L
120.5 295.5 L
121.5 297.232 L
123.5 297.232 L
124.5 295.5 L
S
GR
GS
[0.75 0 0 0.75 0 0] CT
2 setlinecap
10.0 ML
N
125.5 277.5 M
124.5 275.768 L
122.5 275.768 L
121.5 277.5 L
122.5 279.232 L
124.5 279.232 L
125.5 277.5 L
S
GR
GS
[0.75 0 0 0.75 0 0] CT
2 setlinecap
10.0 ML
N
127.5 259.5 M
126.5 257.768 L
124.5 257.768 L
123.5 259.5 L
124.5 261.232 L
126.5 261.232 L
127.5 259.5 L
S
GR
GS
[0.75 0 0 0.75 0 0] CT
2 setlinecap
10.0 ML
N
129.5 241.5 M
128.5 239.768 L
126.5 239.768 L
125.5 241.5 L
126.5 243.232 L
128.5 243.232 L
129.5 241.5 L
S
GR
GS
[0.75 0 0 0.75 0 0] CT
2 setlinecap
10.0 ML
N
131.5 223.5 M
130.5 221.768 L
128.5 221.768 L
127.5 223.5 L
128.5 225.232 L
130.5 225.232 L
131.5 223.5 L
S
GR
GS
[0.75 0 0 0.75 0 0] CT
2 setlinecap
10.0 ML
N
134.5 205.5 M
133.5 203.768 L
131.5 203.768 L
130.5 205.5 L
131.5 207.232 L
133.5 207.232 L
134.5 205.5 L
S
GR
GS
[0.75 0 0 0.75 0 0] CT
2 setlinecap
10.0 ML
N
137.5 187.5 M
136.5 185.768 L
134.5 185.768 L
133.5 187.5 L
134.5 189.232 L
136.5 189.232 L
137.5 187.5 L
S
GR
GS
[0.75 0 0 0.75 0 0] CT
2 setlinecap
10.0 ML
N
141.5 169.5 M
140.5 167.768 L
138.5 167.768 L
137.5 169.5 L
138.5 171.232 L
140.5 171.232 L
141.5 169.5 L
S
GR
GS
[0.75 0 0 0.75 0 0] CT
2 setlinecap
10.0 ML
N
146.5 148.5 M
145.5 146.768 L
143.5 146.768 L
142.5 148.5 L
143.5 150.232 L
145.5 150.232 L
146.5 148.5 L
S
GR
GS
[0.75 0 0 0.75 0 0] CT
2 setlinecap
10.0 ML
N
152.5 128.5 M
151.5 126.768 L
149.5 126.768 L
148.5 128.5 L
149.5 130.232 L
151.5 130.232 L
152.5 128.5 L
S
GR
GS
[0.75 0 0 0.75 0 0] CT
2 setlinecap
10.0 ML
N
127.5 360.5 M
126.5 358.768 L
124.5 358.768 L
123.5 360.5 L
124.5 362.232 L
126.5 362.232 L
127.5 360.5 L
S
GR
GS
[0.75 0 0 0.75 0 0] CT
2 setlinecap
10.0 ML
N
127.5 341.5 M
126.5 339.768 L
124.5 339.768 L
123.5 341.5 L
124.5 343.232 L
126.5 343.232 L
127.5 341.5 L
S
GR
GS
[0.75 0 0 0.75 0 0] CT
2 setlinecap
10.0 ML
N
128.5 322.5 M
127.5 320.768 L
125.5 320.768 L
124.5 322.5 L
125.5 324.232 L
127.5 324.232 L
128.5 322.5 L
S
GR
GS
[0.75 0 0 0.75 0 0] CT
2 setlinecap
10.0 ML
N
129.5 303.5 M
128.5 301.768 L
126.5 301.768 L
125.5 303.5 L
126.5 305.232 L
128.5 305.232 L
129.5 303.5 L
S
GR
GS
[0.75 0 0 0.75 0 0] CT
2 setlinecap
10.0 ML
N
130.5 285.5 M
129.5 283.768 L
127.5 283.768 L
126.5 285.5 L
127.5 287.232 L
129.5 287.232 L
130.5 285.5 L
S
GR
GS
[0.75 0 0 0.75 0 0] CT
2 setlinecap
10.0 ML
N
131.5 266.5 M
130.5 264.768 L
128.5 264.768 L
127.5 266.5 L
128.5 268.232 L
130.5 268.232 L
131.5 266.5 L
S
GR
GS
[0.75 0 0 0.75 0 0] CT
2 setlinecap
10.0 ML
N
133.5 247.5 M
132.5 245.768 L
130.5 245.768 L
129.5 247.5 L
130.5 249.232 L
132.5 249.232 L
133.5 247.5 L
S
GR
GS
[0.75 0 0 0.75 0 0] CT
2 setlinecap
10.0 ML
N
135.5 229.5 M
134.5 227.768 L
132.5 227.768 L
131.5 229.5 L
132.5 231.232 L
134.5 231.232 L
135.5 229.5 L
S
GR
GS
[0.75 0 0 0.75 0 0] CT
2 setlinecap
10.0 ML
N
138.5 211.5 M
137.5 209.768 L
135.5 209.768 L
134.5 211.5 L
135.5 213.232 L
137.5 213.232 L
138.5 211.5 L
S
GR
GS
[0.75 0 0 0.75 0 0] CT
2 setlinecap
10.0 ML
N
141.5 193.5 M
140.5 191.768 L
138.5 191.768 L
137.5 193.5 L
138.5 195.232 L
140.5 195.232 L
141.5 193.5 L
S
GR
GS
[0.75 0 0 0.75 0 0] CT
2 setlinecap
10.0 ML
N
145.5 174.5 M
144.5 172.768 L
142.5 172.768 L
141.5 174.5 L
142.5 176.232 L
144.5 176.232 L
145.5 174.5 L
S
GR
GS
[0.75 0 0 0.75 0 0] CT
2 setlinecap
10.0 ML
N
151.5 153.5 M
150.5 151.768 L
148.5 151.768 L
147.5 153.5 L
148.5 155.232 L
150.5 155.232 L
151.5 153.5 L
S
GR
GS
[0.75 0 0 0.75 0 0] CT
2 setlinecap
10.0 ML
N
157.5 132.5 M
156.5 130.768 L
154.5 130.768 L
153.5 132.5 L
154.5 134.232 L
156.5 134.232 L
157.5 132.5 L
S
GR
GS
[0.75 0 0 0.75 0 0] CT
2 setlinecap
10.0 ML
N
132.5 351.5 M
131.5 349.768 L
129.5 349.768 L
128.5 351.5 L
129.5 353.232 L
131.5 353.232 L
132.5 351.5 L
S
GR
GS
[0.75 0 0 0.75 0 0] CT
2 setlinecap
10.0 ML
N
133.5 331.5 M
132.5 329.768 L
130.5 329.768 L
129.5 331.5 L
130.5 333.232 L
132.5 333.232 L
133.5 331.5 L
S
GR
GS
[0.75 0 0 0.75 0 0] CT
2 setlinecap
10.0 ML
N
133.5 312.5 M
132.5 310.768 L
130.5 310.768 L
129.5 312.5 L
130.5 314.232 L
132.5 314.232 L
133.5 312.5 L
S
GR
GS
[0.75 0 0 0.75 0 0] CT
2 setlinecap
10.0 ML
N
134.5 292.5 M
133.5 290.768 L
131.5 290.768 L
130.5 292.5 L
131.5 294.232 L
133.5 294.232 L
134.5 292.5 L
S
GR
GS
[0.75 0 0 0.75 0 0] CT
2 setlinecap
10.0 ML
N
136.5 273.5 M
135.5 271.768 L
133.5 271.768 L
132.5 273.5 L
133.5 275.232 L
135.5 275.232 L
136.5 273.5 L
S
GR
GS
[0.75 0 0 0.75 0 0] CT
2 setlinecap
10.0 ML
N
138.5 254.5 M
137.5 252.768 L
135.5 252.768 L
134.5 254.5 L
135.5 256.232 L
137.5 256.232 L
138.5 254.5 L
S
GR
GS
[0.75 0 0 0.75 0 0] CT
2 setlinecap
10.0 ML
N
140.5 236.5 M
139.5 234.768 L
137.5 234.768 L
136.5 236.5 L
137.5 238.232 L
139.5 238.232 L
140.5 236.5 L
S
GR
GS
[0.75 0 0 0.75 0 0] CT
2 setlinecap
10.0 ML
N
143.5 217.5 M
142.5 215.768 L
140.5 215.768 L
139.5 217.5 L
140.5 219.232 L
142.5 219.232 L
143.5 217.5 L
S
GR
GS
[0.75 0 0 0.75 0 0] CT
2 setlinecap
10.0 ML
N
146.5 198.5 M
145.5 196.768 L
143.5 196.768 L
142.5 198.5 L
143.5 200.232 L
145.5 200.232 L
146.5 198.5 L
S
GR
GS
[0.75 0 0 0.75 0 0] CT
2 setlinecap
10.0 ML
N
150.5 179.5 M
149.5 177.768 L
147.5 177.768 L
146.5 179.5 L
147.5 181.232 L
149.5 181.232 L
150.5 179.5 L
S
GR
GS
[0.75 0 0 0.75 0 0] CT
2 setlinecap
10.0 ML
N
156.5 158.5 M
155.5 156.768 L
153.5 156.768 L
152.5 158.5 L
153.5 160.232 L
155.5 160.232 L
156.5 158.5 L
S
GR
GS
[0.75 0 0 0.75 0 0] CT
2 setlinecap
10.0 ML
N
162.5 137.5 M
161.5 135.768 L
159.5 135.768 L
158.5 137.5 L
159.5 139.232 L
161.5 139.232 L
162.5 137.5 L
S
GR
GS
[0.75 0 0 0.75 0 0] CT
2 setlinecap
10.0 ML
N
138.5 360.5 M
137.5 358.768 L
135.5 358.768 L
134.5 360.5 L
135.5 362.232 L
137.5 362.232 L
138.5 360.5 L
S
GR
GS
[0.75 0 0 0.75 0 0] CT
2 setlinecap
10.0 ML
N
138.5 340.5 M
137.5 338.768 L
135.5 338.768 L
134.5 340.5 L
135.5 342.232 L
137.5 342.232 L
138.5 340.5 L
S
GR
GS
[0.75 0 0 0.75 0 0] CT
2 setlinecap
10.0 ML
N
139.5 320.5 M
138.5 318.768 L
136.5 318.768 L
135.5 320.5 L
136.5 322.232 L
138.5 322.232 L
139.5 320.5 L
S
GR
GS
[0.75 0 0 0.75 0 0] CT
2 setlinecap
10.0 ML
N
140.5 301.5 M
139.5 299.768 L
137.5 299.768 L
136.5 301.5 L
137.5 303.232 L
139.5 303.232 L
140.5 301.5 L
S
GR
GS
[0.75 0 0 0.75 0 0] CT
2 setlinecap
10.0 ML
N
141.5 281.5 M
140.5 279.768 L
138.5 279.768 L
137.5 281.5 L
138.5 283.232 L
140.5 283.232 L
141.5 281.5 L
S
GR
GS
[0.75 0 0 0.75 0 0] CT
2 setlinecap
10.0 ML
N
143.5 262.5 M
142.5 260.768 L
140.5 260.768 L
139.5 262.5 L
140.5 264.232 L
142.5 264.232 L
143.5 262.5 L
S
GR
GS
[0.75 0 0 0.75 0 0] CT
2 setlinecap
10.0 ML
N
145.5 242.5 M
144.5 240.768 L
142.5 240.768 L
141.5 242.5 L
142.5 244.232 L
144.5 244.232 L
145.5 242.5 L
S
GR
GS
[0.75 0 0 0.75 0 0] CT
2 setlinecap
10.0 ML
N
147.5 223.5 M
146.5 221.768 L
144.5 221.768 L
143.5 223.5 L
144.5 225.232 L
146.5 225.232 L
147.5 223.5 L
S
GR
GS
[0.75 0 0 0.75 0 0] CT
2 setlinecap
10.0 ML
N
151.5 204.5 M
150.5 202.768 L
148.5 202.768 L
147.5 204.5 L
148.5 206.232 L
150.5 206.232 L
151.5 204.5 L
S
GR
GS
[0.75 0 0 0.75 0 0] CT
2 setlinecap
10.0 ML
N
154.5 185.5 M
153.5 183.768 L
151.5 183.768 L
150.5 185.5 L
151.5 187.232 L
153.5 187.232 L
154.5 185.5 L
S
GR
GS
[0.75 0 0 0.75 0 0] CT
2 setlinecap
10.0 ML
N
161.5 162.5 M
160.5 160.768 L
158.5 160.768 L
157.5 162.5 L
158.5 164.232 L
160.5 164.232 L
161.5 162.5 L
S
GR
GS
[0.75 0 0 0.75 0 0] CT
2 setlinecap
10.0 ML
N
167.5 141.5 M
166.5 139.768 L
164.5 139.768 L
163.5 141.5 L
164.5 143.232 L
166.5 143.232 L
167.5 141.5 L
S
GR
GS
[0.75 0 0 0.75 0 0] CT
2 setlinecap
10.0 ML
N
144.5 350.5 M
143.5 348.768 L
141.5 348.768 L
140.5 350.5 L
141.5 352.232 L
143.5 352.232 L
144.5 350.5 L
S
GR
GS
[0.75 0 0 0.75 0 0] CT
2 setlinecap
10.0 ML
N
144.5 330.5 M
143.5 328.768 L
141.5 328.768 L
140.5 330.5 L
141.5 332.232 L
143.5 332.232 L
144.5 330.5 L
S
GR
GS
[0.75 0 0 0.75 0 0] CT
2 setlinecap
10.0 ML
N
145.5 309.5 M
144.5 307.768 L
142.5 307.768 L
141.5 309.5 L
142.5 311.232 L
144.5 311.232 L
145.5 309.5 L
S
GR
GS
[0.75 0 0 0.75 0 0] CT
2 setlinecap
10.0 ML
N
146.5 289.5 M
145.5 287.768 L
143.5 287.768 L
142.5 289.5 L
143.5 291.232 L
145.5 291.232 L
146.5 289.5 L
S
GR
GS
[0.75 0 0 0.75 0 0] CT
2 setlinecap
10.0 ML
N
148.5 269.5 M
147.5 267.768 L
145.5 267.768 L
144.5 269.5 L
145.5 271.232 L
147.5 271.232 L
148.5 269.5 L
S
GR
GS
[0.75 0 0 0.75 0 0] CT
2 setlinecap
10.0 ML
N
150.5 249.5 M
149.5 247.768 L
147.5 247.768 L
146.5 249.5 L
147.5 251.232 L
149.5 251.232 L
150.5 249.5 L
S
GR
GS
[0.75 0 0 0.75 0 0] CT
2 setlinecap
10.0 ML
N
153.5 230.5 M
152.5 228.768 L
150.5 228.768 L
149.5 230.5 L
150.5 232.232 L
152.5 232.232 L
153.5 230.5 L
S
GR
GS
[0.75 0 0 0.75 0 0] CT
2 setlinecap
10.0 ML
N
156.5 210.5 M
155.5 208.768 L
153.5 208.768 L
152.5 210.5 L
153.5 212.232 L
155.5 212.232 L
156.5 210.5 L
S
GR
GS
[0.75 0 0 0.75 0 0] CT
2 setlinecap
10.0 ML
N
159.5 190.5 M
158.5 188.768 L
156.5 188.768 L
155.5 190.5 L
156.5 192.232 L
158.5 192.232 L
159.5 190.5 L
S
GR
GS
[0.75 0 0 0.75 0 0] CT
2 setlinecap
10.0 ML
N
166.5 167.5 M
165.5 165.768 L
163.5 165.768 L
162.5 167.5 L
163.5 169.232 L
165.5 169.232 L
166.5 167.5 L
S
GR
GS
[0.75 0 0 0.75 0 0] CT
2 setlinecap
10.0 ML
N
172.5 145.5 M
171.5 143.768 L
169.5 143.768 L
168.5 145.5 L
169.5 147.232 L
171.5 147.232 L
172.5 145.5 L
S
GR
GS
[0.75 0 0 0.75 0 0] CT
2 setlinecap
10.0 ML
N
150.5 360.5 M
149.5 358.768 L
147.5 358.768 L
146.5 360.5 L
147.5 362.232 L
149.5 362.232 L
150.5 360.5 L
S
GR
GS
[0.75 0 0 0.75 0 0] CT
2 setlinecap
10.0 ML
N
150.5 339.5 M
149.5 337.768 L
147.5 337.768 L
146.5 339.5 L
147.5 341.232 L
149.5 341.232 L
150.5 339.5 L
S
GR
GS
[0.75 0 0 0.75 0 0] CT
2 setlinecap
10.0 ML
N
151.5 319.5 M
150.5 317.768 L
148.5 317.768 L
147.5 319.5 L
148.5 321.232 L
150.5 321.232 L
151.5 319.5 L
S
GR
GS
[0.75 0 0 0.75 0 0] CT
2 setlinecap
10.0 ML
N
152.5 298.5 M
151.5 296.768 L
149.5 296.768 L
148.5 298.5 L
149.5 300.232 L
151.5 300.232 L
152.5 298.5 L
S
GR
GS
[0.75 0 0 0.75 0 0] CT
2 setlinecap
10.0 ML
N
154.5 277.5 M
153.5 275.768 L
151.5 275.768 L
150.5 277.5 L
151.5 279.232 L
153.5 279.232 L
154.5 277.5 L
S
GR
GS
[0.75 0 0 0.75 0 0] CT
2 setlinecap
10.0 ML
N
156.5 257.5 M
155.5 255.768 L
153.5 255.768 L
152.5 257.5 L
153.5 259.232 L
155.5 259.232 L
156.5 257.5 L
S
GR
GS
[0.75 0 0 0.75 0 0] CT
2 setlinecap
10.0 ML
N
158.5 236.5 M
157.5 234.768 L
155.5 234.768 L
154.5 236.5 L
155.5 238.232 L
157.5 238.232 L
158.5 236.5 L
S
GR
GS
[0.75 0 0 0.75 0 0] CT
2 setlinecap
10.0 ML
N
161.5 216.5 M
160.5 214.768 L
158.5 214.768 L
157.5 216.5 L
158.5 218.232 L
160.5 218.232 L
161.5 216.5 L
S
GR
GS
[0.75 0 0 0.75 0 0] CT
2 setlinecap
10.0 ML
N
165.5 196.5 M
164.5 194.768 L
162.5 194.768 L
161.5 196.5 L
162.5 198.232 L
164.5 198.232 L
165.5 196.5 L
S
GR
GS
[0.75 0 0 0.75 0 0] CT
2 setlinecap
10.0 ML
N
171.5 173.5 M
170.5 171.768 L
168.5 171.768 L
167.5 173.5 L
168.5 175.232 L
170.5 175.232 L
171.5 173.5 L
S
GR
GS
[0.75 0 0 0.75 0 0] CT
2 setlinecap
10.0 ML
N
178.5 150.5 M
177.5 148.768 L
175.5 148.768 L
174.5 150.5 L
175.5 152.232 L
177.5 152.232 L
178.5 150.5 L
S
GR
GS
[0.75 0 0 0.75 0 0] CT
2 setlinecap
10.0 ML
N
157.5 350.5 M
156.5 348.768 L
154.5 348.768 L
153.5 350.5 L
154.5 352.232 L
156.5 352.232 L
157.5 350.5 L
S
GR
GS
[0.75 0 0 0.75 0 0] CT
2 setlinecap
10.0 ML
N
157.5 328.5 M
156.5 326.768 L
154.5 326.768 L
153.5 328.5 L
154.5 330.232 L
156.5 330.232 L
157.5 328.5 L
S
GR
GS
[0.75 0 0 0.75 0 0] CT
2 setlinecap
10.0 ML
N
158.5 307.5 M
157.5 305.768 L
155.5 305.768 L
154.5 307.5 L
155.5 309.232 L
157.5 309.232 L
158.5 307.5 L
S
GR
GS
[0.75 0 0 0.75 0 0] CT
2 setlinecap
10.0 ML
N
160.5 286.5 M
159.5 284.768 L
157.5 284.768 L
156.5 286.5 L
157.5 288.232 L
159.5 288.232 L
160.5 286.5 L
S
GR
GS
[0.75 0 0 0.75 0 0] CT
2 setlinecap
10.0 ML
N
161.5 265.5 M
160.5 263.768 L
158.5 263.768 L
157.5 265.5 L
158.5 267.232 L
160.5 267.232 L
161.5 265.5 L
S
GR
GS
[0.75 0 0 0.75 0 0] CT
2 setlinecap
10.0 ML
N
164.5 244.5 M
163.5 242.768 L
161.5 242.768 L
160.5 244.5 L
161.5 246.232 L
163.5 246.232 L
164.5 244.5 L
S
GR
GS
[0.75 0 0 0.75 0 0] CT
2 setlinecap
10.0 ML
N
167.5 223.5 M
166.5 221.768 L
164.5 221.768 L
163.5 223.5 L
164.5 225.232 L
166.5 225.232 L
167.5 223.5 L
S
GR
GS
[0.75 0 0 0.75 0 0] CT
2 setlinecap
10.0 ML
N
170.5 202.5 M
169.5 200.768 L
167.5 200.768 L
166.5 202.5 L
167.5 204.232 L
169.5 204.232 L
170.5 202.5 L
S
GR
GS
[0.75 0 0 0.75 0 0] CT
2 setlinecap
10.0 ML
N
177.5 178.5 M
176.5 176.768 L
174.5 176.768 L
173.5 178.5 L
174.5 180.232 L
176.5 180.232 L
177.5 178.5 L
S
GR
GS
[0.75 0 0 0.75 0 0] CT
2 setlinecap
10.0 ML
N
184.5 155.5 M
183.5 153.768 L
181.5 153.768 L
180.5 155.5 L
181.5 157.232 L
183.5 157.232 L
184.5 155.5 L
S
GR
GS
[0.75 0 0 0.75 0 0] CT
2 setlinecap
10.0 ML
N
164.5 360.5 M
163.5 358.768 L
161.5 358.768 L
160.5 360.5 L
161.5 362.232 L
163.5 362.232 L
164.5 360.5 L
S
GR
GS
[0.75 0 0 0.75 0 0] CT
2 setlinecap
10.0 ML
N
164.5 338.5 M
163.5 336.768 L
161.5 336.768 L
160.5 338.5 L
161.5 340.232 L
163.5 340.232 L
164.5 338.5 L
S
GR
GS
[0.75 0 0 0.75 0 0] CT
2 setlinecap
10.0 ML
N
165.5 316.5 M
164.5 314.768 L
162.5 314.768 L
161.5 316.5 L
162.5 318.232 L
164.5 318.232 L
165.5 316.5 L
S
GR
GS
[0.75 0 0 0.75 0 0] CT
2 setlinecap
10.0 ML
N
166.5 295.5 M
165.5 293.768 L
163.5 293.768 L
162.5 295.5 L
163.5 297.232 L
165.5 297.232 L
166.5 295.5 L
S
GR
GS
[0.75 0 0 0.75 0 0] CT
2 setlinecap
10.0 ML
N
168.5 273.5 M
167.5 271.768 L
165.5 271.768 L
164.5 273.5 L
165.5 275.232 L
167.5 275.232 L
168.5 273.5 L
S
GR
GS
[0.75 0 0 0.75 0 0] CT
2 setlinecap
10.0 ML
N
170.5 251.5 M
169.5 249.768 L
167.5 249.768 L
166.5 251.5 L
167.5 253.232 L
169.5 253.232 L
170.5 251.5 L
S
GR
GS
[0.75 0 0 0.75 0 0] CT
2 setlinecap
10.0 ML
N
173.5 230.5 M
172.5 228.768 L
170.5 228.768 L
169.5 230.5 L
170.5 232.232 L
172.5 232.232 L
173.5 230.5 L
S
GR
GS
[0.75 0 0 0.75 0 0] CT
2 setlinecap
10.0 ML
N
177.5 208.5 M
176.5 206.768 L
174.5 206.768 L
173.5 208.5 L
174.5 210.232 L
176.5 210.232 L
177.5 208.5 L
S
GR
GS
[0.75 0 0 0.75 0 0] CT
2 setlinecap
10.0 ML
N
183.5 184.5 M
182.5 182.768 L
180.5 182.768 L
179.5 184.5 L
180.5 186.232 L
182.5 186.232 L
183.5 184.5 L
S
GR
GS
[0.75 0 0 0.75 0 0] CT
2 setlinecap
10.0 ML
N
190.5 160.5 M
189.5 158.768 L
187.5 158.768 L
186.5 160.5 L
187.5 162.232 L
189.5 162.232 L
190.5 160.5 L
S
GR
GS
[0.75 0 0 0.75 0 0] CT
2 setlinecap
10.0 ML
N
172.5 349.5 M
171.5 347.768 L
169.5 347.768 L
168.5 349.5 L
169.5 351.232 L
171.5 351.232 L
172.5 349.5 L
S
GR
GS
[0.75 0 0 0.75 0 0] CT
2 setlinecap
10.0 ML
N
172.5 327.5 M
171.5 325.768 L
169.5 325.768 L
168.5 327.5 L
169.5 329.232 L
171.5 329.232 L
172.5 327.5 L
S
GR
GS
[0.75 0 0 0.75 0 0] CT
2 setlinecap
10.0 ML
N
173.5 304.5 M
172.5 302.768 L
170.5 302.768 L
169.5 304.5 L
170.5 306.232 L
172.5 306.232 L
173.5 304.5 L
S
GR
GS
[0.75 0 0 0.75 0 0] CT
2 setlinecap
10.0 ML
N
175.5 282.5 M
174.5 280.768 L
172.5 280.768 L
171.5 282.5 L
172.5 284.232 L
174.5 284.232 L
175.5 282.5 L
S
GR
GS
[0.75 0 0 0.75 0 0] CT
2 setlinecap
10.0 ML
N
177.5 259.5 M
176.5 257.768 L
174.5 257.768 L
173.5 259.5 L
174.5 261.232 L
176.5 261.232 L
177.5 259.5 L
S
GR
GS
[0.75 0 0 0.75 0 0] CT
2 setlinecap
10.0 ML
N
180.5 237.5 M
179.5 235.768 L
177.5 235.768 L
176.5 237.5 L
177.5 239.232 L
179.5 239.232 L
180.5 237.5 L
S
GR
GS
[0.75 0 0 0.75 0 0] CT
2 setlinecap
10.0 ML
N
183.5 215.5 M
182.5 213.768 L
180.5 213.768 L
179.5 215.5 L
180.5 217.232 L
182.5 217.232 L
183.5 215.5 L
S
GR
GS
[0.75 0 0 0.75 0 0] CT
2 setlinecap
10.0 ML
N
190.5 190.5 M
189.5 188.768 L
187.5 188.768 L
186.5 190.5 L
187.5 192.232 L
189.5 192.232 L
190.5 190.5 L
S
GR
GS
[0.75 0 0 0.75 0 0] CT
2 setlinecap
10.0 ML
N
196.5 165.5 M
195.5 163.768 L
193.5 163.768 L
192.5 165.5 L
193.5 167.232 L
195.5 167.232 L
196.5 165.5 L
S
GR
GS
[0.75 0 0 0.75 0 0] CT
2 setlinecap
10.0 ML
N
180.5 360.5 M
179.5 358.768 L
177.5 358.768 L
176.5 360.5 L
177.5 362.232 L
179.5 362.232 L
180.5 360.5 L
S
GR
GS
[0.75 0 0 0.75 0 0] CT
2 setlinecap
10.0 ML
N
180.5 337.5 M
179.5 335.768 L
177.5 335.768 L
176.5 337.5 L
177.5 339.232 L
179.5 339.232 L
180.5 337.5 L
S
GR
GS
[0.75 0 0 0.75 0 0] CT
2 setlinecap
10.0 ML
N
181.5 314.5 M
180.5 312.768 L
178.5 312.768 L
177.5 314.5 L
178.5 316.232 L
180.5 316.232 L
181.5 314.5 L
S
GR
GS
[0.75 0 0 0.75 0 0] CT
2 setlinecap
10.0 ML
N
182.5 291.5 M
181.5 289.768 L
179.5 289.768 L
178.5 291.5 L
179.5 293.232 L
181.5 293.232 L
182.5 291.5 L
S
GR
GS
[0.75 0 0 0.75 0 0] CT
2 setlinecap
10.0 ML
N
184.5 268.5 M
183.5 266.768 L
181.5 266.768 L
180.5 268.5 L
181.5 270.232 L
183.5 270.232 L
184.5 268.5 L
S
GR
GS
[0.75 0 0 0.75 0 0] CT
2 setlinecap
10.0 ML
N
187.5 245.5 M
186.5 243.768 L
184.5 243.768 L
183.5 245.5 L
184.5 247.232 L
186.5 247.232 L
187.5 245.5 L
S
GR
GS
[0.75 0 0 0.75 0 0] CT
2 setlinecap
10.0 ML
N
190.5 222.5 M
189.5 220.768 L
187.5 220.768 L
186.5 222.5 L
187.5 224.232 L
189.5 224.232 L
190.5 222.5 L
S
GR
GS
[0.75 0 0 0.75 0 0] CT
2 setlinecap
10.0 ML
N
197.5 196.5 M
196.5 194.768 L
194.5 194.768 L
193.5 196.5 L
194.5 198.232 L
196.5 198.232 L
197.5 196.5 L
S
GR
GS
[0.75 0 0 0.75 0 0] CT
2 setlinecap
10.0 ML
N
203.5 171.5 M
202.5 169.768 L
200.5 169.768 L
199.5 171.5 L
200.5 173.232 L
202.5 173.232 L
203.5 171.5 L
S
GR
GS
[0.75 0 0 0.75 0 0] CT
2 setlinecap
10.0 ML
N
189.5 349.5 M
188.5 347.768 L
186.5 347.768 L
185.5 349.5 L
186.5 351.232 L
188.5 351.232 L
189.5 349.5 L
S
GR
GS
[0.75 0 0 0.75 0 0] CT
2 setlinecap
10.0 ML
N
189.5 325.5 M
188.5 323.768 L
186.5 323.768 L
185.5 325.5 L
186.5 327.232 L
188.5 327.232 L
189.5 325.5 L
S
GR
GS
[0.75 0 0 0.75 0 0] CT
2 setlinecap
10.0 ML
N
190.5 301.5 M
189.5 299.768 L
187.5 299.768 L
186.5 301.5 L
187.5 303.232 L
189.5 303.232 L
190.5 301.5 L
S
GR
GS
[0.75 0 0 0.75 0 0] CT
2 setlinecap
10.0 ML
N
192.5 277.5 M
191.5 275.768 L
189.5 275.768 L
188.5 277.5 L
189.5 279.232 L
191.5 279.232 L
192.5 277.5 L
S
GR
GS
[0.75 0 0 0.75 0 0] CT
2 setlinecap
10.0 ML
N
195.5 254.5 M
194.5 252.768 L
192.5 252.768 L
191.5 254.5 L
192.5 256.232 L
194.5 256.232 L
195.5 254.5 L
S
GR
GS
[0.75 0 0 0.75 0 0] CT
2 setlinecap
10.0 ML
N
198.5 230.5 M
197.5 228.768 L
195.5 228.768 L
194.5 230.5 L
195.5 232.232 L
197.5 232.232 L
198.5 230.5 L
S
GR
GS
[0.75 0 0 0.75 0 0] CT
2 setlinecap
10.0 ML
N
204.5 203.5 M
203.5 201.768 L
201.5 201.768 L
200.5 203.5 L
201.5 205.232 L
203.5 205.232 L
204.5 203.5 L
S
GR
GS
[0.75 0 0 0.75 0 0] CT
2 setlinecap
10.0 ML
N
211.5 177.5 M
210.5 175.768 L
208.5 175.768 L
207.5 177.5 L
208.5 179.232 L
210.5 179.232 L
211.5 177.5 L
S
GR
GS
[0.75 0 0 0.75 0 0] CT
2 setlinecap
10.0 ML
N
198.5 360.5 M
197.5 358.768 L
195.5 358.768 L
194.5 360.5 L
195.5 362.232 L
197.5 362.232 L
198.5 360.5 L
S
GR
GS
[0.75 0 0 0.75 0 0] CT
2 setlinecap
10.0 ML
N
198.5 336.5 M
197.5 334.768 L
195.5 334.768 L
194.5 336.5 L
195.5 338.232 L
197.5 338.232 L
198.5 336.5 L
S
GR
GS
[0.75 0 0 0.75 0 0] CT
2 setlinecap
10.0 ML
N
199.5 311.5 M
198.5 309.768 L
196.5 309.768 L
195.5 311.5 L
196.5 313.232 L
198.5 313.232 L
199.5 311.5 L
S
GR
GS
[0.75 0 0 0.75 0 0] CT
2 setlinecap
10.0 ML
N
201.5 287.5 M
200.5 285.768 L
198.5 285.768 L
197.5 287.5 L
198.5 289.232 L
200.5 289.232 L
201.5 287.5 L
S
GR
GS
[0.75 0 0 0.75 0 0] CT
2 setlinecap
10.0 ML
N
203.5 263.5 M
202.5 261.768 L
200.5 261.768 L
199.5 263.5 L
200.5 265.232 L
202.5 265.232 L
203.5 263.5 L
S
GR
GS
[0.75 0 0 0.75 0 0] CT
2 setlinecap
10.0 ML
N
206.5 238.5 M
205.5 236.768 L
203.5 236.768 L
202.5 238.5 L
203.5 240.232 L
205.5 240.232 L
206.5 238.5 L
S
GR
GS
[0.75 0 0 0.75 0 0] CT
2 setlinecap
10.0 ML
N
212.5 210.5 M
211.5 208.768 L
209.5 208.768 L
208.5 210.5 L
209.5 212.232 L
211.5 212.232 L
212.5 210.5 L
S
GR
GS
[0.75 0 0 0.75 0 0] CT
2 setlinecap
10.0 ML
N
219.5 184.5 M
218.5 182.768 L
216.5 182.768 L
215.5 184.5 L
216.5 186.232 L
218.5 186.232 L
219.5 184.5 L
S
GR
GS
[0.75 0 0 0.75 0 0] CT
2 setlinecap
10.0 ML
N
208.5 348.5 M
207.5 346.768 L
205.5 346.768 L
204.5 348.5 L
205.5 350.232 L
207.5 350.232 L
208.5 348.5 L
S
GR
GS
[0.75 0 0 0.75 0 0] CT
2 setlinecap
10.0 ML
N
209.5 323.5 M
208.5 321.768 L
206.5 321.768 L
205.5 323.5 L
206.5 325.232 L
208.5 325.232 L
209.5 323.5 L
S
GR
GS
[0.75 0 0 0.75 0 0] CT
2 setlinecap
10.0 ML
N
210.5 297.5 M
209.5 295.768 L
207.5 295.768 L
206.5 297.5 L
207.5 299.232 L
209.5 299.232 L
210.5 297.5 L
S
GR
GS
[0.75 0 0 0.75 0 0] CT
2 setlinecap
10.0 ML
N
212.5 272.5 M
211.5 270.768 L
209.5 270.768 L
208.5 272.5 L
209.5 274.232 L
211.5 274.232 L
212.5 272.5 L
S
GR
GS
[0.75 0 0 0.75 0 0] CT
2 setlinecap
10.0 ML
N
215.5 247.5 M
214.5 245.768 L
212.5 245.768 L
211.5 247.5 L
212.5 249.232 L
214.5 249.232 L
215.5 247.5 L
S
GR
GS
[0.75 0 0 0.75 0 0] CT
2 setlinecap
10.0 ML
N
221.5 218.5 M
220.5 216.768 L
218.5 216.768 L
217.5 218.5 L
218.5 220.232 L
220.5 220.232 L
221.5 218.5 L
S
GR
GS
[0.75 0 0 0.75 0 0] CT
2 setlinecap
10.0 ML
N
228.5 190.5 M
227.5 188.768 L
225.5 188.768 L
224.5 190.5 L
225.5 192.232 L
227.5 192.232 L
228.5 190.5 L
S
GR
GS
[0.75 0 0 0.75 0 0] CT
2 setlinecap
10.0 ML
N
219.5 360.5 M
218.5 358.768 L
216.5 358.768 L
215.5 360.5 L
216.5 362.232 L
218.5 362.232 L
219.5 360.5 L
S
GR
GS
[0.75 0 0 0.75 0 0] CT
2 setlinecap
10.0 ML
N
219.5 334.5 M
218.5 332.768 L
216.5 332.768 L
215.5 334.5 L
216.5 336.232 L
218.5 336.232 L
219.5 334.5 L
S
GR
GS
[0.75 0 0 0.75 0 0] CT
2 setlinecap
10.0 ML
N
220.5 308.5 M
219.5 306.768 L
217.5 306.768 L
216.5 308.5 L
217.5 310.232 L
219.5 310.232 L
220.5 308.5 L
S
GR
GS
[0.75 0 0 0.75 0 0] CT
2 setlinecap
10.0 ML
N
222.5 282.5 M
221.5 280.768 L
219.5 280.768 L
218.5 282.5 L
219.5 284.232 L
221.5 284.232 L
222.5 282.5 L
S
GR
GS
[0.75 0 0 0.75 0 0] CT
2 setlinecap
10.0 ML
N
225.5 256.5 M
224.5 254.768 L
222.5 254.768 L
221.5 256.5 L
222.5 258.232 L
224.5 258.232 L
225.5 256.5 L
S
GR
GS
[0.75 0 0 0.75 0 0] CT
2 setlinecap
10.0 ML
N
231.5 227.5 M
230.5 225.768 L
228.5 225.768 L
227.5 227.5 L
228.5 229.232 L
230.5 229.232 L
231.5 227.5 L
S
GR
GS
[0.75 0 0 0.75 0 0] CT
2 setlinecap
10.0 ML
N
237.5 198.5 M
236.5 196.768 L
234.5 196.768 L
233.5 198.5 L
234.5 200.232 L
236.5 200.232 L
237.5 198.5 L
S
GR
GS
[0.75 0 0 0.75 0 0] CT
2 setlinecap
10.0 ML
N
230.5 347.5 M
229.5 345.768 L
227.5 345.768 L
226.5 347.5 L
227.5 349.232 L
229.5 349.232 L
230.5 347.5 L
S
GR
GS
[0.75 0 0 0.75 0 0] CT
2 setlinecap
10.0 ML
N
231.5 320.5 M
230.5 318.768 L
228.5 318.768 L
227.5 320.5 L
228.5 322.232 L
230.5 322.232 L
231.5 320.5 L
S
GR
GS
[0.75 0 0 0.75 0 0] CT
2 setlinecap
10.0 ML
N
233.5 293.5 M
232.5 291.768 L
230.5 291.768 L
229.5 293.5 L
230.5 295.232 L
232.5 295.232 L
233.5 293.5 L
S
GR
GS
[0.75 0 0 0.75 0 0] CT
2 setlinecap
10.0 ML
N
235.5 266.5 M
234.5 264.768 L
232.5 264.768 L
231.5 266.5 L
232.5 268.232 L
234.5 268.232 L
235.5 266.5 L
S
GR
GS
[0.75 0 0 0.75 0 0] CT
2 setlinecap
10.0 ML
N
241.5 236.5 M
240.5 234.768 L
238.5 234.768 L
237.5 236.5 L
238.5 238.232 L
240.5 238.232 L
241.5 236.5 L
S
GR
GS
[0.75 0 0 0.75 0 0] CT
2 setlinecap
10.0 ML
N
248.5 206.5 M
247.5 204.768 L
245.5 204.768 L
244.5 206.5 L
245.5 208.232 L
247.5 208.232 L
248.5 206.5 L
S
GR
GS
[0.75 0 0 0.75 0 0] CT
2 setlinecap
10.0 ML
N
243.5 360.5 M
242.5 358.768 L
240.5 358.768 L
239.5 360.5 L
240.5 362.232 L
242.5 362.232 L
243.5 360.5 L
S
GR
GS
[0.75 0 0 0.75 0 0] CT
2 setlinecap
10.0 ML
N
243.5 333.5 M
242.5 331.768 L
240.5 331.768 L
239.5 333.5 L
240.5 335.232 L
242.5 335.232 L
243.5 333.5 L
S
GR
GS
[0.75 0 0 0.75 0 0] CT
2 setlinecap
10.0 ML
N
244.5 305.5 M
243.5 303.768 L
241.5 303.768 L
240.5 305.5 L
241.5 307.232 L
243.5 307.232 L
244.5 305.5 L
S
GR
GS
[0.75 0 0 0.75 0 0] CT
2 setlinecap
10.0 ML
N
247.5 277.5 M
246.5 275.768 L
244.5 275.768 L
243.5 277.5 L
244.5 279.232 L
246.5 279.232 L
247.5 277.5 L
S
GR
GS
[0.75 0 0 0.75 0 0] CT
2 setlinecap
10.0 ML
N
253.5 245.5 M
252.5 243.768 L
250.5 243.768 L
249.5 245.5 L
250.5 247.232 L
252.5 247.232 L
253.5 245.5 L
S
GR
GS
[0.75 0 0 0.75 0 0] CT
2 setlinecap
10.0 ML
N
259.5 214.5 M
258.5 212.768 L
256.5 212.768 L
255.5 214.5 L
256.5 216.232 L
258.5 216.232 L
259.5 214.5 L
S
GR
GS
[0.75 0 0 0.75 0 0] CT
2 setlinecap
10.0 ML
N
256.5 346.5 M
255.5 344.768 L
253.5 344.768 L
252.5 346.5 L
253.5 348.232 L
255.5 348.232 L
256.5 346.5 L
S
GR
GS
[0.75 0 0 0.75 0 0] CT
2 setlinecap
10.0 ML
N
257.5 317.5 M
256.5 315.768 L
254.5 315.768 L
253.5 317.5 L
254.5 319.232 L
256.5 319.232 L
257.5 317.5 L
S
GR
GS
[0.75 0 0 0.75 0 0] CT
2 setlinecap
10.0 ML
N
259.5 288.5 M
258.5 286.768 L
256.5 286.768 L
255.5 288.5 L
256.5 290.232 L
258.5 290.232 L
259.5 288.5 L
S
GR
GS
[0.75 0 0 0.75 0 0] CT
2 setlinecap
10.0 ML
N
265.5 255.5 M
264.5 253.768 L
262.5 253.768 L
261.5 255.5 L
262.5 257.232 L
264.5 257.232 L
265.5 255.5 L
S
GR
GS
[0.75 0 0 0.75 0 0] CT
2 setlinecap
10.0 ML
N
272.5 224.5 M
271.5 222.768 L
269.5 222.768 L
268.5 224.5 L
269.5 226.232 L
271.5 226.232 L
272.5 224.5 L
S
GR
GS
[0.75 0 0 0.75 0 0] CT
2 setlinecap
10.0 ML
N
271.5 360.5 M
270.5 358.768 L
268.5 358.768 L
267.5 360.5 L
268.5 362.232 L
270.5 362.232 L
271.5 360.5 L
S
GR
GS
[0.75 0 0 0.75 0 0] CT
2 setlinecap
10.0 ML
N
271.5 331.5 M
270.5 329.768 L
268.5 329.768 L
267.5 331.5 L
268.5 333.232 L
270.5 333.232 L
271.5 331.5 L
S
GR
GS
[0.75 0 0 0.75 0 0] CT
2 setlinecap
10.0 ML
N
273.5 300.5 M
272.5 298.768 L
270.5 298.768 L
269.5 300.5 L
270.5 302.232 L
272.5 302.232 L
273.5 300.5 L
S
GR
GS
[0.75 0 0 0.75 0 0] CT
2 setlinecap
10.0 ML
N
279.5 266.5 M
278.5 264.768 L
276.5 264.768 L
275.5 266.5 L
276.5 268.232 L
278.5 268.232 L
279.5 266.5 L
S
GR
GS
[0.75 0 0 0.75 0 0] CT
2 setlinecap
10.0 ML
N
285.5 233.5 M
284.5 231.768 L
282.5 231.768 L
281.5 233.5 L
282.5 235.232 L
284.5 235.232 L
285.5 233.5 L
S
GR
GS
[0.75 0 0 0.75 0 0] CT
2 setlinecap
10.0 ML
N
287.5 345.5 M
286.5 343.768 L
284.5 343.768 L
283.5 345.5 L
284.5 347.232 L
286.5 347.232 L
287.5 345.5 L
S
GR
GS
[0.75 0 0 0.75 0 0] CT
2 setlinecap
10.0 ML
N
288.5 314.5 M
287.5 312.768 L
285.5 312.768 L
284.5 314.5 L
285.5 316.232 L
287.5 316.232 L
288.5 314.5 L
S
GR
GS
[0.75 0 0 0.75 0 0] CT
2 setlinecap
10.0 ML
N
294.5 278.5 M
293.5 276.768 L
291.5 276.768 L
290.5 278.5 L
291.5 280.232 L
293.5 280.232 L
294.5 278.5 L
S
GR
GS
[0.75 0 0 0.75 0 0] CT
2 setlinecap
10.0 ML
N
300.5 244.5 M
299.5 242.768 L
297.5 242.768 L
296.5 244.5 L
297.5 246.232 L
299.5 246.232 L
300.5 244.5 L
S
GR
GS
[0.75 0 0 0.75 0 0] CT
2 setlinecap
10.0 ML
N
304.5 360.5 M
303.5 358.768 L
301.5 358.768 L
300.5 360.5 L
301.5 362.232 L
303.5 362.232 L
304.5 360.5 L
S
GR
GS
[0.75 0 0 0.75 0 0] CT
2 setlinecap
10.0 ML
N
305.5 328.5 M
304.5 326.768 L
302.5 326.768 L
301.5 328.5 L
302.5 330.232 L
304.5 330.232 L
305.5 328.5 L
S
GR
GS
[0.75 0 0 0.75 0 0] CT
2 setlinecap
10.0 ML
N
311.5 291.5 M
310.5 289.768 L
308.5 289.768 L
307.5 291.5 L
308.5 293.232 L
310.5 293.232 L
311.5 291.5 L
S
GR
GS
[0.75 0 0 0.75 0 0] CT
2 setlinecap
10.0 ML
N
316.5 256.5 M
315.5 254.768 L
313.5 254.768 L
312.5 256.5 L
313.5 258.232 L
315.5 258.232 L
316.5 256.5 L
S
GR
GS
[0.75 0 0 0.75 0 0] CT
2 setlinecap
10.0 ML
N
323.5 343.5 M
322.5 341.768 L
320.5 341.768 L
319.5 343.5 L
320.5 345.232 L
322.5 345.232 L
323.5 343.5 L
S
GR
GS
[0.75 0 0 0.75 0 0] CT
2 setlinecap
10.0 ML
N
329.5 305.5 M
328.5 303.768 L
326.5 303.768 L
325.5 305.5 L
326.5 307.232 L
328.5 307.232 L
329.5 305.5 L
S
GR
GS
[0.75 0 0 0.75 0 0] CT
2 setlinecap
10.0 ML
N
334.5 268.5 M
333.5 266.768 L
331.5 266.768 L
330.5 268.5 L
331.5 270.232 L
333.5 270.232 L
334.5 268.5 L
S
GR
GS
[0.75 0 0 0.75 0 0] CT
2 setlinecap
10.0 ML
N
344.5 360.5 M
343.5 358.768 L
341.5 358.768 L
340.5 360.5 L
341.5 362.232 L
343.5 362.232 L
344.5 360.5 L
S
GR
GS
[0.75 0 0 0.75 0 0] CT
2 setlinecap
10.0 ML
N
349.5 321.5 M
348.5 319.768 L
346.5 319.768 L
345.5 321.5 L
346.5 323.232 L
348.5 323.232 L
349.5 321.5 L
S
GR
GS
[0.75 0 0 0.75 0 0] CT
2 setlinecap
10.0 ML
N
355.5 282.5 M
354.5 280.768 L
352.5 280.768 L
351.5 282.5 L
352.5 284.232 L
354.5 284.232 L
355.5 282.5 L
S
GR
GS
[0.75 0 0 0.75 0 0] CT
2 setlinecap
10.0 ML
N
372.5 338.5 M
371.5 336.768 L
369.5 336.768 L
368.5 338.5 L
369.5 340.232 L
371.5 340.232 L
372.5 338.5 L
S
GR
GS
[0.75 0 0 0.75 0 0] CT
2 setlinecap
10.0 ML
N
377.5 297.5 M
376.5 295.768 L
374.5 295.768 L
373.5 297.5 L
374.5 299.232 L
376.5 299.232 L
377.5 297.5 L
S
GR
GS
[0.75 0 0 0.75 0 0] CT
2 setlinecap
10.0 ML
N
403.5 360.5 M
402.5 358.768 L
400.5 358.768 L
399.5 360.5 L
400.5 362.232 L
402.5 362.232 L
403.5 360.5 L
S
GR
GS
[0.75 0 0 0.75 0 0] CT
2 setlinecap
10.0 ML
N
402.5 313.5 M
401.5 311.768 L
399.5 311.768 L
398.5 313.5 L
399.5 315.232 L
401.5 315.232 L
402.5 313.5 L
S
GR
GS
[0.75 0 0 0.75 0 0] CT
2 setlinecap
10.0 ML
N
437.5 336.5 M
436.5 334.768 L
434.5 334.768 L
433.5 336.5 L
434.5 338.232 L
436.5 338.232 L
437.5 336.5 L
S
GR
GS
[0.75 0 0 0.75 0 0] CT
2 setlinecap
10.0 ML
N
474.5 360.5 M
473.5 358.768 L
471.5 358.768 L
470.5 360.5 L
471.5 362.232 L
473.5 362.232 L
474.5 360.5 L
S
GR
GS
[0.75 0 0 0.75 0 0] CT
1 GC
N
389 64 M
389 44 L
494 44 L
494 64 L
cp
f
GR
GS
[0.75 0 0 0.75 330.86497 40.5] CT
/Helvetica 12 F
GS
[1 0 0 1 0 0] CT
0 5.018 moveto 
1 -1 scale
(Gridpoint) t 
GR
GR
GS
[0.75 0 0 0.75 0 0] CT
2 setlinecap
10.0 ML
N
419.5 53.5 M
418.5 51.768 L
416.5 51.768 L
415.5 53.5 L
416.5 55.232 L
418.5 55.232 L
419.5 53.5 L
S
GR
GS
[0.75 0 0 0.75 0 0] CT
0.149 GC
2 setlinecap
10.0 ML
N
389 64 M
389 44 L
494 44 L
494 64 L
389 64 L
S
GR
%%Trailer
%%Pages: 1
%%EOF
