\relax 
\@writefile{lol}{\contentsline {lstlisting}{interiorpoint.m}{1}}
\@writefile{lot}{\contentsline {table}{\numberline {1}{\ignorespaces Interior point algorithm - values for Case 1: \emph  {iter = 5}}}{1}}
\newlabel{table1}{{1}{1}}
\@writefile{lot}{\contentsline {table}{\numberline {2}{\ignorespaces Interior Point algorithm - values for Case 2: \emph  {iter = 8}}}{2}}
\newlabel{my-label}{{2}{2}}
\@writefile{lot}{\contentsline {table}{\numberline {3}{\ignorespaces Axis of Symmetry Point algorithm - values for Input: \emph  {iter = 3}}}{5}}
\newlabel{my-label}{{3}{5}}
\@writefile{lol}{\contentsline {lstlisting}{aospoint.m}{5}}
