\relax 
\@writefile{lol}{\contentsline {lstlisting}{HW5B\textunderscore q1.m}{1}}
\@writefile{lof}{\contentsline {figure}{\numberline {1}{\ignorespaces Gridpoint Distribution in $x$, $y$}}{5}}
\newlabel{fig:xy}{{1}{5}}
\@writefile{lof}{\contentsline {figure}{\numberline {2}{\ignorespaces Gridpoint Distribution in $x$, $y$}}{6}}
\newlabel{fig:xy}{{2}{6}}
\@writefile{lof}{\contentsline {figure}{\numberline {3}{\ignorespaces Gridpoint Distribution in $x$, $y$}}{7}}
\newlabel{fig:xy}{{3}{7}}
